1660277121172	FirefoxAccounts	DEBUG	FxAccountsWebChannel registered: account_updates with origin https://accounts.firefox.com
1660277121230	FirefoxAccounts	TRACE	initializing new storage manager
1660277121230	FirefoxAccounts	TRACE	starting fetch of json user data
1660277121230	FirefoxAccounts	TRACE	initializing of new storage manager done
1660283434745	FirefoxAccounts	DEBUG	FxAccountsWebChannel message received: fxaccounts:fxa_status
1660283434745	FirefoxAccounts	DEBUG	fxa_status received
1660283434745	FirefoxAccounts	DEBUG	service: sync
1660283434745	FirefoxAccounts	DEBUG	is private browsing: false
1660283434832	FirefoxAccounts	DEBUG	FxAccountsWebChannel message received: fxaccounts:loaded
1660283434832	FirefoxAccounts	WARN	Unrecognized FxAccountsWebChannel command: fxaccounts:loaded
1660283471255	FirefoxAccounts	DEBUG	FxAccountsWebChannel message received: fxaccounts:can_link_account
1660283471255	FirefoxAccounts	DEBUG	FxAccountsWebChannel response: {"command":"fxaccounts:can_link_account","messageId":"16602834712492","data":{"ok":true}}
1660283583629	FirefoxAccounts	DEBUG	FxAccountsWebChannel message received: fxaccounts:login
1660283583629	FirefoxAccounts	DEBUG	Webchannel is logging a user in.
1660283583666	Sync.Status	INFO	Resetting Status.
1660283583666	Sync.Status	DEBUG	Status.service: undefined => success.status_ok
1660283583670	Sync.SyncScheduler	TRACE	Setting SyncScheduler policy values to defaults.
1660283583670	Sync.SyncScheduler	DEBUG	Clearing sync triggers and the global score.
1660283583670	Sync.Status	DEBUG	Status.login: success.login => error.login.reason.no_username
1660283583670	Sync.Status	DEBUG	Status.service: success.status_ok => service.client_not_configured
1660283583670	Sync.Status	DEBUG	Status.service: service.client_not_configured => service.client_not_configured
1660283583671	Sync.Service	INFO	Loading Weave 1.105.0
1660283583671	Sync.Engine.Clients	DEBUG	Engine constructed
1660283583672	Sync.Engine.Clients	DEBUG	Resetting clients last sync time
1660283583680	Sync.Engine.Addons	DEBUG	Engine constructed
1660283583694	Sync.Engine.Addons	DEBUG	SyncEngine initialized: addons
1660283583697	Sync.AddonsReconciler	DEBUG	No data seen in loaded file: addonsreconciler
1660283583700	Sync.Engine.Bookmarks	DEBUG	Engine constructed
1660283583702	Sync.Engine.Bookmarks	DEBUG	SyncEngine initialized: bookmarks
1660283583703	Sync.Engine.Forms	DEBUG	Engine constructed
1660283583704	Sync.Engine.Forms	DEBUG	SyncEngine initialized: forms
1660283583708	Sync.Engine.History	DEBUG	Engine constructed
1660283583709	Sync.Engine.History	DEBUG	SyncEngine initialized: history
1660283583713	Sync.Engine.Passwords	DEBUG	Engine constructed
1660283583714	Sync.Engine.Passwords	DEBUG	SyncEngine initialized: passwords
1660283583715	Sync.Engine.Prefs	DEBUG	Engine constructed
1660283583716	Sync.Engine.Prefs	DEBUG	SyncEngine initialized: prefs
1660283583718	Sync.Engine.Tabs	DEBUG	Engine constructed
1660283583750	Sync.Engine.Tabs	DEBUG	SyncEngine initialized: tabs
1660283583750	Sync.Engine.Tabs	DEBUG	Resetting tabs last sync time
1660283583765	Sync.Engine.CreditCards	DEBUG	Engine constructed
1660283583766	Sync.Engine.CreditCards	DEBUG	SyncEngine initialized: creditcards
1660283583785	Sync.Engine.Extension-Storage	DEBUG	Engine constructed
1660283583787	Sync.Engine.Extension-Storage	DEBUG	SyncEngine initialized: extension-storage
1660283583788	Sync.Service	INFO	Mozilla/5.0 (X11; Linux x86_64; rv:103.0) Gecko/20100101 Firefox/103.0
1660283583792	Sync.Status	DEBUG	Status.login: error.login.reason.no_username => error.login.reason.no_username
1660283583792	Sync.Status	DEBUG	Status.service: service.client_not_configured => service.client_not_configured
1660283583792	Sync.Status	DEBUG	Status.service: service.client_not_configured => service.client_not_configured
1660283583800	FirefoxAccounts	DEBUG	setSignedInUser - aborting any existing flows
1660283583801	FirefoxAccounts	INFO	An accountState promise was resolved, but was actually rejected due to a different user being signed in. Originally resolved with: null
1660283583801	FirefoxAccounts	INFO	An accountState promise was resolved, but was actually rejected due to a different user being signed in. Originally resolved with: null
1660283583801	FirefoxAccounts	DEBUG	removing account data
1660283583801	FirefoxAccounts	TRACE	starting write of json user data: null
1660283583802	Sync.Telemetry	WARN	Failed to set sync identifiers in the deletion-request ping: Error: A different user signed in
1660283583803	FirefoxAccounts	TRACE	finished write of json user data - took: 2
1660283583804	FirefoxAccounts	TRACE	storage set finished clearing account data
1660283583804	FirefoxAccounts	DEBUG	account data reset
1660283583804	FirefoxAccounts	TRACE	StorageManager finalizing
1660283583804	FirefoxAccounts	TRACE	StorageManager finalized
1660283583804	FirefoxAccounts	TRACE	initializing new storage manager
1660283583805	FirefoxAccounts	DEBUG	writing plain storage: ["email","sessionToken","uid","verified"]
1660283583805	FirefoxAccounts	TRACE	starting write of json user data: ["email","sessionToken","uid","verified"]
1660283583807	FirefoxAccounts	TRACE	finished write of json user data - took: 2
1660283583807	FirefoxAccounts	DEBUG	writing secure storage: ["keyFetchToken","unwrapBKey"]
1660283583807	FirefoxAccounts	TRACE	starting write of user data to the login manager
1660283583815	FirefoxAccounts	TRACE	finished write of user data to the login manager
1660283583815	FirefoxAccounts	TRACE	initializing of new storage manager done
1660283583815	FirefoxAccounts	DEBUG	startVerifiedCheck: false
1660283583815	FirefoxAccounts	DEBUG	whenVerified promise starts polling for verified email
1660283583815	FirefoxAccounts	DEBUG	entering startPollEmailStatus: start
1660283583815	FirefoxAccounts	DEBUG	entering pollEmailStatus: start
1660283583824	FirefoxAccounts	DEBUG	Notifying observers of fxaccounts:onlogin
1660283583825	Sync.SyncAuthManager	DEBUG	observed fxaccounts:onlogin
1660283583825	Sync.SyncAuthManager	INFO	Sync is not configured, so ignoring the notification
1660283583825	FirefoxAccounts	DEBUG	startVerifiedCheck: false
1660283583829	FirefoxAccounts	DEBUG	FxAccountsProfileClient: Initialized
1660283583830	FirefoxAccounts	DEBUG	FxAccountsPush loading service
1660283583830	FirefoxAccounts	DEBUG	FxAccountsPush initialized
1660283583830	FirefoxAccounts	TRACE	FxAccountsPush registerPushEndpoint
1660283583831	FirefoxAccounts	DEBUG	FxAccountsProfileClient: Requested profile
1660283583831	FirefoxAccounts	DEBUG	getOAuthToken enter
1660283583831	FirefoxAccounts	ERROR	FxA rejecting with error UNVERIFIED_ACCOUNT, details: undefined
1660283583832	FirefoxAccounts	ERROR	Background refresh of initial profile failed: Error: UNVERIFIED_ACCOUNT(resource://gre/modules/FxAccounts.jsm:1536:18) JS Stack trace: _error@FxAccounts.jsm:1536:18
withSessionToken@FxAccounts.jsm:795:18
1660283583836	FirefoxAccounts	DEBUG	startVerifiedCheck: false
1660283583836	FirefoxAccounts	DEBUG	FxAccountsProfileClient: Requested profile
1660283583836	FirefoxAccounts	DEBUG	getOAuthToken enter
1660283583836	FirefoxAccounts	ERROR	FxA rejecting with error UNVERIFIED_ACCOUNT, details: undefined
1660283583836	FirefoxAccounts	ERROR	Background refresh of initial profile failed: Error: UNVERIFIED_ACCOUNT(resource://gre/modules/FxAccounts.jsm:1536:18) JS Stack trace: _error@FxAccounts.jsm:1536:18
withSessionToken@FxAccounts.jsm:795:18
1660283583879	Services.Common.RESTRequest	DEBUG	GET request to https://api.accounts.firefox.com/v1/recovery_email/status?reason=start
1660283584302	FirefoxAccounts	DEBUG	FxAccountsPush got subscription
1660283584306	FirefoxAccounts	INFO	Generating and persisting encrypted sendtab keys
1660283584306	FirefoxAccounts	INFO	Could not find sendtab keys, generating them
1660283584314	FirefoxAccounts	DEBUG	_updateAccountData with items: ["device"]
1660283584315	FirefoxAccounts	DEBUG	writing plain storage: ["email","sessionToken","uid","verified","device"]
1660283584315	FirefoxAccounts	TRACE	starting write of json user data: ["email","sessionToken","uid","verified","device"]
1660283584315	FirefoxAccounts	INFO	Can't get keys; user is not verified
1660283584315	FirefoxAccounts	INFO	Can't fetch keys, so unable to determine sendtab keys
1660283584315	FirefoxAccounts	INFO	registering with available commands: []
1660283584315	FirefoxAccounts	DEBUG	registering new device details
1660283584316	FirefoxAccounts	TRACE	finished write of json user data - took: 1
1660283584316	FirefoxAccounts	DEBUG	writing secure storage: ["keyFetchToken","unwrapBKey"]
1660283584316	FirefoxAccounts	TRACE	starting write of user data to the login manager
1660283584320	FirefoxAccounts	TRACE	finished write of user data to the login manager
1660283584321	Services.Common.RESTRequest	DEBUG	POST request to https://api.accounts.firefox.com/v1/account/device
1660283584321	Services.Common.RESTRequest	DEBUG	POST Length: 433
1660283585388	Services.Common.RESTRequest	DEBUG	GET https://api.accounts.firefox.com/v1/recovery_email/status?reason=start 200
1660283585389	Hawk	DEBUG	(Response) /recovery_email/status?reason=start: code: 200 - Status text: OK
1660283585390	Hawk	DEBUG	Clock offset vs https://api.accounts.firefox.com/v1: -390
1660283585390	FirefoxAccounts	DEBUG	checkEmailStatus -> {"email":"prokaiindo003@gmail.com","verified":false,"sessionVerified":false,"emailVerified":false}
1660283585390	FirefoxAccounts	DEBUG	polling with timeout = 60000
1660283585490	Services.Common.RESTRequest	DEBUG	POST https://api.accounts.firefox.com/v1/account/device 200
1660283585491	Hawk	DEBUG	(Response) /account/device: code: 200 - Status text: OK
1660283585492	Hawk	DEBUG	Clock offset vs https://api.accounts.firefox.com/v1: -492
1660283585493	FirefoxAccounts	DEBUG	_updateAccountData with items: ["device"]
1660283585494	FirefoxAccounts	DEBUG	writing plain storage: ["email","sessionToken","uid","verified","device"]
1660283585494	FirefoxAccounts	TRACE	starting write of json user data: ["email","sessionToken","uid","verified","device"]
1660283585496	FirefoxAccounts	INFO	Generating and persisting encrypted sendtab keys
1660283585496	FirefoxAccounts	DEBUG	Received declined engines: ["passwords","creditcards"]
1660283585501	FirefoxAccounts	DEBUG	Webchannel is enabling sync
1660283585502	FirefoxAccounts	DEBUG	startVerifiedCheck: false
1660283585503	FirefoxAccounts	INFO	Can't get keys; user is not verified
1660283585503	FirefoxAccounts	INFO	Can't fetch keys, so unable to determine sendtab keys
1660283585503	Sync.Service	INFO	Configuring sync with current FxA user
1660283585507	FirefoxAccounts	DEBUG	FxAccountsProfileClient: Requested profile
1660283585508	FirefoxAccounts	DEBUG	getOAuthToken enter
1660283585508	Sync.SyncAuthManager	DEBUG	observed weave:connected
1660283585508	Sync.SyncAuthManager	INFO	Sync has been connected to a logged in user
1660283585509	FirefoxAccounts	TRACE	FxAccountsPush registerPushEndpoint
1660283585511	FirefoxAccounts	DEBUG	startVerifiedCheck: false
1660283585511	FirefoxAccounts	DEBUG	startVerifiedCheck: false
1660283585511	FirefoxAccounts	ERROR	FxA rejecting with error UNVERIFIED_ACCOUNT, details: undefined
1660283585515	FirefoxAccounts	ERROR	Background refresh of initial profile failed: Error: UNVERIFIED_ACCOUNT(resource://gre/modules/FxAccounts.jsm:1536:18) JS Stack trace: _error@FxAccounts.jsm:1536:18
withSessionToken@FxAccounts.jsm:795:18
1660283585517	FirefoxAccounts	DEBUG	FxAccountsProfileClient: Requested profile
1660283585517	FirefoxAccounts	DEBUG	getOAuthToken enter
1660283585517	Sync.SyncAuthManager	INFO	The user is not verified
1660283585517	FirefoxAccounts	ERROR	FxA rejecting with error UNVERIFIED_ACCOUNT, details: undefined
1660283585520	FirefoxAccounts	ERROR	Background refresh of initial profile failed: Error: UNVERIFIED_ACCOUNT(resource://gre/modules/FxAccounts.jsm:1536:18) JS Stack trace: _error@FxAccounts.jsm:1536:18
withSessionToken@FxAccounts.jsm:795:18
1660283585521	FirefoxAccounts	ERROR	Background refresh of initial profile failed: Error: UNVERIFIED_ACCOUNT(resource://gre/modules/FxAccounts.jsm:1536:18) JS Stack trace: _error@FxAccounts.jsm:1536:18
withSessionToken@FxAccounts.jsm:795:18
1660283585577	FirefoxAccounts	TRACE	finished write of json user data - took: 83
1660283585577	FirefoxAccounts	DEBUG	writing secure storage: ["keyFetchToken","unwrapBKey"]
1660283585577	FirefoxAccounts	TRACE	starting write of user data to the login manager
1660283585587	FirefoxAccounts	TRACE	finished write of user data to the login manager
1660283585588	FirefoxAccounts	DEBUG	FxAccountsPush got subscription
1660283585589	FirefoxAccounts	INFO	Generating and persisting encrypted sendtab keys
1660283585591	FirefoxAccounts	INFO	Can't get keys; user is not verified
1660283585591	FirefoxAccounts	INFO	Can't fetch keys, so unable to determine sendtab keys
1660283585591	FirefoxAccounts	INFO	registering with available commands: []
1660283585592	FirefoxAccounts	DEBUG	registering new device details
1660283585597	Services.Common.RESTRequest	DEBUG	POST request to https://api.accounts.firefox.com/v1/account/device
1660283585597	Services.Common.RESTRequest	DEBUG	POST Length: 433
1660283586001	Services.Common.RESTRequest	DEBUG	POST https://api.accounts.firefox.com/v1/account/device 200
1660283586001	Hawk	DEBUG	(Response) /account/device: code: 200 - Status text: OK
1660283586001	Hawk	DEBUG	Clock offset vs https://api.accounts.firefox.com/v1: -1001
1660283586002	FirefoxAccounts	DEBUG	_updateAccountData with items: ["device"]
1660283586002	FirefoxAccounts	DEBUG	writing plain storage: ["email","sessionToken","uid","verified","device"]
1660283586002	FirefoxAccounts	TRACE	starting write of json user data: ["email","sessionToken","uid","verified","device"]
1660283586002	FirefoxAccounts	INFO	Generating and persisting encrypted sendtab keys
1660283586003	FirefoxAccounts	INFO	Can't get keys; user is not verified
1660283586003	FirefoxAccounts	INFO	Can't fetch keys, so unable to determine sendtab keys
1660283586004	FirefoxAccounts	TRACE	finished write of json user data - took: 2
1660283586004	FirefoxAccounts	DEBUG	writing secure storage: ["keyFetchToken","unwrapBKey"]
1660283586004	FirefoxAccounts	TRACE	starting write of user data to the login manager
1660283586011	FirefoxAccounts	TRACE	finished write of user data to the login manager
1660283628005	FirefoxAccounts	TRACE	observed topic=push-message, data=chrome://fxa-device-update, subject=[xpconnect wrapped nsISupports]
1660283628006	FirefoxAccounts	TRACE	FxAccountsPushService _onPushMessage
1660283628006	FirefoxAccounts	DEBUG	empty push message - checking account status
1660283628006	FirefoxAccounts	TRACE	checkVerificationStatus
1660283628007	FirefoxAccounts	TRACE	checkVerificationStatus - forcing verification status check
1660283628007	FirefoxAccounts	DEBUG	entering startPollEmailStatus: push
1660283628007	FirefoxAccounts	DEBUG	startPollEmailStatus starting while existing timer is running
1660283628007	FirefoxAccounts	DEBUG	entering pollEmailStatus: push
1660283628016	Services.Common.RESTRequest	DEBUG	GET request to https://api.accounts.firefox.com/v1/recovery_email/status?reason=push
1660283628348	Services.Common.RESTRequest	DEBUG	GET https://api.accounts.firefox.com/v1/recovery_email/status?reason=push 200
1660283628348	Hawk	DEBUG	(Response) /recovery_email/status?reason=push: code: 200 - Status text: OK
1660283628349	Hawk	DEBUG	Clock offset vs https://api.accounts.firefox.com/v1: -349
1660283628349	FirefoxAccounts	DEBUG	checkEmailStatus -> {"email":"prokaiindo003@gmail.com","verified":true,"sessionVerified":true,"emailVerified":true}
1660283628349	FirefoxAccounts	DEBUG	_updateAccountData with items: ["verified"]
1660283628349	FirefoxAccounts	DEBUG	writing plain storage: ["email","sessionToken","uid","verified","device"]
1660283628349	FirefoxAccounts	TRACE	starting write of json user data: ["email","sessionToken","uid","verified","device"]
1660283628351	FirefoxAccounts	INFO	the user became verified
1660283628351	FirefoxAccounts	DEBUG	Notifying observers of fxaccounts:onverified
1660283628359	Sync.SyncAuthManager	DEBUG	observed fxaccounts:onverified
1660283628359	Sync.SyncAuthManager	INFO	The user became verified
1660283628359	Sync.Status	DEBUG	Status.login: error.login.reason.no_username => success.login
1660283628359	Sync.Status	DEBUG	Status.service: service.client_not_configured => success.status_ok
1660283628359	Sync.SyncAuthManager	INFO	Doing initial sync actions
1660283628361	Sync.AddonsReconciler	INFO	Registering as Add-on Manager listener.
1660283628361	Sync.AddonsReconciler	DEBUG	Adding change listener.
1660283628361	Sync.Engine.History.Tracker	INFO	Adding Places observer.
1660283628365	Sync.Service	DEBUG	User-Agent: Firefox/103.0.2 (Linux x86_64) FxSync/1.105.0.20220808225913.desktop
1660283628366	Sync.Service	INFO	Starting sync at 2022-08-12 11:23:48 in browser session q-M2libmcYvQ
1660283628366	Sync.Service	DEBUG	In sync: should login.
1660283628366	Sync.Service	INFO	User logged in successfully - verifying login.
1660283628367	FirefoxAccounts	INFO	Generating and persisting encrypted sendtab keys
1660283628367	FirefoxAccounts	DEBUG	FxAccountsProfileClient: Requested profile
1660283628367	FirefoxAccounts	DEBUG	getOAuthToken enter
1660283628370	Sync.SyncAuthManager	DEBUG	unlockAndVerifyAuthState already has (or can fetch) sync keys
1660283628371	FirefoxAccounts	INFO	fetching updated device list
1660283628373	FirefoxAccounts	INFO	Already fetching device list, return existing promise
1660283628375	FirefoxAccounts	INFO	Already fetching device list, return existing promise
1660283628376	Sync.Status	DEBUG	Status.login: success.login => success.status_ok
1660283628376	Sync.Status	DEBUG	Status.service: success.status_ok => error.login.failed
1660283628377	Sync.Service	DEBUG	Fetching unlocked auth state returned success.status_ok
1660283628378	Sync.SyncAuthManager	INFO	Getting sync key
1660283628419	FirefoxAccounts	TRACE	finished write of json user data - took: 69
1660283628419	FirefoxAccounts	DEBUG	writing secure storage: ["keyFetchToken","unwrapBKey"]
1660283628419	FirefoxAccounts	TRACE	starting write of user data to the login manager
1660283628423	FirefoxAccounts	TRACE	finished write of user data to the login manager
1660283628424	Services.Common.RESTRequest	DEBUG	GET request to https://api.accounts.firefox.com/v1/account/devices
1660283628426	Services.Common.RESTRequest	DEBUG	POST request to https://api.accounts.firefox.com/v1/oauth/token
1660283628426	Services.Common.RESTRequest	DEBUG	POST Length: 81
1660283628427	Services.Common.RESTRequest	DEBUG	POST request to https://api.accounts.firefox.com/v1/account/scoped-key-data
1660283628427	Services.Common.RESTRequest	DEBUG	POST Length: 84
1660283628803	Services.Common.RESTRequest	DEBUG	GET https://api.accounts.firefox.com/v1/account/devices 200
1660283628804	Hawk	DEBUG	(Response) /account/devices: code: 200 - Status text: OK
1660283628804	Hawk	DEBUG	Clock offset vs https://api.accounts.firefox.com/v1: -804
1660283628805	FirefoxAccounts	INFO	Got new device list: 0e10c749e66cf393c28456b4812b0b73
1660283628805	FirefoxAccounts	INFO	Generating and persisting encrypted sendtab keys
1660283628813	Services.Common.RESTRequest	DEBUG	POST https://api.accounts.firefox.com/v1/oauth/token 200
1660283628813	Hawk	DEBUG	(Response) /oauth/token: code: 200 - Status text: OK
1660283628814	Hawk	DEBUG	Clock offset vs https://api.accounts.firefox.com/v1: -814
1660283628814	FirefoxAccounts	DEBUG	_updateAccountData with items: ["oauthTokens"]
1660283628814	FirefoxAccounts	DEBUG	writing plain storage: ["email","sessionToken","uid","verified","device","oauthTokens"]
1660283628814	FirefoxAccounts	TRACE	starting write of json user data: ["email","sessionToken","uid","verified","device","oauthTokens"]
1660283628815	Services.Common.RESTRequest	DEBUG	GET request to https://profile.accounts.firefox.com/v1/profile
1660283628820	FirefoxAccounts	TRACE	finished write of json user data - took: 6
1660283628820	FirefoxAccounts	DEBUG	writing secure storage: ["keyFetchToken","unwrapBKey"]
1660283628820	FirefoxAccounts	TRACE	starting write of user data to the login manager
1660283628830	FirefoxAccounts	TRACE	finished write of user data to the login manager
1660283629706	Services.Common.RESTRequest	DEBUG	POST https://api.accounts.firefox.com/v1/account/scoped-key-data 200
1660283629707	Hawk	DEBUG	(Response) /account/scoped-key-data: code: 200 - Status text: OK
1660283629707	Hawk	DEBUG	Clock offset vs https://api.accounts.firefox.com/v1: -707
1660283629707	FirefoxAccounts	DEBUG	Fetching keys with token true from https://api.accounts.firefox.com/v1
1660283629708	Services.Common.RESTRequest	DEBUG	GET request to https://api.accounts.firefox.com/v1/account/keys
1660283630011	Services.Common.RESTRequest	DEBUG	GET https://api.accounts.firefox.com/v1/account/keys 200
1660283630012	Hawk	DEBUG	(Response) /account/keys: code: 200 - Status text: OK
1660283630012	Hawk	DEBUG	Clock offset vs https://api.accounts.firefox.com/v1: -1012
1660283630015	FirefoxAccounts	DEBUG	Keys Obtained: https://identity.mozilla.com/apps/oldsync, sync:addon_storage
1660283630015	FirefoxAccounts	DEBUG	_updateAccountData with items: ["scopedKeys","kSync","kXCS","kExtSync","kExtKbHash","keyFetchToken","unwrapBKey"]
1660283630015	FirefoxAccounts	DEBUG	writing plain storage: ["email","sessionToken","uid","verified","device","oauthTokens"]
1660283630015	FirefoxAccounts	TRACE	starting write of json user data: ["email","sessionToken","uid","verified","device","oauthTokens"]
1660283630016	Sync.BulkKeyBundle	INFO	BulkKeyBundle being created for undefined
1660283630016	Sync.SyncAuthManager	INFO	Getting a sync token from: https://token.services.mozilla.com/1.0/sync/1.5
1660283630016	Sync.SyncAuthManager	DEBUG	Getting a token using OAuth
1660283630016	FirefoxAccounts	DEBUG	getOAuthToken enter
1660283630016	Sync.BulkKeyBundle	INFO	BulkKeyBundle being created for undefined
1660283630018	FirefoxAccounts	TRACE	finished write of json user data - took: 3
1660283630018	FirefoxAccounts	DEBUG	writing secure storage: ["scopedKeys","kSync","kXCS","kExtSync","kExtKbHash"]
1660283630018	FirefoxAccounts	TRACE	starting write of user data to the login manager
1660283630022	FirefoxAccounts	TRACE	finished write of user data to the login manager
1660283630023	FirefoxAccounts	DEBUG	_updateAccountData with items: ["encryptedSendTabKeys"]
1660283630023	FirefoxAccounts	DEBUG	writing plain storage: ["email","sessionToken","uid","verified","device","oauthTokens","encryptedSendTabKeys"]
1660283630023	FirefoxAccounts	TRACE	starting write of json user data: ["email","sessionToken","uid","verified","device","oauthTokens","encryptedSendTabKeys"]
1660283630027	FirefoxAccounts	TRACE	FxAccountsPush registerPushEndpoint
1660283630029	FirefoxAccounts	DEBUG	_updateAccountData with items: ["encryptedSendTabKeys"]
1660283630029	FirefoxAccounts	WARN	Our commands need to be updated on the server
1660283630030	FirefoxAccounts	TRACE	FxAccountsPush registerPushEndpoint
1660283630032	Services.Common.RESTRequest	DEBUG	POST request to https://api.accounts.firefox.com/v1/oauth/token
1660283630032	Services.Common.RESTRequest	DEBUG	POST Length: 127
1660283630033	FirefoxAccounts	TRACE	finished write of json user data - took: 9
1660283630033	FirefoxAccounts	DEBUG	writing secure storage: ["scopedKeys","kSync","kXCS","kExtSync","kExtKbHash"]
1660283630033	FirefoxAccounts	TRACE	starting write of user data to the login manager
1660283630036	FirefoxAccounts	TRACE	finished write of user data to the login manager
1660283630036	FirefoxAccounts	DEBUG	writing plain storage: ["email","sessionToken","uid","verified","device","oauthTokens","encryptedSendTabKeys"]
1660283630037	FirefoxAccounts	TRACE	starting write of json user data: ["email","sessionToken","uid","verified","device","oauthTokens","encryptedSendTabKeys"]
1660283630038	FirefoxAccounts	DEBUG	FxAccountsPush got subscription
1660283630038	FirefoxAccounts	INFO	registering with available commands: ["https://identity.mozilla.com/cmd/open-uri"]
1660283630038	FirefoxAccounts	DEBUG	updating existing device details
1660283630038	FirefoxAccounts	DEBUG	FxAccountsPush got subscription
1660283630039	FirefoxAccounts	INFO	registering with available commands: ["https://identity.mozilla.com/cmd/open-uri"]
1660283630039	FirefoxAccounts	DEBUG	updating existing device details
1660283630039	FirefoxAccounts	TRACE	finished write of json user data - took: 2
1660283630039	FirefoxAccounts	DEBUG	writing secure storage: ["scopedKeys","kSync","kXCS","kExtSync","kExtKbHash"]
1660283630039	FirefoxAccounts	TRACE	starting write of user data to the login manager
1660283630047	FirefoxAccounts	TRACE	finished write of user data to the login manager
1660283630050	Services.Common.RESTRequest	DEBUG	POST request to https://api.accounts.firefox.com/v1/account/device
1660283630050	Services.Common.RESTRequest	DEBUG	POST Length: 874
1660283630051	Services.Common.RESTRequest	DEBUG	POST request to https://api.accounts.firefox.com/v1/account/device
1660283630051	Services.Common.RESTRequest	DEBUG	POST Length: 874
1660283630205	Services.Common.RESTRequest	DEBUG	GET https://profile.accounts.firefox.com/v1/profile 200
1660283630207	FirefoxAccounts	DEBUG	_updateAccountData with items: ["profileCache"]
1660283630208	FirefoxAccounts	DEBUG	writing plain storage: ["email","sessionToken","uid","verified","device","oauthTokens","encryptedSendTabKeys","profileCache"]
1660283630209	FirefoxAccounts	TRACE	starting write of json user data: ["email","sessionToken","uid","verified","device","oauthTokens","encryptedSendTabKeys","profileCache"]
1660283630209	FirefoxAccounts	DEBUG	notifying profile changed for user a5b90bc7c1944b7ab13a4555c670a28e
1660283630211	FirefoxAccounts	TRACE	not checking freshness of profile as it remains recent
1660283630217	FirefoxAccounts	INFO	Already fetching device list, return existing promise
1660283630221	FirefoxAccounts	INFO	Already fetching device list, return existing promise
1660283630224	FirefoxAccounts	INFO	Already fetching device list, return existing promise
1660283630237	FirefoxAccounts	TRACE	finished write of json user data - took: 28
1660283630237	FirefoxAccounts	DEBUG	writing secure storage: ["scopedKeys","kSync","kXCS","kExtSync","kExtKbHash"]
1660283630237	FirefoxAccounts	TRACE	starting write of user data to the login manager
1660283630258	FirefoxAccounts	TRACE	finished write of user data to the login manager
1660283630331	Services.Common.RESTRequest	DEBUG	POST https://api.accounts.firefox.com/v1/oauth/token 200
1660283630331	Hawk	DEBUG	(Response) /oauth/token: code: 200 - Status text: OK
1660283630331	Hawk	DEBUG	Clock offset vs https://api.accounts.firefox.com/v1: -331
1660283630331	FirefoxAccounts	DEBUG	_updateAccountData with items: ["oauthTokens"]
1660283630331	FirefoxAccounts	DEBUG	writing plain storage: ["email","sessionToken","uid","verified","device","oauthTokens","encryptedSendTabKeys","profileCache"]
1660283630331	FirefoxAccounts	TRACE	starting write of json user data: ["email","sessionToken","uid","verified","device","oauthTokens","encryptedSendTabKeys","profileCache"]
1660283630332	Services.Common.TokenServerClient	DEBUG	Beginning OAuth token exchange: https://token.services.mozilla.com/1.0/sync/1.5
1660283630332	Services.Common.RESTRequest	DEBUG	GET request to https://token.services.mozilla.com/1.0/sync/1.5
1660283630333	FirefoxAccounts	TRACE	finished write of json user data - took: 2
1660283630333	FirefoxAccounts	DEBUG	writing secure storage: ["scopedKeys","kSync","kXCS","kExtSync","kExtKbHash"]
1660283630333	FirefoxAccounts	TRACE	starting write of user data to the login manager
1660283630337	FirefoxAccounts	TRACE	finished write of user data to the login manager
1660283630369	Services.Common.RESTRequest	DEBUG	POST https://api.accounts.firefox.com/v1/account/device 200
1660283630370	Hawk	DEBUG	(Response) /account/device: code: 200 - Status text: OK
1660283630370	Hawk	DEBUG	Clock offset vs https://api.accounts.firefox.com/v1: -370
1660283630370	FirefoxAccounts	DEBUG	_updateAccountData with items: ["device"]
1660283630370	FirefoxAccounts	DEBUG	writing plain storage: ["email","sessionToken","uid","verified","device","oauthTokens","encryptedSendTabKeys","profileCache"]
1660283630370	FirefoxAccounts	TRACE	starting write of json user data: ["email","sessionToken","uid","verified","device","oauthTokens","encryptedSendTabKeys","profileCache"]
1660283630370	FirefoxAccounts	INFO	updating the cache
1660283630371	FirefoxAccounts	TRACE	finished write of json user data - took: 1
1660283630371	FirefoxAccounts	DEBUG	writing secure storage: ["scopedKeys","kSync","kXCS","kExtSync","kExtKbHash"]
1660283630371	FirefoxAccounts	TRACE	starting write of user data to the login manager
1660283630374	FirefoxAccounts	TRACE	finished write of user data to the login manager
1660283630385	Services.Common.RESTRequest	DEBUG	POST https://api.accounts.firefox.com/v1/account/device 200
1660283630385	Hawk	DEBUG	(Response) /account/device: code: 200 - Status text: OK
1660283630385	Hawk	DEBUG	Clock offset vs https://api.accounts.firefox.com/v1: -385
1660283630385	FirefoxAccounts	DEBUG	_updateAccountData with items: ["device"]
1660283630385	FirefoxAccounts	DEBUG	writing plain storage: ["email","sessionToken","uid","verified","device","oauthTokens","encryptedSendTabKeys","profileCache"]
1660283630386	FirefoxAccounts	TRACE	starting write of json user data: ["email","sessionToken","uid","verified","device","oauthTokens","encryptedSendTabKeys","profileCache"]
1660283630386	FirefoxAccounts	TRACE	finished write of json user data - took: 0
1660283630386	FirefoxAccounts	DEBUG	writing secure storage: ["scopedKeys","kSync","kXCS","kExtSync","kExtKbHash"]
1660283630386	FirefoxAccounts	TRACE	starting write of user data to the login manager
1660283630390	FirefoxAccounts	TRACE	finished write of user data to the login manager
1660283631528	Services.Common.RESTRequest	DEBUG	GET https://token.services.mozilla.com/1.0/sync/1.5 200
1660283631528	Services.Common.TokenServerClient	DEBUG	Got token response: 200
1660283631529	Services.Common.TokenServerClient	DEBUG	Successful token response
1660283631529	Sync.BulkKeyBundle	INFO	BulkKeyBundle being created for undefined
1660283631529	Sync.Status	DEBUG	Status.login: success.status_ok => success.login
1660283631529	Sync.Status	DEBUG	Status.service: error.login.failed => success.status_ok
1660283631532	Sync.SyncAuthManager	DEBUG	_findCluster returning https://sync-1-us-west1-g.sync.services.mozilla.com/1.5/198765937/
1660283631532	Sync.SyncAuthManager	DEBUG	Cluster value = https://sync-1-us-west1-g.sync.services.mozilla.com/1.5/198765937/
1660283631532	Sync.SyncAuthManager	DEBUG	Setting cluster to https://sync-1-us-west1-g.sync.services.mozilla.com/1.5/198765937/
1660283631532	Sync.Service	DEBUG	Caching URLs under storage user base: https://sync-1-us-west1-g.sync.services.mozilla.com/1.5/198765937/
1660283631533	FirefoxAccounts	TRACE	not checking freshness of profile as it remains recent
1660283631533	FirefoxAccounts	TRACE	not checking freshness of profile as it remains recent
1660283631885	Sync.Resource	DEBUG	GET success 200 https://sync-1-us-west1-g.sync.services.mozilla.com/1.5/198765937/info/collections
1660283631886	Sync.Service	DEBUG	Fetching server configuration: https://sync-1-us-west1-g.sync.services.mozilla.com/1.5/198765937/info/configuration
1660283631887	FirefoxAccounts	TRACE	not checking freshness of profile as it remains recent
1660283632135	Sync.Resource	DEBUG	GET success 200 https://sync-1-us-west1-g.sync.services.mozilla.com/1.5/198765937/info/configuration
1660283632135	Sync.Service	DEBUG	Fetching global metadata record
1660283632136	FirefoxAccounts	TRACE	not checking freshness of profile as it remains recent
1660283632402	Sync.Resource	DEBUG	GET fail 404 https://sync-1-us-west1-g.sync.services.mozilla.com/1.5/198765937/storage/meta/global
1660283632402	Sync.Resource	WARN	GET request to https://sync-1-us-west1-g.sync.services.mozilla.com/1.5/198765937/storage/meta/global failed with status 404
1660283632403	Sync.Service	DEBUG	Weave Version: 1.105.0 Local Storage: 5 Remote Storage: 
1660283632403	Sync.Service	INFO	One of: no meta, no meta storageVersion, or no meta syncID. Fresh start needed.
1660283632403	Sync.Service	INFO	No metadata record, server wipe needed
1660283632403	Sync.Service	INFO	Wiping server data
1660283632403	Sync.Service	INFO	Fresh start. Resetting client.
1660283632403	Sync.Service	INFO	Service reset.
1660283632405	Sync.Engine.Clients	DEBUG	Resetting clients last sync time
1660283632410	Sync.Engine.Addons	DEBUG	Resetting addons last sync time
1660283632413	Sync.Engine.Bookmarks	DEBUG	Resetting bookmarks last sync time
1660283632687	Sync.Engine.Forms	DEBUG	Resetting forms last sync time
1660283632687	Sync.Engine.History	DEBUG	Resetting history last sync time
1660283632689	Sync.Engine.Passwords	DEBUG	Resetting passwords last sync time
1660283632689	Sync.Engine.Prefs	DEBUG	Resetting prefs last sync time
1660283632690	Sync.Engine.Tabs	DEBUG	Resetting tabs last sync time
1660283632726	Sync.Engine.Extension-Storage	DEBUG	Resetting extension-storage last sync time
1660283632826	Sync.CollectionKeyManager	INFO	Clearing collection keys...
1660283632827	FirefoxAccounts	TRACE	not checking freshness of profile as it remains recent
1660283633094	Sync.Resource	DEBUG	DELETE success 200 https://sync-1-us-west1-g.sync.services.mozilla.com/1.5/198765937/storage
1660283633095	Sync.Service	DEBUG	Uploading meta/global: {"payload":"{\"syncID\":\"rIl4WXkHzkzU\",\"storageVersion\":5,\"declined\":[\"passwords\",\"creditcards\"]}","id":"global","modified":0}
1660283633097	FirefoxAccounts	TRACE	not checking freshness of profile as it remains recent
1660283633098	Sync.Resource	DEBUG	PUT Length: 136
1660283633469	Sync.Resource	DEBUG	PUT success 200 https://sync-1-us-west1-g.sync.services.mozilla.com/1.5/198765937/storage/meta/global
1660283633470	Sync.Service	INFO	Generating new keys WBO...
1660283633470	Sync.BulkKeyBundle	INFO	BulkKeyBundle being created for [default]
1660283633472	Sync.Service	INFO	Encrypting new key bundle.
1660283633474	Sync.Service	DEBUG	Uploading crypto/keys (lastModified: 0)
1660283633475	FirefoxAccounts	TRACE	not checking freshness of profile as it remains recent
1660283633476	Sync.Resource	DEBUG	PUT Length: 377
1660283633771	Sync.Resource	DEBUG	PUT success 200 https://sync-1-us-west1-g.sync.services.mozilla.com/1.5/198765937/storage/crypto/keys
1660283633771	Sync.Service	INFO	Got status 200 uploading keys.
1660283633772	Sync.Service	DEBUG	Server reports crypto modified: 1660283633.64
1660283633772	Sync.Service	DEBUG	Verifying server collection records.
1660283633772	FirefoxAccounts	TRACE	not checking freshness of profile as it remains recent
1660283634036	Sync.Resource	DEBUG	GET success 200 https://sync-1-us-west1-g.sync.services.mozilla.com/1.5/198765937/info/collections
1660283634036	Sync.Service	DEBUG	info/collections is: {"crypto":1660283633.64,"meta":1660283633.29}
1660283634037	FirefoxAccounts	TRACE	not checking freshness of profile as it remains recent
1660283634298	Sync.Resource	DEBUG	GET success 200 https://sync-1-us-west1-g.sync.services.mozilla.com/1.5/198765937/storage/crypto/keys
1660283634299	Sync.CollectionKeyManager	INFO	Updating collection keys...
1660283634301	Sync.CollectionKeyManager	INFO	Setting collection keys contents. Our last modified: 0, input modified: 1660283633.64.
1660283634301	Sync.BulkKeyBundle	INFO	BulkKeyBundle being created for [default]
1660283634301	Sync.CollectionKeyManager	INFO	Processing downloaded per-collection keys.
1660283634301	Sync.CollectionKeyManager	INFO	Clearing collection keys...
1660283634301	Sync.CollectionKeyManager	INFO	Saving downloaded keys.
1660283634301	Sync.CollectionKeyManager	INFO	Bumping last modified to 1660283633.64
1660283634301	Sync.CollectionKeyManager	INFO	Collection keys updated.
1660283634301	Sync.Service	INFO	Metadata record not found, server was wiped to ensure consistency.
1660283634302	Sync.Status	DEBUG	Status.login: success.login => success.login
1660283634302	Sync.Status	DEBUG	Status.service: success.status_ok => success.status_ok
1660283634302	Sync.Service	DEBUG	Caching URLs under storage user base: https://sync-1-us-west1-g.sync.services.mozilla.com/1.5/198765937/
1660283634302	Sync.SyncScheduler	DEBUG	Clearing sync triggers and the global score.
1660283634311	Sync.Status	INFO	Resetting Status.
1660283634311	Sync.Status	DEBUG	Status.service: success.status_ok => success.status_ok
1660283634313	FirefoxAccounts	TRACE	not checking freshness of profile as it remains recent
1660283634442	FirefoxAccounts	DEBUG	FxAccountsWebChannel message received: fxaccounts:pair_preferences
1660283634577	Sync.Resource	DEBUG	GET success 200 https://sync-1-us-west1-g.sync.services.mozilla.com/1.5/198765937/info/collections?v=1.105.0
1660283634577	Sync.Service	DEBUG	Fetching server configuration: https://sync-1-us-west1-g.sync.services.mozilla.com/1.5/198765937/info/configuration
1660283634577	FirefoxAccounts	TRACE	not checking freshness of profile as it remains recent
1660283634748	FirefoxAccounts	TRACE	not checking freshness of profile as it remains recent
1660283634748	FirefoxAccounts	TRACE	not checking freshness of profile as it remains recent
1660283634748	FirefoxAccounts	TRACE	not checking freshness of profile as it remains recent
1660283634748	FirefoxAccounts	TRACE	not checking freshness of profile as it remains recent
1660283634838	Sync.Resource	DEBUG	GET success 200 https://sync-1-us-west1-g.sync.services.mozilla.com/1.5/198765937/info/configuration
1660283634839	Sync.Service	DEBUG	Fetching global metadata record
1660283634839	Sync.Service	DEBUG	Weave Version: 1.105.0 Local Storage: 5 Remote Storage: 5
1660283634839	Sync.Service	DEBUG	Fetching and verifying -- or generating -- symmetric keys.
1660283634839	Sync.Service	INFO	Testing info/collections: {"crypto":1660283633.64,"meta":1660283633.29}
1660283634839	Sync.CollectionKeyManager	INFO	Testing for updateNeeded. Last modified: 1660283633.64
1660283634839	Sync.Synchronizer	DEBUG	Refreshing client list.
1660283634840	Sync.Engine.Clients	DEBUG	Old engine data: ,1
1660283634840	Sync.Engine.Clients	DEBUG	Engine syncIDs: qxzCoZA47NfU,
1660283634841	FirefoxAccounts	TRACE	not checking freshness of profile as it remains recent
1660283634985	FirefoxAccounts	TRACE	not checking freshness of profile as it remains recent
1660283634986	FirefoxAccounts	TRACE	not checking freshness of profile as it remains recent
1660283635017	FirefoxAccounts	TRACE	not checking freshness of profile as it remains recent
1660283635326	Sync.Resource	DEBUG	DELETE success 200 https://sync-1-us-west1-g.sync.services.mozilla.com/1.5/198765937/storage/clients
1660283635326	Sync.Engine.Clients	DEBUG	Resetting clients last sync time
1660283635331	Sync.Engine.Clients	DEBUG	First sync, uploading all items
1660283635331	Sync.Engine.Clients	DEBUG	Resetting clients last sync time
1660283635332	Sync.Engine.Clients	INFO	Records: 0 applied, 0 successfully, 0 failed to apply, 0 newly failed to apply, 0 reconciled.
1660283635332	FirefoxAccounts	INFO	Device list cache is fresh, re-using it
1660283635332	Sync.Engine.Clients	DEBUG	Refreshing the known stale clients list
1660283635361	Sync.Engine.Clients	INFO	Uploading 1 outgoing records
1660283635363	Sync.Engine.Clients	INFO	Posting 1 records of 549 bytes with batch=true
1660283635363	FirefoxAccounts	TRACE	not checking freshness of profile as it remains recent
1660283635364	Sync.Collection	DEBUG	POST Length: 549
1660283635668	Sync.Collection	DEBUG	POST success 200 https://sync-1-us-west1-g.sync.services.mozilla.com/1.5/198765937/storage/clients?batch=true&commit=true
1660283635669	Sync.Engine.Clients	INFO	Uploaded our client record for the first time, notifying other clients.
1660283635676	Sync.SyncScheduler	DEBUG	Client count: 0 -> 1
1660283635679	Sync.Engine.Prefs	DEBUG	Resetting prefs last sync time
1660283635679	Sync.Engine.Tabs	DEBUG	Resetting tabs last sync time
1660283635679	Sync.Engine.Bookmarks	DEBUG	Resetting bookmarks last sync time
1660283635681	Services.Common.RESTRequest	DEBUG	POST request to https://api.accounts.firefox.com/v1/account/devices/notify
1660283635681	Services.Common.RESTRequest	DEBUG	POST Length: 184
1660283635852	Sync.Engine.Addons	DEBUG	Resetting addons last sync time
1660283635853	Sync.Engine.Forms	DEBUG	Resetting forms last sync time
1660283635853	Sync.Engine.History	DEBUG	Resetting history last sync time
1660283635854	Sync.Engine.Extension-Storage	DEBUG	Resetting extension-storage last sync time
1660283635886	Sync.Synchronizer	INFO	Updating enabled engines: 1 clients.
1660283635886	Sync.Synchronizer	DEBUG	meta/global isn't new, or is missing engines. Not updating enabled state.
1660283635886	Sync.Synchronizer	INFO	Syncing all enabled engines.
1660283635887	Sync.Engine.Prefs	DEBUG	Old engine data: ,2
1660283635887	Sync.Engine.Prefs	DEBUG	Engine syncIDs: X84DNRhH0xzG,
1660283635888	FirefoxAccounts	TRACE	not checking freshness of profile as it remains recent
1660283635982	Services.Common.RESTRequest	DEBUG	POST https://api.accounts.firefox.com/v1/account/devices/notify 200
1660283635982	Hawk	DEBUG	(Response) /account/devices/notify: code: 200 - Status text: OK
1660283635982	Hawk	DEBUG	Clock offset vs https://api.accounts.firefox.com/v1: -982
1660283636169	Sync.Resource	DEBUG	DELETE success 200 https://sync-1-us-west1-g.sync.services.mozilla.com/1.5/198765937/storage/prefs
1660283636169	Sync.Engine.Prefs	DEBUG	Resetting prefs last sync time
1660283636170	Sync.Engine.Prefs	DEBUG	First sync, uploading all items
1660283636173	Sync.Engine.Prefs	INFO	Records: 0 applied, 0 successfully, 0 failed to apply, 0 newly failed to apply, 0 reconciled.
1660283636174	Sync.Engine.Prefs	INFO	Uploading 1 outgoing records
1660283636189	Sync.Engine.Prefs	INFO	Posting 1 records of 16211 bytes with batch=true
1660283636190	FirefoxAccounts	TRACE	not checking freshness of profile as it remains recent
1660283636190	Sync.Collection	DEBUG	POST Length: 16211
1660283636497	Sync.Collection	DEBUG	POST success 200 https://sync-1-us-west1-g.sync.services.mozilla.com/1.5/198765937/storage/prefs?batch=true&commit=true
1660283636499	Sync.Engine.Tabs	DEBUG	Old engine data: ,1
1660283636499	Sync.Engine.Tabs	DEBUG	Engine syncIDs: qb6E140RX5KZ,
1660283636500	FirefoxAccounts	TRACE	not checking freshness of profile as it remains recent
1660283636788	Sync.Resource	DEBUG	DELETE success 200 https://sync-1-us-west1-g.sync.services.mozilla.com/1.5/198765937/storage/tabs
1660283636789	Sync.Engine.Tabs	DEBUG	Resetting tabs last sync time
1660283636789	Sync.Engine.Tabs	DEBUG	First sync, uploading all items
1660283636790	Sync.Engine.Tabs	INFO	Records: 0 applied, 0 successfully, 0 failed to apply, 0 newly failed to apply, 0 reconciled.
1660283636790	Sync.Engine.Tabs	INFO	Uploading 1 outgoing records
1660283636792	Sync.Engine.Tabs	INFO	Posting 1 records of 1106 bytes with batch=true
1660283636793	FirefoxAccounts	TRACE	not checking freshness of profile as it remains recent
1660283636793	Sync.Collection	DEBUG	POST Length: 1106
1660283637117	Sync.Collection	DEBUG	POST success 200 https://sync-1-us-west1-g.sync.services.mozilla.com/1.5/198765937/storage/tabs?batch=true&commit=true
1660283637121	Sync.Engine.Bookmarks	DEBUG	Old engine data: ,2
1660283637121	FirefoxAccounts	TRACE	not checking freshness of profile as it remains recent
1660283637406	Sync.Resource	DEBUG	DELETE success 200 https://sync-1-us-west1-g.sync.services.mozilla.com/1.5/198765937/storage/bookmarks
1660283637414	Sync.Engine.Bookmarks	DEBUG	Assigned new sync ID 1Gx9A_u9_K_-
1660283637414	Sync.Engine.Bookmarks.Mirror	INFO	Sync ID changed from  to 1Gx9A_u9_K_-; resetting mirror
1660283637492	Sync.Engine.Bookmarks	DEBUG	Bookmarks backup starting
1660283637592	Sync.Engine.Bookmarks	DEBUG	Bookmarks backup done
1660283637593	Sync.Engine.Bookmarks	INFO	Records: 0 applied, 0 successfully, 0 failed to apply, 0 newly failed to apply, 0 reconciled.
1660283637594	Sync.Engine.Bookmarks.Mirror	DEBUG	Merging bookmarks in Rust
1660283637595	Sync.Engine.Bookmarks.Mirror	DEBUG	Building local tree
1660283637696	Sync.Engine.Bookmarks.Mirror	DEBUG	Building remote tree
1660283637697	Sync.Engine.Bookmarks.Mirror	DEBUG	Building merged tree
1660283637700	Sync.Engine.Bookmarks.Mirror	DEBUG	Applying merged tree
1660283637700	Sync.Engine.Bookmarks.Mirror	DEBUG	Updating local items in Places
1660283637700	Sync.Engine.Bookmarks.Mirror	DEBUG	Cleaning up observer notifications left from last sync
1660283637700	Sync.Engine.Bookmarks.Mirror	DEBUG	Inserting Places for new items
1660283637700	Sync.Engine.Bookmarks.Mirror	DEBUG	Updating origins for new URLs
1660283637700	Sync.Engine.Bookmarks.Mirror	DEBUG	Staging apply remote item ops
1660283637700	Sync.Engine.Bookmarks.Mirror	DEBUG	Staging change GUID ops
1660283637700	Sync.Engine.Bookmarks.Mirror	DEBUG	Staging apply new local structure ops
1660283637701	Sync.Engine.Bookmarks.Mirror	DEBUG	Removing tombstones for revived items
1660283637701	Sync.Engine.Bookmarks.Mirror	DEBUG	Inserting new tombstones for non-syncable and invalid items
1660283637701	Sync.Engine.Bookmarks.Mirror	DEBUG	Removing local items
1660283637701	Sync.Engine.Bookmarks.Mirror	DEBUG	Changing GUIDs
1660283637701	Sync.Engine.Bookmarks.Mirror	DEBUG	Applying remote items
1660283637701	Sync.Engine.Bookmarks.Mirror	DEBUG	Recording item added notifications for new items
1660283637701	Sync.Engine.Bookmarks.Mirror	DEBUG	Recording item changed notifications for existing items
1660283637701	Sync.Engine.Bookmarks.Mirror	DEBUG	Removing old keywords
1660283637701	Sync.Engine.Bookmarks.Mirror	DEBUG	Removing old tags
1660283637702	Sync.Engine.Bookmarks.Mirror	DEBUG	Upserting new items
1660283637703	Sync.Engine.Bookmarks.Mirror	DEBUG	Flagging frecencies for recalculation
1660283637703	Sync.Engine.Bookmarks.Mirror	DEBUG	Inserting new keywords for new URLs
1660283637704	Sync.Engine.Bookmarks.Mirror	DEBUG	Inserting new tags for new URLs
1660283637705	Sync.Engine.Bookmarks.Mirror	DEBUG	Updating origins for changed URLs
1660283637705	Sync.Engine.Bookmarks.Mirror	DEBUG	Applying new local structure
1660283637705	Sync.Engine.Bookmarks.Mirror	DEBUG	Resetting change counters for items that shouldn't be uploaded
1660283637705	Sync.Engine.Bookmarks.Mirror	DEBUG	Bumping change counters for items that should be uploaded
1660283637705	Sync.Engine.Bookmarks.Mirror	DEBUG	Flagging applied remote items as merged
1660283637705	Sync.Engine.Bookmarks.Mirror	DEBUG	Staging items to upload
1660283637705	Sync.Engine.Bookmarks.Mirror	DEBUG	Cleaning up staged items left from last sync
1660283637705	Sync.Engine.Bookmarks.Mirror	DEBUG	Staging items with older local dates added
1660283637706	Sync.Engine.Bookmarks.Mirror	DEBUG	Staging remaining locally changed items for upload
1660283637706	Sync.Engine.Bookmarks.Mirror	DEBUG	Staging structure to upload
1660283637706	Sync.Engine.Bookmarks.Mirror	DEBUG	Staging tags to upload
1660283637707	Sync.Engine.Bookmarks.Mirror	DEBUG	Staging tombstones to upload
1660283637766	Sync.Engine.Bookmarks.Mirror	DEBUG	Merging bookmarks in Rust took 172.807ms
1660283637767	Sync.Engine.Bookmarks.Mirror	DEBUG	Notifying Places observers
1660283637776	Sync.Engine.Bookmarks.Mirror	DEBUG	Notifying Places observers took 9.027ms
1660283637776	Sync.Engine.Bookmarks.Mirror	DEBUG	Fetching records for local items to upload
1660283637798	Sync.Engine.Bookmarks.Mirror	DEBUG	Fetching records for local items to upload took 22.182ms
1660283637800	Sync.Engine.Bookmarks	INFO	Uploading 76 outgoing records
1660283637880	Sync.Engine.Bookmarks	INFO	Posting 76 records of 41098 bytes with batch=true
1660283637880	FirefoxAccounts	TRACE	not checking freshness of profile as it remains recent
1660283637881	Sync.Collection	DEBUG	POST Length: 41098
1660283638231	Sync.Collection	DEBUG	POST success 200 https://sync-1-us-west1-g.sync.services.mozilla.com/1.5/198765937/storage/bookmarks?batch=true&commit=true
1660283638429	Sync.Engine.Bookmarks.BookmarkSyncUtils	DEBUG	pushChanges: Processed change records: {"weak":0,"skipped":0,"updated":76}
1660283638430	Sync.Engine.Addons	DEBUG	Refreshing reconciler state
1660283638430	Sync.AddonsReconciler	INFO	Refreshing global state from AddonManager.
1660283638431	Sync.AddonsReconciler	DEBUG	Rectifying state for addon uBlock Origin (version=1.43.0, id=uBlock0@raymondhill.net)
1660283638431	Sync.AddonsReconciler	DEBUG	Adding change because add-on not present locally: uBlock0@raymondhill.net
1660283638431	Sync.AddonsReconciler	INFO	Change recorded for uBlock0@raymondhill.net
1660283638431	Sync.Engine.Addons.Tracker	DEBUG	changeListener invoked: 1 uBlock0@raymondhill.net
1660283638432	Sync.AddonsReconciler	DEBUG	Rectifying state for addon Manjaro Theme (matcha-dark-sea) (version=1.2, id={2c6ca67f-c480-4a85-8ccc-0c124cca0d5a})
1660283638432	Sync.AddonsReconciler	DEBUG	Adding change because add-on not present locally: {2c6ca67f-c480-4a85-8ccc-0c124cca0d5a}
1660283638432	Sync.AddonsReconciler	INFO	Change recorded for {2c6ca67f-c480-4a85-8ccc-0c124cca0d5a}
1660283638432	Sync.Engine.Addons.Tracker	DEBUG	changeListener invoked: 1 {2c6ca67f-c480-4a85-8ccc-0c124cca0d5a}
1660283638432	Sync.AddonsReconciler	DEBUG	Rectifying state for addon DoH Roll-Out (version=2.0.0, id=doh-rollout@mozilla.org)
1660283638432	Sync.AddonsReconciler	DEBUG	Adding change because add-on not present locally: doh-rollout@mozilla.org
1660283638432	Sync.AddonsReconciler	INFO	Change recorded for doh-rollout@mozilla.org
1660283638432	Sync.Engine.Addons.Tracker	DEBUG	changeListener invoked: 1 doh-rollout@mozilla.org
1660283638432	Sync.Engine.Addons.Store	DEBUG	doh-rollout@mozilla.org not syncable: vetoed by the addon manager.
1660283638432	Sync.Engine.Addons.Tracker	DEBUG	Ignoring change because add-on isn't syncable: doh-rollout@mozilla.org
1660283638432	Sync.AddonsReconciler	DEBUG	Rectifying state for addon Form Autofill (version=1.0.1, id=formautofill@mozilla.org)
1660283638432	Sync.AddonsReconciler	DEBUG	Adding change because add-on not present locally: formautofill@mozilla.org
1660283638432	Sync.AddonsReconciler	INFO	Change recorded for formautofill@mozilla.org
1660283638432	Sync.Engine.Addons.Tracker	DEBUG	changeListener invoked: 1 formautofill@mozilla.org
1660283638432	Sync.Engine.Addons.Store	DEBUG	formautofill@mozilla.org not syncable: vetoed by the addon manager.
1660283638432	Sync.Engine.Addons.Tracker	DEBUG	Ignoring change because add-on isn't syncable: formautofill@mozilla.org
1660283638432	Sync.AddonsReconciler	DEBUG	Rectifying state for addon Picture-In-Picture (version=1.0.0, id=pictureinpicture@mozilla.org)
1660283638432	Sync.AddonsReconciler	DEBUG	Adding change because add-on not present locally: pictureinpicture@mozilla.org
1660283638432	Sync.AddonsReconciler	INFO	Change recorded for pictureinpicture@mozilla.org
1660283638432	Sync.Engine.Addons.Tracker	DEBUG	changeListener invoked: 1 pictureinpicture@mozilla.org
1660283638432	Sync.Engine.Addons.Store	DEBUG	pictureinpicture@mozilla.org not syncable: vetoed by the addon manager.
1660283638432	Sync.Engine.Addons.Tracker	DEBUG	Ignoring change because add-on isn't syncable: pictureinpicture@mozilla.org
1660283638432	Sync.AddonsReconciler	DEBUG	Rectifying state for addon Firefox Screenshots (version=39.0.1, id=screenshots@mozilla.org)
1660283638432	Sync.AddonsReconciler	DEBUG	Adding change because add-on not present locally: screenshots@mozilla.org
1660283638432	Sync.AddonsReconciler	INFO	Change recorded for screenshots@mozilla.org
1660283638432	Sync.Engine.Addons.Tracker	DEBUG	changeListener invoked: 1 screenshots@mozilla.org
1660283638432	Sync.Engine.Addons.Store	DEBUG	screenshots@mozilla.org not syncable: vetoed by the addon manager.
1660283638432	Sync.Engine.Addons.Tracker	DEBUG	Ignoring change because add-on isn't syncable: screenshots@mozilla.org
1660283638432	Sync.AddonsReconciler	DEBUG	Rectifying state for addon WebCompat Reporter (version=1.5.0, id=webcompat-reporter@mozilla.org)
1660283638432	Sync.AddonsReconciler	DEBUG	Adding change because add-on not present locally: webcompat-reporter@mozilla.org
1660283638432	Sync.AddonsReconciler	INFO	Change recorded for webcompat-reporter@mozilla.org
1660283638433	Sync.Engine.Addons.Tracker	DEBUG	changeListener invoked: 1 webcompat-reporter@mozilla.org
1660283638433	Sync.Engine.Addons.Store	DEBUG	webcompat-reporter@mozilla.org not syncable: vetoed by the addon manager.
1660283638433	Sync.Engine.Addons.Tracker	DEBUG	Ignoring change because add-on isn't syncable: webcompat-reporter@mozilla.org
1660283638433	Sync.AddonsReconciler	DEBUG	Rectifying state for addon Web Compatibility Interventions (version=103.0.0, id=webcompat@mozilla.org)
1660283638433	Sync.AddonsReconciler	DEBUG	Adding change because add-on not present locally: webcompat@mozilla.org
1660283638433	Sync.AddonsReconciler	INFO	Change recorded for webcompat@mozilla.org
1660283638433	Sync.Engine.Addons.Tracker	DEBUG	changeListener invoked: 1 webcompat@mozilla.org
1660283638433	Sync.Engine.Addons.Store	DEBUG	webcompat@mozilla.org not syncable: vetoed by the addon manager.
1660283638433	Sync.Engine.Addons.Tracker	DEBUG	Ignoring change because add-on isn't syncable: webcompat@mozilla.org
1660283638433	Sync.AddonsReconciler	DEBUG	Rectifying state for addon System theme — auto (version=1.3, id=default-theme@mozilla.org)
1660283638433	Sync.AddonsReconciler	DEBUG	Adding change because add-on not present locally: default-theme@mozilla.org
1660283638433	Sync.AddonsReconciler	INFO	Change recorded for default-theme@mozilla.org
1660283638433	Sync.Engine.Addons.Tracker	DEBUG	changeListener invoked: 1 default-theme@mozilla.org
1660283638433	Sync.Engine.Addons.Store	DEBUG	default-theme@mozilla.org not syncable: not installed in profile.
1660283638433	Sync.Engine.Addons.Tracker	DEBUG	Ignoring change because add-on isn't syncable: default-theme@mozilla.org
1660283638433	Sync.AddonsReconciler	DEBUG	Rectifying state for addon Add-ons Search Detection (version=2.0.0, id=addons-search-detection@mozilla.com)
1660283638433	Sync.AddonsReconciler	DEBUG	Adding change because add-on not present locally: addons-search-detection@mozilla.com
1660283638433	Sync.AddonsReconciler	INFO	Change recorded for addons-search-detection@mozilla.com
1660283638433	Sync.Engine.Addons.Tracker	DEBUG	changeListener invoked: 1 addons-search-detection@mozilla.com
1660283638433	Sync.Engine.Addons.Store	DEBUG	addons-search-detection@mozilla.com not syncable: not installed in profile.
1660283638433	Sync.Engine.Addons.Tracker	DEBUG	Ignoring change because add-on isn't syncable: addons-search-detection@mozilla.com
1660283638433	Sync.AddonsReconciler	DEBUG	Rectifying state for addon Google (version=1.2, id=google@search.mozilla.org)
1660283638433	Sync.AddonsReconciler	DEBUG	Adding change because add-on not present locally: google@search.mozilla.org
1660283638433	Sync.AddonsReconciler	INFO	Change recorded for google@search.mozilla.org
1660283638433	Sync.Engine.Addons.Tracker	DEBUG	changeListener invoked: 1 google@search.mozilla.org
1660283638433	Sync.Engine.Addons.Store	DEBUG	google@search.mozilla.org not syncable: not installed in profile.
1660283638433	Sync.Engine.Addons.Tracker	DEBUG	Ignoring change because add-on isn't syncable: google@search.mozilla.org
1660283638433	Sync.AddonsReconciler	DEBUG	Rectifying state for addon Wikipedia (en) (version=1.1, id=wikipedia@search.mozilla.org)
1660283638433	Sync.AddonsReconciler	DEBUG	Adding change because add-on not present locally: wikipedia@search.mozilla.org
1660283638433	Sync.AddonsReconciler	INFO	Change recorded for wikipedia@search.mozilla.org
1660283638433	Sync.Engine.Addons.Tracker	DEBUG	changeListener invoked: 1 wikipedia@search.mozilla.org
1660283638433	Sync.Engine.Addons.Store	DEBUG	wikipedia@search.mozilla.org not syncable: not installed in profile.
1660283638433	Sync.Engine.Addons.Tracker	DEBUG	Ignoring change because add-on isn't syncable: wikipedia@search.mozilla.org
1660283638433	Sync.AddonsReconciler	DEBUG	Rectifying state for addon Bing (version=1.3, id=bing@search.mozilla.org)
1660283638433	Sync.AddonsReconciler	DEBUG	Adding change because add-on not present locally: bing@search.mozilla.org
1660283638433	Sync.AddonsReconciler	INFO	Change recorded for bing@search.mozilla.org
1660283638433	Sync.Engine.Addons.Tracker	DEBUG	changeListener invoked: 1 bing@search.mozilla.org
1660283638433	Sync.Engine.Addons.Store	DEBUG	bing@search.mozilla.org not syncable: not installed in profile.
1660283638433	Sync.Engine.Addons.Tracker	DEBUG	Ignoring change because add-on isn't syncable: bing@search.mozilla.org
1660283638433	Sync.AddonsReconciler	DEBUG	Rectifying state for addon DuckDuckGo (version=1.1, id=ddg@search.mozilla.org)
1660283638433	Sync.AddonsReconciler	DEBUG	Adding change because add-on not present locally: ddg@search.mozilla.org
1660283638433	Sync.AddonsReconciler	INFO	Change recorded for ddg@search.mozilla.org
1660283638433	Sync.Engine.Addons.Tracker	DEBUG	changeListener invoked: 1 ddg@search.mozilla.org
1660283638433	Sync.Engine.Addons.Store	DEBUG	ddg@search.mozilla.org not syncable: not installed in profile.
1660283638433	Sync.Engine.Addons.Tracker	DEBUG	Ignoring change because add-on isn't syncable: ddg@search.mozilla.org
1660283638434	Sync.AddonsReconciler	DEBUG	Rectifying state for addon Light (version=1.2, id=firefox-compact-light@mozilla.org)
1660283638434	Sync.AddonsReconciler	DEBUG	Adding change because add-on not present locally: firefox-compact-light@mozilla.org
1660283638434	Sync.AddonsReconciler	INFO	Change recorded for firefox-compact-light@mozilla.org
1660283638434	Sync.Engine.Addons.Tracker	DEBUG	changeListener invoked: 1 firefox-compact-light@mozilla.org
1660283638434	Sync.Engine.Addons.Store	DEBUG	firefox-compact-light@mozilla.org not syncable: not installed in profile.
1660283638434	Sync.Engine.Addons.Tracker	DEBUG	Ignoring change because add-on isn't syncable: firefox-compact-light@mozilla.org
1660283638434	Sync.AddonsReconciler	DEBUG	Rectifying state for addon Dark (version=1.2, id=firefox-compact-dark@mozilla.org)
1660283638434	Sync.AddonsReconciler	DEBUG	Adding change because add-on not present locally: firefox-compact-dark@mozilla.org
1660283638434	Sync.AddonsReconciler	INFO	Change recorded for firefox-compact-dark@mozilla.org
1660283638434	Sync.Engine.Addons.Tracker	DEBUG	changeListener invoked: 1 firefox-compact-dark@mozilla.org
1660283638434	Sync.Engine.Addons.Store	DEBUG	firefox-compact-dark@mozilla.org not syncable: not installed in profile.
1660283638434	Sync.Engine.Addons.Tracker	DEBUG	Ignoring change because add-on isn't syncable: firefox-compact-dark@mozilla.org
1660283638434	Sync.AddonsReconciler	DEBUG	Rectifying state for addon Firefox Alpenglow (version=1.4, id=firefox-alpenglow@mozilla.org)
1660283638434	Sync.AddonsReconciler	DEBUG	Adding change because add-on not present locally: firefox-alpenglow@mozilla.org
1660283638434	Sync.AddonsReconciler	INFO	Change recorded for firefox-alpenglow@mozilla.org
1660283638434	Sync.Engine.Addons.Tracker	DEBUG	changeListener invoked: 1 firefox-alpenglow@mozilla.org
1660283638434	Sync.Engine.Addons.Store	DEBUG	firefox-alpenglow@mozilla.org not syncable: not installed in profile.
1660283638434	Sync.Engine.Addons.Tracker	DEBUG	Ignoring change because add-on isn't syncable: firefox-alpenglow@mozilla.org
1660283638434	Sync.AddonsReconciler	DEBUG	Rectifying state for addon OpenH264 Video Codec provided by Cisco Systems, Inc. (version=1.8.1.2, id=gmp-gmpopenh264)
1660283638434	Sync.AddonsReconciler	DEBUG	Adding change because add-on not present locally: gmp-gmpopenh264
1660283638434	Sync.AddonsReconciler	INFO	Change recorded for gmp-gmpopenh264
1660283638434	Sync.Engine.Addons.Tracker	DEBUG	changeListener invoked: 1 gmp-gmpopenh264
1660283638434	Sync.Engine.Addons.Store	DEBUG	gmp-gmpopenh264 not syncable: type not in allowed list: plugin
1660283638434	Sync.Engine.Addons.Tracker	DEBUG	Ignoring change because add-on isn't syncable: gmp-gmpopenh264
1660283638434	Sync.AddonsReconciler	INFO	Saving reconciler state to file: addonsreconciler
1660283638436	Sync.Engine.Addons	DEBUG	Old engine data: ,1
1660283638436	Sync.Engine.Addons	DEBUG	Engine syncIDs: RzqoTYYU9uh3,
1660283638437	FirefoxAccounts	TRACE	not checking freshness of profile as it remains recent
1660283638535	Sync.SyncScheduler	DEBUG	Next sync in 3600000 ms. (why=schedule)
1660283638721	Sync.Resource	DEBUG	DELETE success 200 https://sync-1-us-west1-g.sync.services.mozilla.com/1.5/198765937/storage/addons
1660283638721	Sync.Engine.Addons	DEBUG	Resetting addons last sync time
1660283638722	Sync.Engine.Addons	DEBUG	First sync, uploading all items
1660283638722	Sync.Engine.Addons.Store	DEBUG	doh-rollout@mozilla.org not syncable: vetoed by the addon manager.
1660283638722	Sync.Engine.Addons.Store	DEBUG	formautofill@mozilla.org not syncable: vetoed by the addon manager.
1660283638722	Sync.Engine.Addons.Store	DEBUG	pictureinpicture@mozilla.org not syncable: vetoed by the addon manager.
1660283638722	Sync.Engine.Addons.Store	DEBUG	screenshots@mozilla.org not syncable: vetoed by the addon manager.
1660283638722	Sync.Engine.Addons.Store	DEBUG	webcompat-reporter@mozilla.org not syncable: vetoed by the addon manager.
1660283638722	Sync.Engine.Addons.Store	DEBUG	webcompat@mozilla.org not syncable: vetoed by the addon manager.
1660283638722	Sync.Engine.Addons.Store	DEBUG	default-theme@mozilla.org not syncable: not installed in profile.
1660283638722	Sync.Engine.Addons.Store	DEBUG	addons-search-detection@mozilla.com not syncable: not installed in profile.
1660283638722	Sync.Engine.Addons.Store	DEBUG	google@search.mozilla.org not syncable: not installed in profile.
1660283638722	Sync.Engine.Addons.Store	DEBUG	wikipedia@search.mozilla.org not syncable: not installed in profile.
1660283638723	Sync.Engine.Addons.Store	DEBUG	bing@search.mozilla.org not syncable: not installed in profile.
1660283638723	Sync.Engine.Addons.Store	DEBUG	ddg@search.mozilla.org not syncable: not installed in profile.
1660283638723	Sync.Engine.Addons.Store	DEBUG	firefox-compact-light@mozilla.org not syncable: not installed in profile.
1660283638723	Sync.Engine.Addons.Store	DEBUG	firefox-compact-dark@mozilla.org not syncable: not installed in profile.
1660283638723	Sync.Engine.Addons.Store	DEBUG	firefox-alpenglow@mozilla.org not syncable: not installed in profile.
1660283638723	Sync.Engine.Addons.Store	DEBUG	gmp-gmpopenh264 not syncable: type not in allowed list: plugin
1660283638724	Sync.Engine.Addons	INFO	Records: 0 applied, 0 successfully, 0 failed to apply, 0 newly failed to apply, 0 reconciled.
1660283638724	Sync.Engine.Addons	INFO	Uploading 2 outgoing records
1660283638742	Sync.Engine.Addons	INFO	Posting 2 records of 937 bytes with batch=true
1660283638743	FirefoxAccounts	TRACE	not checking freshness of profile as it remains recent
1660283638752	Sync.Collection	DEBUG	POST Length: 937
1660283639075	Sync.Collection	DEBUG	POST success 200 https://sync-1-us-west1-g.sync.services.mozilla.com/1.5/198765937/storage/addons?batch=true&commit=true
1660283639080	Sync.Engine.Forms	DEBUG	Old engine data: ,1
1660283639080	Sync.Engine.Forms	DEBUG	Engine syncIDs: wwl-Y2_MQQh9,
1660283639082	FirefoxAccounts	TRACE	not checking freshness of profile as it remains recent
1660283639369	Sync.Resource	DEBUG	DELETE success 200 https://sync-1-us-west1-g.sync.services.mozilla.com/1.5/198765937/storage/forms
1660283639370	Sync.Engine.Forms	DEBUG	Resetting forms last sync time
1660283639370	Sync.Engine.Forms	DEBUG	First sync, uploading all items
1660283639373	Sync.Engine.Forms	INFO	Records: 0 applied, 0 successfully, 0 failed to apply, 0 newly failed to apply, 0 reconciled.
1660283639374	Sync.Engine.Forms	INFO	Uploading 27 outgoing records
1660283639432	Sync.Engine.Forms	INFO	Posting 27 records of 8904 bytes with batch=true
1660283639433	FirefoxAccounts	TRACE	not checking freshness of profile as it remains recent
1660283639433	Sync.Collection	DEBUG	POST Length: 8904
1660283639746	Sync.Collection	DEBUG	POST success 200 https://sync-1-us-west1-g.sync.services.mozilla.com/1.5/198765937/storage/forms?batch=true&commit=true
1660283639749	Sync.Engine.History	DEBUG	Old engine data: ,1
1660283639750	FirefoxAccounts	TRACE	not checking freshness of profile as it remains recent
1660283640034	Sync.Resource	DEBUG	DELETE success 200 https://sync-1-us-west1-g.sync.services.mozilla.com/1.5/198765937/storage/history
1660283640044	Sync.Engine.History	DEBUG	Assigned new sync ID Ug8gjwQikFcs
1660283640047	Sync.Engine.History	DEBUG	First sync, uploading all items
1660283640089	Sync.Engine.History	INFO	Records: 0 applied, 0 successfully, 0 failed to apply, 0 newly failed to apply, 0 reconciled.
1660283640090	Sync.Engine.History	INFO	Uploading 112 outgoing records
1660283640217	Sync.Engine.History	INFO	Posting 100 records of 51456 bytes with batch=true
1660283640217	FirefoxAccounts	TRACE	not checking freshness of profile as it remains recent
1660283640218	Sync.Collection	DEBUG	POST Length: 51456
1660283640697	Sync.Collection	DEBUG	POST success 202 https://sync-1-us-west1-g.sync.services.mozilla.com/1.5/198765937/storage/history?batch=true
1660283640728	Sync.Engine.History	INFO	Posting 12 records of 6289 bytes with batch=e1dddfd410e340fa87ae91161f2ea043
1660283640729	FirefoxAccounts	TRACE	not checking freshness of profile as it remains recent
1660283640729	Sync.Collection	DEBUG	POST Length: 6289
1660283641068	Sync.Collection	DEBUG	POST success 200 https://sync-1-us-west1-g.sync.services.mozilla.com/1.5/198765937/storage/history?batch=e1dddfd410e340fa87ae91161f2ea043&commit=true
1660283641074	Sync.Engine.Extension-Storage	DEBUG	Old engine data: ,1
1660283641075	FirefoxAccounts	TRACE	not checking freshness of profile as it remains recent
1660283641367	Sync.Resource	DEBUG	DELETE success 200 https://sync-1-us-west1-g.sync.services.mozilla.com/1.5/198765937/storage/extension-storage
1660283641392	Sync.Engine.Extension-Storage	INFO	Records: 0 applied, 0 successfully, 0 failed to apply, 0 newly failed to apply, 0 reconciled.
1660283641395	Sync.Engine.Extension-Storage	INFO	Uploading 0 outgoing records
1660283641396	Sync.Synchronizer	INFO	meta/global changed locally: reuploading.
1660283641396	Sync.Service	DEBUG	Uploading meta/global: {"payload":"{\"syncID\":\"rIl4WXkHzkzU\",\"storageVersion\":5,\"declined\":[\"passwords\",\"creditcards\"],\"engines\":{\"clients\":{\"version\":1,\"syncID\":\"qxzCoZA47NfU\"},\"prefs\":{\"version\":2,\"syncID\":\"X84DNRhH0xzG\"},\"tabs\":{\"version\":1,\"syncID\":\"qb6E140RX5KZ\"},\"bookmarks\":{\"version\":2,\"syncID\":\"1Gx9A_u9_K_-\"},\"addons\":{\"version\":1,\"syncID\":\"RzqoTYYU9uh3\"},\"forms\":{\"version\":1,\"syncID\":\"wwl-Y2_MQQh9\"},\"history\":{\"version\":1,\"syncID\":\"Ug8gjwQikFcs\"},\"extension-storage\":{\"version\":1,\"syncID\":\"kGx_hzJKp_a0\"}}}","id":"global","modified":1660283633.29}
1660283641403	FirefoxAccounts	TRACE	not checking freshness of profile as it remains recent
1660283641404	Sync.Resource	DEBUG	PUT Length: 614
1660283641686	Sync.Resource	DEBUG	PUT success 200 https://sync-1-us-west1-g.sync.services.mozilla.com/1.5/198765937/storage/meta/global
1660283641688	Sync.Doctor	INFO	Skipping check of prefs - disabled via preferences
1660283641688	Sync.Doctor	INFO	Skipping check of tabs - disabled via preferences
1660283641688	Sync.Doctor	INFO	Skipping check of bookmarks - disabled via preferences
1660283641688	Sync.Doctor	INFO	Skipping check of addons - disabled via preferences
1660283641688	Sync.Doctor	INFO	Skipping check of forms - disabled via preferences
1660283641689	Sync.Doctor	INFO	Skipping check of history - disabled via preferences
1660283641689	Sync.Doctor	INFO	Skipping check of extension-storage - disabled via preferences
1660283641689	Sync.Doctor	INFO	Skipping validation: no engines qualify
1660283641689	Sync.Status	DEBUG	Status.sync: success.sync => success.sync
1660283641689	Sync.Status	DEBUG	Status.service: success.status_ok => success.status_ok
1660283641691	Sync.Synchronizer	INFO	Sync completed at 2022-08-12 11:24:01 after 7.38 secs.
1660283641692	Sync.Declined	DEBUG	Handling remote declined: ["passwords","creditcards"]
1660283641692	Sync.Declined	DEBUG	Handling local declined: ["passwords","creditcards"]
1660283641693	Sync.Declined	DEBUG	Declined changed? false
1660283641693	Sync.Service	INFO	No change to declined engines. Not reuploading meta/global.
1660283641696	Sync.SyncScheduler	DEBUG	Next sync in 3600000 ms. (why=schedule)
1660283641716	FirefoxAccounts	TRACE	not checking freshness of profile as it remains recent
