
 ╭─nilay@EndevourOS ~ 2ms
 ╰─λ pacman -Q
a52dec 0.7.4-11
accountsservice 22.08.8-2
acl 2.3.1-2
acpi 1.7-3
adobe-source-code-pro-fonts 2.038ro+1.058it+1.018var-1
adwaita-icon-theme 42.0+r1+gc144c3d75-1
aha 0.5.1-2
alacritty 0.10.1-2
alsa-card-profiles 1:0.3.56-1
alsa-firmware 1.2.4-2
alsa-lib 1.2.7.2-1
alsa-plugins 1:1.2.7.1-1
alsa-topology-conf 1.2.5.1-1
alsa-ucm-conf 1.2.7.2-1
alsa-utils 1.2.7-1
ani-cli 3.3-1
aom 3.4.0-1
apg 2.2.3-5
appstream 0.15.5-1
appstream-glib 0.8.1-1
appstream-qt 0.15.5-1
arandr 0.1.10-7
arc-gtk-theme-eos 20220405-1
arc-x-icons-theme 2.1-3
archlinux-keyring 20220727-1
archlinux-xdg-menu 0.7.6.3-2
argon2 20190702-4
ark 22.08.0-1
asciidoc 10.2.0-1
asciiquarium 1.1-6
at-spi2-atk 2.38.0-1
at-spi2-core 2.44.1-1
atk 2.38.0-1
atkmm 2.28.3-1
attica 5.97.0-1
attr 2.5.1-2
audiocd-kio 22.08.0-1
audiofile 0.3.6-6
audit 3.0.8-1
autoconf 2.71-1
automake 1.16.5-1
avahi 0.8+22+gfd482a7-3
axel 2.17.11-1
b43-fwcutter 019-3
baloo 5.97.0-1
base 3-1
bash 5.1.016-1
bash-completion 2.11-2
bind 9.18.6-1
binutils 2.39-3
bison 3.8.2-4
bluedevil 1:5.25.4-1
blueman 2.3.2-1
bluez 5.65-2
bluez-libs 5.65-2
bluez-qt 5.97.0-1
bluez-utils 5.65-2
bmon 4.0-4
boost-libs 1.79.0-1
bottom 0.6.8-1
breeze 5.25.4-1
breeze-gtk 5.25.4-1
breeze-icons 5.97.0-1
brotli 1.0.9-8
bspwm 0.9.10-2
btrfs-progs 5.19-1
bubblewrap 0.6.2-1
bzip2 1.0.8-4
c-ares 1.18.1-1
ca-certificates 20210603-1
ca-certificates-mozilla 3.82-1
ca-certificates-utils 20210603-1
cairo 1.17.6-2
cairomm 1.14.3-2
cantarell-fonts 1:0.303.1-1
capitaine-cursors 4-1
catch2 2.13.9-1
cava 0.8.2-4
ccache 4.6.1-1
ccze 0.2.1-12
cdparanoia 10.2-8
chaotic-keyring 20220803-1
chaotic-mirrorlist 20220828-2
checkbashisms 2.21.4-1
chromaprint 1.5.1-4
cifs-utils 7.0-1
cmake 3.24.1-1
cmatrix-git 1.2.r113.g571d68d-1
confuse 3.3-3
convertlit 1.8-10
coreutils 9.1-1
cryptsetup 2.5.0-1
curl 7.84.0-2
cython 0.29.32-2
dav1d 1.0.0-1
db 5.3.28-5
dbus 1.14.0-1
dbus-glib 0.112-2
dbus-python 1.2.18-3
dconf 0.40.0-1
desktop-file-utils 0.26-2
device-mapper 2.03.16-2
dex 0.9.0-1
dhclient 4.4.3-3
dialog 1:1.3_20220728-1
diffutils 3.8-1
ding-libs 0.6.2-1
discord 0.0.19-1
discord-canary 0.0.136-1
dmenu 5.1-1
dmidecode 3.4-1
dmraid 1.0.0.rc16.3-13
dnsmasq 2.86-2
dnssec-anchors 20190629-3
docbook-xml 4.5-9
docbook-xsl 1.79.2-7
docbook2x 0.8.8-18
dosfstools 4.2-2
double-conversion 3.2.1-1
downgrade 11.2.1-1
duf 0.8.1-2
duktape 2.7.0-4
e2fsprogs 1.46.5-4
ebook-tools 0.2.2-7
editorconfig-core-c 0.12.5-1
efibootmgr 18-1
efitools 1.9.2-4
efivar 38-2
electron18 18.3.9-1
ell 0.52-1
enchant 2.3.3-1
endeavouros-keyring 20220614-1
endeavouros-mirrorlist 4.7-2
endeavouros-theming 10.0-1
eos-bash-shared 1.25-1
eos-hooks 1.7-1
eos-plasma-sddm-config 22.03.1.2-1
eos-rankmirrors 2.3-1
eos-skel-ce-bspwm 1.0-18
eos-translations 1.10-1
esbuild 0.14.49-1
ethtool 1:5.19-1
exa 0.10.1-6
exfatprogs 1.1.3-1
exiv2 0.27.5-3
exo 4.16.4-1
expat 2.4.8-1
extra-cmake-modules 5.97.0-1
f2fs-tools 1.15.0-1
faac 1.30-3
faad2 2.10.0-1
fakeroot 1.29-1
feh 3.9.1-2
ffmpeg 2:5.1-1
ffmpeg4.4 4.4.2-3
ffmpegthumbnailer 2.2.2-4
fftw 3.3.10-3
file 5.42-2
file-roller 3.42.0-1
filesystem 2021.12.07-1
findutils 4.9.0-1
fish 3.5.1-1
flac 1.3.4-3
flameshot 12.1.0-1
flashrom 1.2-4
flex 2.6.4-3
fluidsynth 2.2.8-1
fmt 8.1.1-2
font-manager 0.8.8-1
fontconfig 2:2.14.0-1
frameworkintegration 5.97.0-1
freetype2 2.12.1-1
fribidi 1.0.12-1
fsarchiver 0.8.6-1
fuse-common 3.11.0-1
fuse2 2.9.9-4
fuse3 3.11.0-1
fwupd 1.8.4-1
fwupd-efi 1.3-1
fzf 0.33.0-1
gawk 5.1.1-1
gc 8.2.0-3
gcab 1.5-1
gcc 12.2.0-1
gcc-libs 12.2.0-1
gcr 3.41.1-2
gd 2.3.3-4
gdb 12.1-1
gdb-common 12.1-1
gdbm 1.23-1
gdk-pixbuf2 2.42.9-1
gdu 5.15.0-1
gettext 0.21-2
ghc-libs 9.0.2-1
ghostscript 9.56.1-1
giflib 5.2.1-2
girara 0.3.7-1
git 2.37.3-1
gjs 2:1.72.2-1
glances 3.2.7-1
glib-networking 1:2.72.2-1
glib2 2.72.3-1
glib2-docs 2.72.3-1
glibc 2.36-3
glibmm 2.66.4-1
glslang 11.11.0-1
glu 9.0.2-3
gmp 6.2.1-2
gnu-netcat 0.7.1-8
gnupg 2.2.37-1
gnutls 3.7.7-3
go-tools 4:0.1.12-1
gobject-introspection 1.72.0-1
gobject-introspection-runtime 1.72.0-1
gparted 1.4.0-1
gperf 3.1-3
gpgme 1.18.0-1
gpick 0.2.6-5
gpm 1.20.7.r38.ge82d1a6-4
gptfdisk 1.0.9-1
graphene 1.10.8-1
graphite 1:1.3.14-2
graphviz 5.0.1-1
grep 3.7-1
groff 1.22.4-7
grub 2:2.06.r322.gd9b4638c5-3
grub-tools 1.6.9-2
grub2-theme-endeavouros 20220602-1
gsettings-desktop-schemas 42.0-1
gsfonts 20200910-2
gsm 1.0.22-1
gspell 1.10.0-2
gssdp 1.4.0.1-1
gssproxy 0.9.1-2
gst-libav 1.20.3-1
gst-plugin-pipewire 1:0.3.56-1
gst-plugins-bad 1.20.3-1
gst-plugins-bad-libs 1.20.3-1
gst-plugins-base 1.20.3-1
gst-plugins-base-libs 1.20.3-1
gst-plugins-ugly 1.20.3-1
gstreamer 1.20.3-1
gtk-doc 1.33.2-1
gtk-engine-murrine 0.98.2-4
gtk-update-icon-cache 1:4.6.7-1
gtk2 2.24.33-2
gtk3 1:3.24.34-1
gtkmm3 3.24.6-1
gtksourceview3 1:3.24.11+r28+g73e57b57-1
gts 0.7.6.121130-2
guile 2.2.7-2
gumbo-parser 0.10.1-2
gupnp 1:1.4.3-1
gupnp-igd 1.2.0-2
gvfs 1.50.2-1
gvfs-afc 1.50.2-1
gvfs-gphoto2 1.50.2-1
gvfs-mtp 1.50.2-1
gvfs-nfs 1.50.2-1
gvfs-smb 1.50.2-1
gzip 1.12-1
harfbuzz 5.1.0-1
harfbuzz-icu 5.1.0-1
haskell-aeson 1.5.6.0-131
haskell-assoc 1.0.2-155
haskell-attoparsec 0.14.4-32
haskell-base-compat 0.12.2-1
haskell-base-compat-batteries 0.12.2-2
haskell-base-orphans 0.8.7-9
haskell-bifunctors 5.5.12-19
haskell-comonad 5.0.8-158
haskell-data-fix 0.3.2-60
haskell-diff 0.4.1-33
haskell-distributive 0.6.2.1-161
haskell-dlist 1.0-180
haskell-erf 2.0.0.0-24
haskell-ghc-bignum-orphans 0.1.1-1
haskell-hashable 1.4.1.0-9
haskell-indexed-traversable 0.1.2-2
haskell-integer-logarithms 1.0.3.1-6
haskell-primitive 0.7.4.0-27
haskell-quickcheck 2.14.2-349
haskell-random 1.2.1.1-47
haskell-regex-base 0.94.0.2-2
haskell-regex-tdfa 1.3.2-2
haskell-scientific 0.3.7.0-71
haskell-splitmix 0.1.0.4-92
haskell-strict 0.4.0.1-129
haskell-tagged 0.8.6.1-5
haskell-th-abstraction 0.4.4.0-1
haskell-these 1.1.1.1-156
haskell-time-compat 1.9.6.1-55
haskell-transformers-compat 0.7.2-1
haskell-unordered-containers 0.2.19.1-30
haskell-uuid-types 1.0.5-75
haskell-vector 0.12.3.1-120
haveged 1.9.18-1
hdparm 9.64-1
hicolor-icon-theme 0.17-2
hidapi 0.12.0-1
hiredis 1.0.2-1
htop 3.2.1-1
http-parser 2.9.4-1
hwdata 0.361-1
hwdetect 2022.04-2
hwinfo 22.1-1
hwloc 2.8.0-1
hyphen 2.8.8-4
i3lock 2.14.1-1
iana-etc 20220715-1
icu 71.1-1
ijs 0.35-4
imagemagick 7.1.0.47-1
imath 3.1.5-2
img2pdf 0.4.4-1
imlib2 1.9.1-1
inetutils 2.3-1
iniparser 4.1-4
intel-ucode 20220809-1
inxi 3.3.20.1-1
iproute2 5.19.0-1
iptables-nft 1:1.8.8-2
iputils 20211215-1
ipw2100-fw 1.3-10
ipw2200-fw 3.1-8
iso-codes 4.11.0-1
iw 5.19-1
iwd 1.29-1
jansson 2.14-2
jbig2dec 0.19-1
jemalloc 1:5.3.0-1
jfsutils 1.1.15-8
jp2a 1.1.1-1
jq 1.6-4
js78 78.15.0-4
js91 91.13.0-1
json-c 0.16-1
json-glib 1.6.6-2
jsoncpp 1.9.5-2
kactivities 5.97.0-1
kactivities-stats 5.97.0-1
kactivitymanagerd 5.25.4-1
karchive 5.97.0-1
kauth 5.97.0-1
kbd 2.5.1-1
kbookmarks 5.97.0-1
kcmutils 5.97.0-1
kcodecs 5.97.0-1
kcompletion 5.97.0-1
kconfig 5.97.0-1
kconfigwidgets 5.97.0-1
kcoreaddons 5.97.0-1
kcrash 5.97.0-1
kdbusaddons 5.97.0-1
kde-cli-tools 5.25.4-1
kde-gtk-config 5.25.4-1
kdeclarative 5.97.0-1
kdecoration 5.25.4-1
kded 5.97.0-1
kdelibs4support 5.97.0-1
kdesu 5.97.0-1
kdnssd 5.97.0-1
kdsoap 2.0.0-1
kdsoap-ws-discovery-client git20200927-2
kemoticons 5.97.0-1
keyutils 1.6.3-1
kfilemetadata 5.97.0-1
kglobalaccel 5.97.0-1
kguiaddons 5.97.0-1
kholidays 1:5.97.0-1
khotkeys 5.25.4-1
ki18n 5.97.0-1
kiconthemes 5.97.0-1
kidletime 5.97.0-1
kinfocenter 5.25.4-1
kinit 5.97.0-1
kio 5.97.0-1
kio-extras 22.08.0-1
kio-fuse 5.0.1-1
kirigami2 5.97.0-1
kitemmodels 5.97.0-1
kitemviews 5.97.0-1
kitty 0.26.0-1
kitty-shell-integration 0.26.0-1
kitty-terminfo 0.26.0-1
kjobwidgets 5.97.0-1
kmenuedit 5.25.4-1
kmod 30-1
knewstuff 5.97.0-1
knotifications 5.97.0-1
knotifyconfig 5.97.0-1
kpackage 5.97.0-1
kparts 5.97.0-1
kpeople 5.97.0-1
kpty 5.97.0-1
kquickcharts 5.97.0-1
krb5 1.19.3-3
krunner 5.97.0-1
kscreen 5.25.4-1
kscreenlocker 5.25.4-1
kservice 5.97.0-1
ksystemstats 5.25.4-1
ktexteditor 5.97.0-1
ktextwidgets 5.97.0-1
kunitconversion 5.97.0-1
kuserfeedback 1.2.0-1
kwallet 5.97.0-4
kwallet-pam 5.25.4-1
kwayland 5.97.0-1
kwidgetsaddons 5.97.0-1
kwin 5.25.4-1
kwin-bismuth 3.1.2-2
kwindowsystem 5.97.0-1
kxmlgui 5.97.0-1
l-smash 2.14.5-2
lame 3.100-4
layer-shell-qt 5.25.4-1
lcms2 2.13.1-1
ldb 2:2.5.2-2
ldns 1.8.3-1
less 1:590-1
lib32-attr 2.5.1-1
lib32-glibc 2.36-3
libaio 0.3.113-1
libao 1.2.2-5
libappindicator-gtk3 12.10.0.r296-2
libarchive 3.6.1-2
libass 0.16.0-1
libassuan 2.5.5-1
libasyncns 1:0.8+r3+g68cd5af-1
libatasmart 0.19-5
libavc1394 0.5.4-4
libavif 0.10.1-2
libavtp 0.2.0-1
libb2 0.98.1-2
libblockdev 2.27-1
libbluray 1.3.2-1
libbpf 0.8.1-1
libbs2b 3.1.0-8
libbsd 0.11.6-2
libbytesize 2.7-1
libcanberra 1:0.30+r2+gc0620e4-1
libcap 2.65-1
libcap-ng 0.8.3-1
libcbor 0.9.0-1
libcddb 1.3.2-6
libcdio 2.1.0-2
libcdio-paranoia 10.2+2.0.1-2
libcloudproviders 0.3.1-2
libcolord 1.4.6-1
libcups 1:2.4.2-3
libcurl-gnutls 7.84.0-2
libdaemon 0.14-5
libdatrie 0.2.13-1
libdbusmenu-glib 16.04.0-5
libdbusmenu-gtk3 16.04.0-5
libdbusmenu-qt5 0.9.3+16.04.20160218-6
libdc1394 2.2.6-2
libdca 0.0.7-1
libde265 1.0.8-2
libdmtx 0.7.7-1
libdrm 2.4.112-1
libdv 1.0.0-9
libdvbpsi 1:1.3.3-2
libdvdcss 1.4.3-1
libdvdnav 6.1.1-1
libdvdread 6.1.3-1
libebml 1.4.2-2
libedit 20210910_3.1-1
libelf 0.187-2
libepoxy 1.5.10-1
libev 4.33-1
libevdev 1.13.0-1
libevent 2.1.12-2
libexif 0.6.24-1
libfdk-aac 2.0.2-1
libffi 3.4.2-5
libfontenc 1.1.6-1
libfreeaptx 0.1.1-1
libftdi 1.5-4
libgcrypt 1.10.1-1
libgit2 1:1.5.0-1
libglvnd 1.4.0-3
libgme 0.6.3-1
libgpg-error 1.45-2
libgphoto2 2.5.30-1
libgsf 1.14.50-1
libgtop 2.40.0+2+g31db82ef-2
libgudev 237-2
libgusb 0.3.10-2
libhandy 1.6.3-1
libheif 1.12.0-3
libibus 1.5.27-1
libical 3.0.14-3
libice 1.0.10-4
libid3tag 0.15.1b-11
libidn 1.41-1
libidn2 2.3.3-1
libiec61883 1.2.0-6
libimagequant 4.0.1-1
libimobiledevice 1.3.0-5
libindicator-gtk3 12.10.1-10
libinih 56-1
libinput 1.21.0-1
libinstpatch 1.1.6-1
libisl 0.25-1
libjcat 0.1.11-1
libjpeg-turbo 2.1.4-2
libkate 0.4.1-8
libkcddb 22.08.0-1
libkcompactdisc 22.08.0-1
libkexiv2 22.08.0-1
libksba 1.6.0-1
libkscreen 5.25.4-1
libksysguard 5.25.4-1
libldac 2.0.2.3-1
libldap 2.6.3-1
liblqr 0.4.2-3
liblrdf 0.6.1-4
libltc 1.3.1-3
libluv 1.44.2_0-1
libmad 0.15.1b-9
libmanette 0.2.6-3
libmatroska 1.6.3-2
libmaxminddb 1.6.0-3
libmbim 1.26.4-1
libmd 1.0.4-1
libmfx 22.4.4-1
libmicrodns 0.2.0-1
libmikmod 3.3.11.1-6
libmm-glib 1.18.10-2
libmms 0.6.4-3
libmnl 1.0.5-1
libmodplug 0.8.9.0-3
libmpc 1.2.1-2
libmpcdec 1:0.1+r475-3
libmpdclient 2.20-2
libmpeg2 0.5.1-7
libmtp 1.1.20-1
libmusicbrainz5 5.1.0-5
libndp 1.8-1
libnetfilter_conntrack 1.0.9-1
libnewt 0.52.21-8
libnfnetlink 1.0.2-1
libnfs 5.0.2-1
libnftnl 1.2.3-1
libnghttp2 1.49.0-1
libnice 0.1.19-1
libnl 3.7.0-1
libnm 1.40.0-1
libnma 1.8.40-1
libnma-common 1.8.40-1
libnotify 0.8.1-1
libnsl 2.0.0-2
libogg 1.3.5-1
libomxil-bellagio 0.9.3-3
libopenmpt 0.6.5-1
libopenraw 0.3.2-1
libp11-kit 0.24.1-1
libpaper 1.1.28-2
libpcap 1.10.1-2
libpciaccess 0.16-4
libpgm 5.3.128-2
libpipeline 1.5.6-1
libplacebo 4.208.0-1
libplist 2.2.0-5
libpng 1.6.37-3
libproxy 0.4.18-1
libpsl 0.21.1-1
libpulse 16.1-1
libqaccessibilityclient 0.4.1-2
libqalculate 4.3.0-1
libqmi 1.30.8-1
libqrtr-glib 1.2.2-2
libraqm 0.9.0-1
libraw1394 2.1.2-3
librewolf 103.0.2-1.1
librsvg 2:2.54.5-1
librsync 1:2.3.2-1
libsamplerate 0.2.2-1
libsasl 2.1.28-1
libseccomp 2.5.4-1
libsecret 0.20.5-2
libshout 1:2.4.6-1
libsidplay 1.36.59-10
libsidplayfp 2.3.1-1
libsigc++ 2.10.8-1
libsm 1.2.3-3
libsmbios 2.4.3-5
libsndfile 1.1.0-2
libsodium 1.0.18-2
libsoup 2.74.2-2
libsoup3 3.0.7-1
libsoxr 0.1.3-2
libsrtp 1:2.4.2-1
libssh 0.10.1-1
libssh2 1.10.0-1
libstemmer 2.2.0-2
libsynctex 2022.62885-1
libsysprof-capture 3.44.0-2
libtar 1.2.20-6
libtasn1 4.19.0-1
libteam 1.31-5
libtermkey 0.22-2
libthai 0.1.29-1
libtheora 1.1.1-5
libtiff 4.4.0-4
libtirpc 1.3.3-1
libtommath 1.2.0-3
libtool 2.4.7-5
libtorrent-rasterbar 1:2.0.7-1
libunistring 1.0-1
libunwind 1.6.2-1
libupnp 1.14.13-1
liburcu 0.13.2-1
liburing 2.2-1
libusb 1.0.26-1
libusbmuxd 2.0.2-1
libutempter 1.2.1-3
libuv 1.44.2-1
libva 2.15.0-2
libvdpau 1.5-1
libverto 0.3.2-4
libvisual 0.4.0-8
libvorbis 1.3.7-3
libvpx 1.12.0-1
libvterm01 0.1.4-2
libwacom 2.4.0-1
libwebp 1.2.4-1
libwnck3 40.1-1
libwpe 1.12.3-1
libx11 1.8.1-3
libx86emu 3.5-2
libxau 1.0.10-1
libxaw 1.0.14-1
libxcb 1.15-1
libxcomposite 0.4.5-4
libxcrypt 4.4.28-2
libxcrypt-compat 4.4.28-2
libxcursor 1.2.1-1
libxcvt 0.1.2-1
libxdamage 1.1.5-4
libxdg-basedir 1.2.3-1
libxdmcp 1.1.3-4
libxext 1.3.4-4
libxfce4ui 4.16.1-1
libxfce4util 4.16.0-1
libxfixes 6.0.0-1
libxfont2 2.0.6-1
libxft 2.3.4-1
libxi 1.8-1
libxinerama 1.1.4-4
libxkbcommon 1.4.1-1
libxkbcommon-x11 1.4.1-1
libxkbfile 1.1.0-3
libxklavier 5.4-3
libxml2 2.9.14-1
libxmlb 0.3.9-1
libxmu 1.1.3-3
libxpm 3.5.13-3
libxrandr 1.5.2-4
libxrender 0.9.10-5
libxres 1.2.1-1
libxshmfence 1.3-3
libxslt 1.1.36-1
libxss 1.2.3-4
libxt 1.2.1-1
libxtst 1.2.3-5
libxv 1.0.11-5
libxvmc 1.0.13-1
libxxf86vm 1.1.4-5
libyaml 0.2.5-1
libyuv r2322+3aebf69d-1
libzip 1.9.2-1
licenses 20220125-1
lightdm 1:1.32.0-1
lightdm-slick-greeter 1.5.9-1
lilv 0.24.18-1
linux 5.19.5.arch1-1
linux-api-headers 5.18.15-1
linux-firmware 20220708.be7798e-1
linux-firmware-whence 20220708.be7798e-1
linux-headers 5.19.5.arch1-1
llvm-libs 14.0.6-3
lm_sensors 1:3.6.0.r41.g31d1f125-1
lmdb 0.9.29-1
logrotate 3.20.1-1
lolcat 100.0.1-1
lsb-release 2.0.r48.3cf5103-1
lsscsi 0.32-1
lua 5.4.4-2
lua52 5.2.4-5
lua53 5.3.6-1
luajit 2.1.0.beta3.r439.g633f265f-1
lv2 1.18.8-1
lvm2 2.03.16-2
lxappearance-gtk3 0.6.3-4
lz4 1:1.9.3-2
lzo 2.10-3
m4 1.4.19-1
mailcap 2.1.53-1
make 4.3-3
man-db 2.10.2-1
man-pages 5.13-1
manga-cli-git 1:r31.a69fe93-1
mangal-bin 3.1.0-1
md4c 0.4.8-1
mdadm 4.2-2
media-player-info 24-2
mesa 22.1.7-1
mesa-utils 8.5.0-2
meson 0.63.1-2
milou 5.25.4-1
minizip 1:1.2.12-2
miru-bin 3.0.5-1
mjpegtools 2.2.1-1
mkinitcpio 31-3
mkinitcpio-busybox 1.35.0-1
mkinitcpio-nfs-utils 0.3-7
mkinitcpio-openswap 0.1.0-3
mlocate 0.26.git.20170220-7
mobile-broadband-provider-info 20220725-1
modemmanager 1.18.10-2
modemmanager-qt 5.97.0-1
moreutils 0.67-2
mpd 0.23.9-1
mpfr 4.1.0.p13-3
mpg123 1.30.2-1
mpv 1:0.34.1-5
msgpack-c 4.0.0-1
mtdev 1.1.6-2
mtools 1:4.0.40-1
mujs 1.2.0-2
nbd 3.24-1
ncurses 6.3-3
ndctl 74-1
ndisc6 1.0.5-1
neofetch 7.1.0-2
neon 0.32.2-1
neovim 0.7.2-3
neovim-remote 2.5.0-1
nerd-fonts-jetbrains-mono 2.2.1-2
nerd-fonts-mononoki 2.1.0-2
netctl 1.28-1
netpbm 10.73.37-2
nettle 3.8.1-1
network-manager-applet 1.28.0-1
networkmanager 1.40.0-1
networkmanager-openvpn 1.10.0-1
networkmanager-qt 5.97.0-1
nfs-utils 2.6.2-1
nfsidmap 2.6.2-1
nftables 1:1.0.5-1
nilfs-utils 2.2.9-1
ninja 1.11.1-1
nm-connection-editor 1.28.0-1
nmap 7.92-1
node-gyp 9.1.0-1
nodejs 18.8.0-1
nodejs-nopt 6.0.0-1
noto-fonts 20220607-1
npm 8.18.0-1
npth 1.6-3
nspr 4.34.1-1
nss 3.82-1
nss-mdns 0.15.1-1
ntfs-3g 2022.5.17-1
ntp 4.2.8.p15-1
numactl 2.0.14-3
oath-toolkit 2.6.7-1
oniguruma 6.9.8-1
openal 1.22.2-1
openconnect 1:9.01-2
opencore-amr 0.1.6-1
openexr 3.1.5-1
openjade 1.3.2-7
openjpeg2 2.5.0-1
openmpi 4.1.4-2
openpmix 4.2.0-1
openresolv 3.12.0-1
opensp 1.5.2-9
openssh 9.0p1-1
openssl 1.1.1.q-1
openvpn 2.5.7-1
opus 1.3.1-3
orc 0.4.32-1
os-prober 1.80-1
oxygen-sounds 5.25.4-1
p11-kit 0.24.1-1
pacman 6.0.1-7
pacman-contrib 1.6.0-1
pacman-mirrorlist 20220828-1
pacutils 0.11.1-1
pahole 1:1.23-1
pam 1.5.2-1
pambase 20211210-1
pango 1:1.50.9-1
pangomm 2.46.2-1
paper-icon-theme 1.5.0.832.aa3e8af-1
parallel 20220822-1
parted 3.5-1
patch 2.7.6-8
pavucontrol 1:5.0+r35+g964f298-1
pciutils 3.8.0-2
pcre 8.45-1
pcre2 10.40-1
pcsclite 1.9.8-1
perl 5.36.0-1
perl-clone 0.45-4
perl-curses 1.41-1
perl-encode-locale 1.05-9
perl-error 0.17029-4
perl-file-listing 6.15-2
perl-file-remove 1.61-1
perl-html-parser 3.78-2
perl-html-tagset 3.20-12
perl-http-cookies 6.10-3
perl-http-daemon 6.14-2
perl-http-date 6.05-5
perl-http-message 6.37-1
perl-http-negotiate 6.01-10
perl-inc-latest 0.500-9
perl-io-html 1.004-3
perl-io-tty 1.16-3
perl-ipc-run 20200505.0-1
perl-json 4.09-1
perl-libwww 6.67-1
perl-lwp-mediatypes 6.04-2
perl-mailtools 2.21-6
perl-module-build 0.4231-7
perl-module-install 1.19-6
perl-module-scandeps 1.31-3
perl-net-http 6.22-2
perl-par-dist 0.51-3
perl-sgmls 1:1.1-9
perl-term-animation 2.6-9
perl-time-duration 1:1.21-1
perl-timedate 2.33-4
perl-try-tiny 0.31-2
perl-uri 5.12-1
perl-www-robotrules 6.02-10
perl-xml-namespacesupport 1.12-4
perl-xml-parser 2.46-4
perl-xml-sax 1.02-1
perl-xml-sax-base 1.09-4
perl-xml-sax-expat 0.51-7
perl-xml-writer 0.900-1
perl-yaml-tiny 1.73-6
phonon-qt5 4.11.1-3
phonon-qt5-gstreamer 4.10.0-3
pinentry 1.2.0-1
pipes.sh 1.3.0-1
pipewire 1:0.3.56-1
pipewire-alsa 1:0.3.56-1
pipewire-jack 1:0.3.56-1
pipewire-pulse 1:0.3.56-1
pixman 0.40.0-2
pkcs11-helper 1.29.0-1
pkgconf 1.8.0-1
pkgfile 21-2
plasma-desktop 5.25.4-1
plasma-disks 5.25.4-1
plasma-framework 5.97.0-1
plasma-integration 5.25.4-1
plasma-nm 5.25.4-1
plasma-pa 5.25.4-1
plasma-workspace 5.25.4-1
polkit 121-1
polkit-gnome 0.105-9
polkit-kde-agent 5.25.4-1
polkit-qt5 0.114.0-1
polybar 3.6.3-2
poppler 22.08.0-2
poppler-glib 22.08.0-2
poppler-qt5 22.08.0-2
popt 1.18-3
portaudio 1:19.7.0-1
power-profiles-daemon 0.12-1
powercord-git r1420.bb30f258-1
powerdevil 5.25.4-1
powerline-common 2.8.2-4
powerline-fonts 2.8.2-4
ppp 2.4.9-1
pptpclient 1.10.0-2
prison 5.97.0-1
procps-ng 3.3.17-1
protobuf 21.4-1
protobuf-c 1.4.1-1
psmisc 23.5-1
pv 1.6.20-2
python 3.10.6-1
python-anytree 2.8.0-5
python-appdirs 1.4.4-7
python-async-timeout 4.0.2-1
python-autocommand 2.2.1-1
python-beaker 1.11.0-8
python-beautifulsoup4 4.11.1-1
python-binaryornot 0.4.4-6
python-boolean.py 4.0-1
python-brotli 1.0.9-8
python-cachecontrol 1:0.12.6-4
python-cairo 1.21.0-1
python-capng 0.8.3-1
python-certifi 2022.06.15-1
python-cffi 1.15.1-1
python-chardet 5.0.0-1
python-colorama 0.4.5-1
python-commonmark 0.9.1-5
python-cryptography 37.0.4-1
python-debian 0.1.44-1
python-defusedxml 0.7.1-4
python-deprecated 1.2.13-3
python-deprecation 2.1.0-6
python-distlib 0.3.6-1
python-distro 1.7.0-1
python-docutils 1:0.19-1
python-future 0.18.2-7
python-gobject 3.42.2-1
python-greenlet 1.1.3-1
python-html5lib 1.1-11
python-idna 3.3-4
python-importlib-metadata 4.8.2-1
python-inflect 6.0.0-1
python-jaraco.context 4.1.2-1
python-jaraco.functools 3.5.1-1
python-jaraco.text 3.9.1-1
python-jarowinkler 1.2.0-2
python-jinja 1:3.1.2-2
python-license-expression 30.0.0-1
python-lxml 4.9.1-1
python-mako 1.2.1-1
python-markdown 3.4.1-1
python-markupsafe 2.1.1-1
python-more-itertools 8.13.0-2
python-msgpack 1.0.4-1
python-mutagen 1.45.1-6
python-nspektr 0.4.0-1
python-ordered-set 4.1.0-1
python-packaging 21.3-1
python-pep517 0.13.0-1
python-pikepdf 5.6.0-1
python-pillow 9.2.0-1
python-pip 22.2.2-2
python-platformdirs 2.5.2-1
python-ply 3.11-10
python-psutil 5.9.1-1
python-pycparser 2.21-3
python-pycryptodomex 3.12.0-1
python-pydantic 1.10.0-1
python-pygments 2.13.0-1
python-pynvim 0.4.3-2
python-pyopenssl 22.0.0-1
python-pyparsing 3.0.9-1
python-pyqt5 5.15.7-1
python-pyqt5-sip 12.11.0-1
python-pyqt5-webengine 5.15.6-1
python-pytube 12.1.0-1
python-rapidfuzz 2.4.2-2
python-redis 4.3.4-1
python-requests 2.28.1-1
python-resolvelib 0.8.1-1
python-rich 12.5.1-1
python-setuptools 1:62.3.1-1
python-shtab 1.5.5-1
python-six 1.16.0-6
python-soupsieve 2.3.2.post1-1
python-spotdl 3.9.6-4
python-spotipy 2.20.0-2
python-tenacity 8.0.1-3
python-termcolor 1.1.0-12
python-tomli 2.0.1-1
python-tqdm 4.64.0-1
python-trove-classifiers 2022.8.24-1
python-typing_extensions 4.3.0-1
python-unidecode 1.3.4-1
python-urllib3 1.26.12-1
python-validate-pyproject 0.9-1
python-webencodings 0.5.1-9
python-websockets 10.3-1
python-wrapt 1.14.1-1
python-yaml 6.0-1
python-ytmusicapi 0.22.0-1
python-zipp 3.8.1-1
qbittorrent 4.4.5-1
qca-qt5 2.3.4-3
qpdf 10.6.3-1
qqc2-desktop-style 5.97.0-1
qrencode 4.1.1-1
qt5-base 5.15.5+kde+r178-1
qt5-charts 5.15.5+kde+r1-1
qt5-declarative 5.15.5+kde+r19-1
qt5-graphicaleffects 5.15.5+kde+r0-1
qt5-location 5.15.5+kde+r3-1
qt5-multimedia 5.15.5+kde+r1-1
qt5-quickcontrols 5.15.5+kde+r0-1
qt5-quickcontrols2 5.15.5+kde+r6-1
qt5-sensors 5.15.5+kde+r0-1
qt5-speech 5.15.5+kde+r1-1
qt5-svg 5.15.5+kde+r11-1
qt5-tools 5.15.5+kde+r1-3
qt5-translations 5.15.5+kde+r2-1
qt5-wayland 5.15.5+kde+r38-3
qt5-webchannel 5.15.5+kde+r3-1
qt5-webengine 5.15.10-2
qt5-x11extras 5.15.5+kde+r0-1
qt6-base 6.3.1-1
qt6-svg 6.3.1-1
qt6-translations 6.3.1-1
qutebrowser 2.5.2-1
ranger 1.9.3-4
raptor 2.0.15-19
rav1e 0.5.1-2
re2 1:20220601-1
readline 8.1.002-1
rebuild-detector 4.4.1-2
reflector 2021.11-5
reiserfsprogs 3.6.27-3
rest 0.8.1+r4+ge5ee6ef-1
reuse 1.0.0-2
rhash 1.4.2-1
ripgrep 13.0.0-2
rofi 1.7.5-1
rp-pppoe 3.15-2
rpcbind 1.2.6-2
rsync 3.2.5-2
rtkit 0.13-2
rtmpdump 1:2.4.r99.f1b83c1-2
rubberband 3.0.0-2
ruby 3.0.4-9
ruby-abbrev 0.1.0-1
ruby-base64 0.1.1-1
ruby-benchmark 0.2.0-1
ruby-bigdecimal 3.1.2-1
ruby-bundledgems 3.0.4-9
ruby-bundler 2.3.19-1
ruby-cgi 0.3.2-1
ruby-csv 3.2.5-1
ruby-date 3.2.2-1
ruby-delegate 0.2.0-1
ruby-did_you_mean 1.6.1-1
ruby-diff-lcs 1.5.0-1
ruby-digest 3.1.0-1
ruby-drb 2.1.0-1
ruby-english 0.7.1-1
ruby-erb 2.2.3-2
ruby-etc 1.3.0-2
ruby-fcntl 1.0.1-1
ruby-fiddle 1.1.0-1
ruby-fileutils 1.6.0-1
ruby-find 0.1.1-1
ruby-forwardable 1.3.2-1
ruby-getoptlong 0.1.1-1
ruby-io-console 0.5.11-1
ruby-io-nonblock 0.1.0-1
ruby-io-wait 0.2.3-1
ruby-ipaddr 1.2.4-1
ruby-irb 1.4.1-1
ruby-json 2.6.2-1
ruby-logger 1.5.1-1
ruby-manpages 0.6.1-4
ruby-minitest 5.16.3-1
ruby-mutex_m 0.1.1-1
ruby-net-http 0.2.2-1
ruby-open-uri 0.2.0-2
ruby-optimist 3.0.1-2
ruby-paint 2.3.0-1
ruby-power_assert 2.0.1-1
ruby-psych 4.0.4-2
ruby-rainbow 3.1.1-1
ruby-rake 13.0.6-1
ruby-rdoc 6.4.0-2
ruby-reline 0.3.1-1
ruby-rexml 3.2.5-1
ruby-rspec 3.11.0-1
ruby-rspec-core 3.11.0-1
ruby-rspec-expectations 3.11.0-1
ruby-rspec-mocks 3.11.1-1
ruby-rspec-support 3.11.0-1
ruby-ruby2_keywords 0.0.5-1
ruby-stdlib 3.0.4-9
ruby-stringio 3.0.2-1
ruby-term-ansicolor 1.7.1-2
ruby-test-unit 3.5.3-1
ruby-time 0.2.0-2
ruby-tins 1.31.0-1
ruby-tmpdir 0.1.2-1
ruby-uri 0.11.0-2
rubygems 3.3.19-1
run-parts 5.5-1
rust 1:1.63.0-1
s-nail 14.9.24-1
sbc 2.0-1
scrot 1.7-1
sddm 0.19.0-8
sddm-kcm 5.25.4-1
sdl2 2.24.0-1
sed 4.8-1
semver 7.3.7-1
serd 0.30.14-1
sg3_utils 1.47-1
sgml-common 0.6.3-8
shaderc 2022.1-4
shadow 4.11.1-1
shared-mime-info 2.0+144+g13695c7-1
shellcheck 0.8.0-185
slang 2.3.3-1
smartmontools 7.3-1
smbclient 4.16.4-3
snappy 1.1.9-2
sndio 1.9.0-1
socat 1.7.4.3-1
sof-firmware 2.2.1-1
solid 5.97.0-1
sonnet 5.97.0-1
sord 0.16.12-3
sound-theme-freedesktop 0.8-5
soundtouch 2.3.1-2
source-highlight 3.1.9-8
spandsp 0.0.6-3
speedtest-cli 2.1.3-2
speex 1.2.1-1
speexdsp 1.2.1-1
spirv-tools 2022.1-1
spotify 1:1.1.84.716-2
sqlite 3.39.2-2
sratom 0.6.12-1
srt 1.5.0-1
sshfs 3.7.3-1
stacer 1.1.0-1
starship 1.10.2-1
startup-notification 0.12-7
stoken 0.92-4
sudo 1.9.11.p3-1
svt-av1 1.2.1-1
svt-hevc 1.5.1-2
sxhkd 0.6.2-2
syndication 5.97.0-1
syntax-highlighting 5.97.0-1
sysfsutils 2.1.1-1
sysstat 12.6.0-1
systemd 251.4-1
systemd-libs 251.4-1
systemd-sysvcompat 251.4-1
systemsettings 5.25.4-1
taglib 1.12-2
talloc 2.3.4-1
tar 1.34-1
tcl 8.6.12-3
tdb 1.4.7-1
tevent 1:0.13.0-1
texinfo 6.8-2
thin-provisioning-tools 0.9.0-1
threadweaver 5.97.0-1
thunar 4.16.11-2
tldr 3.1.0-2
tpm2-tss 3.2.0-1
tracker3 3.3.3-1
trash-cli 0.22.8.27-1
tree 2.0.2-2
tree-sitter 0.20.6-1
tslib 1.22-1
tt 0.4.2-1
ttf-bitstream-vera 1.10-14
ttf-dejavu 2.37+18+g9b5d1b2f-3
ttf-fira-code 6.2-2
ttf-hack 3.003-3
ttf-iosevka-nerd 2.1.0-2
ttf-jetbrains-mono 2.242-2
ttf-liberation 2.1.5-1
tty-clock-git 185.f2f847c-1
ttyper-git 1.0.0.pre.1.r5.g8be215c-1
tumbler 4.16.1-1
twolame 0.4.0-2
tzdata 2022c-1
uchardet 0.0.7-1
udisks2 2.9.4-1
unibilium 2.1.1-1
unimatrix-git r66.75f7402-1
unrar 1:6.1.7-1
unzip 6.0-19
upower 0.99.20-1
usb_modeswitch 2.6.1-3
usbmuxd 1.1.1-1
usbutils 014-2
uthash 2.3.0-1
util-linux 2.38.1-1
util-linux-libs 2.38.1-1
v4l-utils 1.22.1-1
vala 0.56.2-1
vid.stab 1.1-3
vlc 3.0.17.4-7
vmaf 2.3.1-1
volume_key 0.3.12-7
vpnc 1:0.5.3.r506.r204-1
vulkan-headers 1:1.3.221-1
vulkan-icd-loader 1.3.221-1
vulkan-tools 1.3.217-1
wavpack 5.5.0-1
wayland 1.21.0-1
wayland-protocols 1.26-1
wayland-utils 1.0.0-2
webkit2gtk 2.36.7-1
webrtc-audio-processing 0.3.1-3
wget 1.21.3-1
which 2.21-5
whois 5.5.13-1
wildmidi 0.4.4-1
wireless-regdb 2022.08.12-1
wireless_tools 30.pre9-3
wireplumber 0.4.11-4
woff2 1.0.2-4
wpa_supplicant 2:2.10-5
wpebackend-fdo 1.12.1-1
x264 3:0.164.r3095.baee400-4
x265 3.5-3
xbindkeys 1.8.7-3
xcb-proto 1.15.2-1
xcb-util 0.4.0-4
xcb-util-cursor 0.1.3-4
xcb-util-image 0.4.0-4
xcb-util-keysyms 0.4.0-4
xcb-util-renderutil 0.3.9-4
xcb-util-wm 0.4.1-4
xcb-util-xrm 1.3-2
xclip 0.13-3
xcursor-neutral 1.13a-9
xdg-dbus-proxy 0.1.4-1
xdg-user-dirs 0.18-1
xdg-user-dirs-gtk 0.10+9+g5b7efc6-3
xdg-utils 1.1.3+21+g1a58bc2-1
xf86-input-libinput 1.2.1-1
xf86-video-intel 1:2.99.917+916+g31486f40-2
xfconf 4.16.0-2
xfsprogs 5.19.0-1
xkeyboard-config 2.36-3
xl2tpd 1.3.17-1
xmlsec 1.2.34-1
xorg-fonts-encodings 1.0.6-1
xorg-server 21.1.4-1
xorg-server-common 21.1.4-1
xorg-server-xvfb 21.1.4-1
xorg-setxkbmap 1.3.3-1
xorg-xauth 1.1.2-1
xorg-xbacklight 1.2.3-3
xorg-xdpyinfo 1.3.3-4
xorg-xinit 1.4.1-3
xorg-xinput 1.6.3-3
xorg-xkbcomp 1.4.5-1
xorg-xkill 1.0.5-3
xorg-xmessage 1.0.6-1
xorg-xmodmap 1.0.11-1
xorg-xprop 1.2.5-1
xorg-xrandr 1.5.1-2
xorg-xrdb 1.2.1-1
xorg-xset 1.2.4-3
xorg-xsetroot 1.1.2-3
xorgproto 2022.2-1
xsettingsd 1.0.2-1
xvidcore 1.3.7-2
xxhash 0.8.1-2
xz 5.2.6-1
yad-eos 12.0-1.3
yajl 2.1.0-5
yarn 1.22.19-1
yay 11.2.0-1
yt-dlp 2022.08.19-1
zathura 0.4.9-1
zathura-pdf-mupdf 0.3.9-1
zbar 0.23.1-9
zeromq 4.3.4-2
zimg 3.0.4-1
zip 3.0-10
zlib 1:1.2.12-2
zsh 5.9-1
zsh-autosuggestions 0.7.0-1
zsh-completions 0.34.0-2
zstd 1.5.2-7
zvbi 0.2.35-4
zxing-cpp 1.4.0-1
zziplib 0.13.72-1
