classify-client.services.mozilla.com:HSTS	0	19233	1693301935805,1,0
firefox.settings.services.mozilla.com:HSTS	0	19233	1693304715663,1,0
services.addons.mozilla.org:HSTS	0	19233	1693301553472,1,0
incoming.telemetry.mozilla.org:HSTS	0	19233	1693306587626,1,0
contile.services.mozilla.com:HSTS	0	19233	1693305916504,1,0
shavar.services.mozilla.com^firstPartyDomain=safebrowsing.86868755-6b82-4842-b301-72671a0db32e.mozilla:HSTS	0	19233	1693302840514,1,1
cdn.jsdelivr.net:HSTS	0	19233	1693301785147,1,1
normandy.cdn.mozilla.net:HSTS	0	19233	1693301935508,1,0
aus5.mozilla.org:HSTS	0	19233	1693301335998,1,0
