1660995760296	Sync.Status	INFO	Resetting Status.
1660995760296	Sync.Status	DEBUG	Status.service: undefined => success.status_ok
1660995760301	FirefoxAccounts	TRACE	initializing new storage manager
1660995760301	FirefoxAccounts	TRACE	starting fetch of json user data
1660995760302	Sync.SyncScheduler	TRACE	Setting SyncScheduler policy values to defaults.
1660995760302	Sync.SyncScheduler	DEBUG	Clearing sync triggers and the global score.
1660995760302	Sync.Service	INFO	Loading Weave 1.105.0
1660995760303	Sync.Engine.Clients	DEBUG	Engine constructed
1660995760303	Sync.Engine.Clients	DEBUG	Resetting clients last sync time
1660995760305	Sync.Engine.Addons	DEBUG	Engine constructed
1660995760354	Sync.Engine.Addons	DEBUG	SyncEngine initialized: addons
1660995760373	FirefoxAccounts	TRACE	finished fetch of json user data - took: 71
1660995760373	FirefoxAccounts	DEBUG	reading secure storage with existing: []
1660995760373	FirefoxAccounts	TRACE	starting fetch of user data from the login manager
1660995760450	FirefoxAccounts	DEBUG	secure read fetched items: ["scopedKeys","kSync","kXCS","kExtSync","kExtKbHash"]
1660995760450	FirefoxAccounts	TRACE	initializing of new storage manager done
1660995760452	Sync.Engine.Bookmarks	DEBUG	Engine constructed
1660995760458	FirefoxAccounts	DEBUG	FxAccountsWebChannel registered: account_updates with origin https://accounts.firefox.com
1660995760463	Sync.Engine.Bookmarks	DEBUG	SyncEngine initialized: bookmarks
1660995760463	Sync.Engine.Forms	DEBUG	Engine constructed
1660995760466	Sync.Engine.Forms	DEBUG	SyncEngine initialized: forms
1660995760468	Sync.Engine.History	DEBUG	Engine constructed
1660995760470	Sync.Engine.History	DEBUG	SyncEngine initialized: history
1660995760471	Sync.Engine.Passwords	DEBUG	Engine constructed
1660995760473	Sync.Engine.Passwords	DEBUG	SyncEngine initialized: passwords
1660995760473	Sync.Engine.Prefs	DEBUG	Engine constructed
1660995760475	Sync.Engine.Prefs	DEBUG	SyncEngine initialized: prefs
1660995760475	Sync.Engine.Tabs	DEBUG	Engine constructed
1660995760477	Sync.Engine.Tabs	DEBUG	SyncEngine initialized: tabs
1660995760477	Sync.Engine.Tabs	DEBUG	Resetting tabs last sync time
1660995760478	Sync.Engine.CreditCards	DEBUG	Engine constructed
1660995760479	FirefoxAccounts	DEBUG	FxAccountsProfileClient: Initialized
1660995760479	FirefoxAccounts	DEBUG	FxAccountsProfileClient: Requested profile
1660995760479	FirefoxAccounts	DEBUG	getOAuthToken enter
1660995760480	FirefoxAccounts	TRACE	getCachedToken returning cached token
1660995760480	FirefoxAccounts	DEBUG	getOAuthToken returning a cached token
1660995760480	Services.Common.RESTRequest	DEBUG	GET request to https://profile.accounts.firefox.com/v1/profile
1660995760512	FirefoxAccounts	INFO	fetching updated device list
1660995760515	Sync.Engine.CreditCards	DEBUG	SyncEngine initialized: creditcards
1660995760535	Sync.Engine.Extension-Storage	DEBUG	Engine constructed
1660995760536	Services.Common.RESTRequest	DEBUG	GET https://profile.accounts.firefox.com/v1/profile failed: 2152398878 - NS_ERROR_UNKNOWN_HOST
1660995760536	FirefoxAccounts	ERROR	Background refresh of profile failed: {"name":"FxAccountsProfileClientError","code":null,"errno":998,"error":"NETWORK_ERROR","message":"[Exception... \"NS_ERROR_UNKNOWN_HOST\"  nsresult: \"0x804b001e (NS_ERROR_UNKNOWN_HOST)\"  location: \"JS frame :: resource://services-common/rest.js :: onStopRequest :: line 490\"  data: no]"}
1660995760542	Services.Common.RESTRequest	DEBUG	GET request to https://api.accounts.firefox.com/v1/account/devices
1660995760543	Sync.Engine.Extension-Storage	DEBUG	SyncEngine initialized: extension-storage
1660995760543	Sync.Service	INFO	Mozilla/5.0 (X11; Linux x86_64; rv:103.0) Gecko/20100101 Firefox/103.0
1660995760544	Sync.AddonsReconciler	INFO	Registering as Add-on Manager listener.
1660995760544	Sync.AddonsReconciler	DEBUG	Adding change listener.
1660995760544	Sync.Engine.History.Tracker	INFO	Adding Places observer.
1660995760545	Services.Common.RESTRequest	DEBUG	GET https://api.accounts.firefox.com/v1/account/devices failed: 2152398878 - NS_ERROR_UNKNOWN_HOST
1660995760545	Hawk	WARN	hawk request error: [Exception... "NS_ERROR_UNKNOWN_HOST"  nsresult: "0x804b001e (NS_ERROR_UNKNOWN_HOST)"  location: "JS frame :: resource://services-common/rest.js :: onStopRequest :: line 490"  data: no] Stack trace: onStopRequest()@resource://services-common/rest.js:490
1660995760545	Services.Common.RESTResponse	DEBUG	Caught exception fetching HTTP status code: [Exception... "Component returned failure code: 0x80040111 (NS_ERROR_NOT_AVAILABLE) [nsIHttpChannel.responseStatus]"  nsresult: "0x80040111 (NS_ERROR_NOT_AVAILABLE)"  location: "JS frame :: resource://services-common/rest.js :: get status :: line 626"  data: no] Stack trace: get status()@resource://services-common/rest.js:626
request()@resource://services-common/hawkclient.js:241
1660995760545	Services.Common.RESTResponse	DEBUG	Caught exception fetching HTTP status text: [Exception... "Component returned failure code: 0x80040111 (NS_ERROR_NOT_AVAILABLE) [nsIHttpChannel.responseStatusText]"  nsresult: "0x80040111 (NS_ERROR_NOT_AVAILABLE)"  location: "JS frame :: resource://services-common/rest.js :: get statusText :: line 641"  data: no] Stack trace: get statusText()@resource://services-common/rest.js:641
request()@resource://services-common/hawkclient.js:249
1660995760545	Hawk	DEBUG	(Response) /account/devices: code: null - Status text: null
1660995760545	Services.Common.RESTResponse	DEBUG	Caught exception processing response headers: [Exception... "Component returned failure code: 0x80040111 (NS_ERROR_NOT_AVAILABLE) [nsIHttpChannel.visitResponseHeaders]"  nsresult: "0x80040111 (NS_ERROR_NOT_AVAILABLE)"  location: "JS frame :: resource://services-common/rest.js :: get headers :: line 673"  data: no] Stack trace: get headers()@resource://services-common/rest.js:673
_maybeNotifyBackoff()@resource://services-common/hawkclient.js:318
request()@resource://services-common/hawkclient.js:257
1660995760545	Services.Common.RESTResponse	DEBUG	Caught exception processing response headers: [Exception... "Component returned failure code: 0x80040111 (NS_ERROR_NOT_AVAILABLE) [nsIHttpChannel.visitResponseHeaders]"  nsresult: "0x80040111 (NS_ERROR_NOT_AVAILABLE)"  location: "JS frame :: resource://services-common/rest.js :: get headers :: line 673"  data: no] Stack trace: get headers()@resource://services-common/rest.js:673
_maybeNotifyBackoff()@resource://services-common/hawkclient.js:318
request()@resource://services-common/hawkclient.js:258
1660995760546	Services.Common.RESTResponse	DEBUG	Caught exception fetching HTTP status text: [Exception... "Component returned failure code: 0x80040111 (NS_ERROR_NOT_AVAILABLE) [nsIHttpChannel.responseStatusText]"  nsresult: "0x80040111 (NS_ERROR_NOT_AVAILABLE)"  location: "JS frame :: resource://services-common/rest.js :: get statusText :: line 641"  data: no] Stack trace: get statusText()@resource://services-common/rest.js:641
_constructError()@resource://services-common/hawkclient.js:124
request()@resource://services-common/hawkclient.js:263
1660995760546	Services.Common.RESTResponse	DEBUG	Caught exception fetching HTTP status code: [Exception... "Component returned failure code: 0x80040111 (NS_ERROR_NOT_AVAILABLE) [nsIHttpChannel.responseStatus]"  nsresult: "0x80040111 (NS_ERROR_NOT_AVAILABLE)"  location: "JS frame :: resource://services-common/rest.js :: get status :: line 626"  data: no] Stack trace: get status()@resource://services-common/rest.js:626
_constructError()@resource://services-common/hawkclient.js:125
request()@resource://services-common/hawkclient.js:263
1660995760546	Services.Common.RESTResponse	DEBUG	Caught exception fetching HTTP status code: [Exception... "Component returned failure code: 0x80040111 (NS_ERROR_NOT_AVAILABLE) [nsIHttpChannel.responseStatus]"  nsresult: "0x80040111 (NS_ERROR_NOT_AVAILABLE)"  location: "JS frame :: resource://services-common/rest.js :: get status :: line 626"  data: no] Stack trace: get status()@resource://services-common/rest.js:626
_constructError()@resource://services-common/hawkclient.js:126
request()@resource://services-common/hawkclient.js:263
1660995760546	Services.Common.RESTResponse	DEBUG	Caught exception processing response headers: [Exception... "Component returned failure code: 0x80040111 (NS_ERROR_NOT_AVAILABLE) [nsIHttpChannel.visitResponseHeaders]"  nsresult: "0x80040111 (NS_ERROR_NOT_AVAILABLE)"  location: "JS frame :: resource://services-common/rest.js :: get headers :: line 673"  data: no] Stack trace: get headers()@resource://services-common/rest.js:673
_constructError()@resource://services-common/hawkclient.js:132
request()@resource://services-common/hawkclient.js:263
1660995760546	FirefoxAccounts	ERROR	error GETing /account/devices: {"error":{},"errorString":"[Exception... \"NS_ERROR_UNKNOWN_HOST\"  nsresult: \"0x804b001e (NS_ERROR_UNKNOWN_HOST)\"  location: \"JS frame :: resource://services-common/rest.js :: onStopRequest :: line 490\"  data: no]","message":null,"code":null,"errno":null}
1660995760546	Sync.Browser	ERROR	Refreshing device list failed.: {"error":{},"errorString":"[Exception... \"NS_ERROR_UNKNOWN_HOST\"  nsresult: \"0x804b001e (NS_ERROR_UNKNOWN_HOST)\"  location: \"JS frame :: resource://services-common/rest.js :: onStopRequest :: line 490\"  data: no]","message":null,"code":null,"errno":null}
1660995760549	FirefoxAccounts	TRACE	not checking freshness of profile as it remains recent
1660995760550	FirefoxAccounts	INFO	fetching updated device list
1660995760551	Sync.Service	DEBUG	User-Agent: Firefox/103.0.2 (Linux x86_64) FxSync/1.105.0.20220808225913.desktop
1660995760552	Sync.Service	INFO	Starting sync at 2022-08-20 17:12:40 in browser session PQfQGjxgWIKs
1660995760552	Sync.Service	DEBUG	In sync: should login.
1660995760552	Sync.Service	INFO	User logged in successfully - verifying login.
1660995760552	FirefoxAccounts	TRACE	not checking freshness of profile as it remains recent
1660995760552	Sync.SyncAuthManager	DEBUG	unlockAndVerifyAuthState already has (or can fetch) sync keys
1660995760552	Sync.Status	DEBUG	Status.login: success.login => success.status_ok
1660995760552	Sync.Status	DEBUG	Status.service: success.status_ok => error.login.failed
1660995760552	Sync.Service	DEBUG	Fetching unlocked auth state returned success.status_ok
1660995760552	FirefoxAccounts	TRACE	not checking freshness of profile as it remains recent
1660995760552	Sync.SyncAuthManager	INFO	Getting sync key
1660995760552	Sync.SyncAuthManager	INFO	Getting a sync token from: https://token.services.mozilla.com/1.0/sync/1.5
1660995760552	Sync.SyncAuthManager	DEBUG	Getting a token using OAuth
1660995760552	FirefoxAccounts	DEBUG	getOAuthToken enter
1660995760553	FirefoxAccounts	TRACE	getCachedToken returning cached token
1660995760553	FirefoxAccounts	DEBUG	getOAuthToken returning a cached token
1660995760553	Services.Common.TokenServerClient	DEBUG	Beginning OAuth token exchange: https://token.services.mozilla.com/1.0/sync/1.5
1660995760553	Services.Common.RESTRequest	DEBUG	GET request to https://token.services.mozilla.com/1.0/sync/1.5
1660995760555	Services.Common.RESTRequest	DEBUG	GET https://token.services.mozilla.com/1.0/sync/1.5 failed: 2152398878 - NS_ERROR_UNKNOWN_HOST
1660995760555	Sync.SyncAuthManager	ERROR	Non-authentication error in _fetchTokenForUser: TokenServerClientNetworkError({"error":{}})(resource://services-common/tokenserverclient.js:39:36) JS Stack trace: TokenServerClientNetworkError@tokenserverclient.js:62:16
_tokenServerExchangeRequest@tokenserverclient.js:241:13
1660995760555	Sync.Status	DEBUG	Status.login: success.status_ok => error.login.reason.network
1660995760555	Sync.Status	DEBUG	Status.service: error.login.failed => error.login.failed
1660995760555	Sync.SyncAuthManager	INFO	Failed to fetch the cluster URL: TokenServerClientNetworkError({"error":{}})(resource://services-common/tokenserverclient.js:39:36) JS Stack trace: TokenServerClientNetworkError@tokenserverclient.js:62:16
_tokenServerExchangeRequest@tokenserverclient.js:241:13
1660995760556	Sync.Service	DEBUG	verifyLogin failed: TokenServerClientNetworkError({"error":{}})(resource://services-common/tokenserverclient.js:39:36) JS Stack trace: TokenServerClientNetworkError@tokenserverclient.js:62:16
_tokenServerExchangeRequest@tokenserverclient.js:241:13
1660995760556	Sync.Status	DEBUG	Status.login: error.login.reason.network => error.login.reason.network
1660995760556	Sync.Status	DEBUG	Status.service: error.login.failed => error.login.failed
1660995760556	Sync.ErrorHandler	ERROR	Sync encountered a login error
1660995760556	Sync.SyncScheduler	DEBUG	Clearing sync triggers and the global score.
1660995760556	Sync.SyncScheduler	DEBUG	Next sync in 3600000 ms. (why=schedule)
1660995760556	FirefoxAccounts	TRACE	not checking freshness of profile as it remains recent
1660995760556	Sync.Service	DEBUG	Exception calling WrappedLock: Error: Login failed: error.login.reason.network(resource://services-sync/service.js:1040:15) JS Stack trace: onNotify@service.js:1040:15
1660995760556	Sync.Service	DEBUG	Not syncing: login returned false.
1660995760557	FirefoxAccounts	TRACE	not checking freshness of profile as it remains recent
1660995760558	FirefoxAccounts	INFO	Already fetching device list, return existing promise
1660995760558	FirefoxAccounts	INFO	Already fetching device list, return existing promise
1660995760559	Services.Common.RESTRequest	DEBUG	GET request to https://api.accounts.firefox.com/v1/account/devices
1660995760560	Services.Common.RESTRequest	DEBUG	GET https://api.accounts.firefox.com/v1/account/devices failed: 2152398878 - NS_ERROR_UNKNOWN_HOST
1660995760560	Hawk	WARN	hawk request error: [Exception... "NS_ERROR_UNKNOWN_HOST"  nsresult: "0x804b001e (NS_ERROR_UNKNOWN_HOST)"  location: "JS frame :: resource://services-common/rest.js :: onStopRequest :: line 490"  data: no] Stack trace: onStopRequest()@resource://services-common/rest.js:490
1660995760560	Services.Common.RESTResponse	DEBUG	Caught exception fetching HTTP status code: [Exception... "Component returned failure code: 0x80040111 (NS_ERROR_NOT_AVAILABLE) [nsIHttpChannel.responseStatus]"  nsresult: "0x80040111 (NS_ERROR_NOT_AVAILABLE)"  location: "JS frame :: resource://services-common/rest.js :: get status :: line 626"  data: no] Stack trace: get status()@resource://services-common/rest.js:626
request()@resource://services-common/hawkclient.js:241
1660995760560	Services.Common.RESTResponse	DEBUG	Caught exception fetching HTTP status text: [Exception... "Component returned failure code: 0x80040111 (NS_ERROR_NOT_AVAILABLE) [nsIHttpChannel.responseStatusText]"  nsresult: "0x80040111 (NS_ERROR_NOT_AVAILABLE)"  location: "JS frame :: resource://services-common/rest.js :: get statusText :: line 641"  data: no] Stack trace: get statusText()@resource://services-common/rest.js:641
request()@resource://services-common/hawkclient.js:249
1660995760560	Hawk	DEBUG	(Response) /account/devices: code: null - Status text: null
1660995760560	Services.Common.RESTResponse	DEBUG	Caught exception processing response headers: [Exception... "Component returned failure code: 0x80040111 (NS_ERROR_NOT_AVAILABLE) [nsIHttpChannel.visitResponseHeaders]"  nsresult: "0x80040111 (NS_ERROR_NOT_AVAILABLE)"  location: "JS frame :: resource://services-common/rest.js :: get headers :: line 673"  data: no] Stack trace: get headers()@resource://services-common/rest.js:673
_maybeNotifyBackoff()@resource://services-common/hawkclient.js:318
request()@resource://services-common/hawkclient.js:257
1660995760560	Services.Common.RESTResponse	DEBUG	Caught exception processing response headers: [Exception... "Component returned failure code: 0x80040111 (NS_ERROR_NOT_AVAILABLE) [nsIHttpChannel.visitResponseHeaders]"  nsresult: "0x80040111 (NS_ERROR_NOT_AVAILABLE)"  location: "JS frame :: resource://services-common/rest.js :: get headers :: line 673"  data: no] Stack trace: get headers()@resource://services-common/rest.js:673
_maybeNotifyBackoff()@resource://services-common/hawkclient.js:318
request()@resource://services-common/hawkclient.js:258
1660995760560	Services.Common.RESTResponse	DEBUG	Caught exception fetching HTTP status text: [Exception... "Component returned failure code: 0x80040111 (NS_ERROR_NOT_AVAILABLE) [nsIHttpChannel.responseStatusText]"  nsresult: "0x80040111 (NS_ERROR_NOT_AVAILABLE)"  location: "JS frame :: resource://services-common/rest.js :: get statusText :: line 641"  data: no] Stack trace: get statusText()@resource://services-common/rest.js:641
_constructError()@resource://services-common/hawkclient.js:124
request()@resource://services-common/hawkclient.js:263
1660995760560	Services.Common.RESTResponse	DEBUG	Caught exception fetching HTTP status code: [Exception... "Component returned failure code: 0x80040111 (NS_ERROR_NOT_AVAILABLE) [nsIHttpChannel.responseStatus]"  nsresult: "0x80040111 (NS_ERROR_NOT_AVAILABLE)"  location: "JS frame :: resource://services-common/rest.js :: get status :: line 626"  data: no] Stack trace: get status()@resource://services-common/rest.js:626
_constructError()@resource://services-common/hawkclient.js:125
request()@resource://services-common/hawkclient.js:263
1660995760560	Services.Common.RESTResponse	DEBUG	Caught exception fetching HTTP status code: [Exception... "Component returned failure code: 0x80040111 (NS_ERROR_NOT_AVAILABLE) [nsIHttpChannel.responseStatus]"  nsresult: "0x80040111 (NS_ERROR_NOT_AVAILABLE)"  location: "JS frame :: resource://services-common/rest.js :: get status :: line 626"  data: no] Stack trace: get status()@resource://services-common/rest.js:626
_constructError()@resource://services-common/hawkclient.js:126
request()@resource://services-common/hawkclient.js:263
1660995760560	Services.Common.RESTResponse	DEBUG	Caught exception processing response headers: [Exception... "Component returned failure code: 0x80040111 (NS_ERROR_NOT_AVAILABLE) [nsIHttpChannel.visitResponseHeaders]"  nsresult: "0x80040111 (NS_ERROR_NOT_AVAILABLE)"  location: "JS frame :: resource://services-common/rest.js :: get headers :: line 673"  data: no] Stack trace: get headers()@resource://services-common/rest.js:673
_constructError()@resource://services-common/hawkclient.js:132
request()@resource://services-common/hawkclient.js:263
1660995760561	FirefoxAccounts	ERROR	error GETing /account/devices: {"error":{},"errorString":"[Exception... \"NS_ERROR_UNKNOWN_HOST\"  nsresult: \"0x804b001e (NS_ERROR_UNKNOWN_HOST)\"  location: \"JS frame :: resource://services-common/rest.js :: onStopRequest :: line 490\"  data: no]","message":null,"code":null,"errno":null}
1660995760561	Sync.Browser	ERROR	Refreshing device list failed.: {"error":{},"errorString":"[Exception... \"NS_ERROR_UNKNOWN_HOST\"  nsresult: \"0x804b001e (NS_ERROR_UNKNOWN_HOST)\"  location: \"JS frame :: resource://services-common/rest.js :: onStopRequest :: line 490\"  data: no]","message":null,"code":null,"errno":null}
1660995760561	Sync.Browser	ERROR	Refreshing device list failed.: {"error":{},"errorString":"[Exception... \"NS_ERROR_UNKNOWN_HOST\"  nsresult: \"0x804b001e (NS_ERROR_UNKNOWN_HOST)\"  location: \"JS frame :: resource://services-common/rest.js :: onStopRequest :: line 490\"  data: no]","message":null,"code":null,"errno":null}
1660995760561	Sync.Browser	ERROR	Refreshing device list failed.: {"error":{},"errorString":"[Exception... \"NS_ERROR_UNKNOWN_HOST\"  nsresult: \"0x804b001e (NS_ERROR_UNKNOWN_HOST)\"  location: \"JS frame :: resource://services-common/rest.js :: onStopRequest :: line 490\"  data: no]","message":null,"code":null,"errno":null}
