1660994325618	Sync.LogManager	DEBUG	Flushing file log
1660994325620	FirefoxAccounts	INFO	Already fetching device list, return existing promise
1660994325621	FirefoxAccounts	INFO	Already fetching device list, return existing promise
1660994325622	Services.Common.RESTRequest	DEBUG	GET request to https://api.accounts.firefox.com/v1/account/devices
1660994325623	Services.Common.RESTRequest	DEBUG	GET https://api.accounts.firefox.com/v1/account/devices failed: 2152398878 - NS_ERROR_UNKNOWN_HOST
1660994325623	Hawk	WARN	hawk request error: [Exception... "NS_ERROR_UNKNOWN_HOST"  nsresult: "0x804b001e (NS_ERROR_UNKNOWN_HOST)"  location: "JS frame :: resource://services-common/rest.js :: onStopRequest :: line 490"  data: no] Stack trace: onStopRequest()@resource://services-common/rest.js:490
1660994325623	Services.Common.RESTResponse	DEBUG	Caught exception fetching HTTP status code: [Exception... "Component returned failure code: 0x80040111 (NS_ERROR_NOT_AVAILABLE) [nsIHttpChannel.responseStatus]"  nsresult: "0x80040111 (NS_ERROR_NOT_AVAILABLE)"  location: "JS frame :: resource://services-common/rest.js :: get status :: line 626"  data: no] Stack trace: get status()@resource://services-common/rest.js:626
request()@resource://services-common/hawkclient.js:241
1660994325623	Services.Common.RESTResponse	DEBUG	Caught exception fetching HTTP status text: [Exception... "Component returned failure code: 0x80040111 (NS_ERROR_NOT_AVAILABLE) [nsIHttpChannel.responseStatusText]"  nsresult: "0x80040111 (NS_ERROR_NOT_AVAILABLE)"  location: "JS frame :: resource://services-common/rest.js :: get statusText :: line 641"  data: no] Stack trace: get statusText()@resource://services-common/rest.js:641
request()@resource://services-common/hawkclient.js:249
1660994325623	Hawk	DEBUG	(Response) /account/devices: code: null - Status text: null
1660994325623	Services.Common.RESTResponse	DEBUG	Caught exception processing response headers: [Exception... "Component returned failure code: 0x80040111 (NS_ERROR_NOT_AVAILABLE) [nsIHttpChannel.visitResponseHeaders]"  nsresult: "0x80040111 (NS_ERROR_NOT_AVAILABLE)"  location: "JS frame :: resource://services-common/rest.js :: get headers :: line 673"  data: no] Stack trace: get headers()@resource://services-common/rest.js:673
_maybeNotifyBackoff()@resource://services-common/hawkclient.js:318
request()@resource://services-common/hawkclient.js:257
1660994325623	Services.Common.RESTResponse	DEBUG	Caught exception processing response headers: [Exception... "Component returned failure code: 0x80040111 (NS_ERROR_NOT_AVAILABLE) [nsIHttpChannel.visitResponseHeaders]"  nsresult: "0x80040111 (NS_ERROR_NOT_AVAILABLE)"  location: "JS frame :: resource://services-common/rest.js :: get headers :: line 673"  data: no] Stack trace: get headers()@resource://services-common/rest.js:673
_maybeNotifyBackoff()@resource://services-common/hawkclient.js:318
request()@resource://services-common/hawkclient.js:258
1660994325623	Services.Common.RESTResponse	DEBUG	Caught exception fetching HTTP status text: [Exception... "Component returned failure code: 0x80040111 (NS_ERROR_NOT_AVAILABLE) [nsIHttpChannel.responseStatusText]"  nsresult: "0x80040111 (NS_ERROR_NOT_AVAILABLE)"  location: "JS frame :: resource://services-common/rest.js :: get statusText :: line 641"  data: no] Stack trace: get statusText()@resource://services-common/rest.js:641
_constructError()@resource://services-common/hawkclient.js:124
request()@resource://services-common/hawkclient.js:263
1660994325623	Services.Common.RESTResponse	DEBUG	Caught exception fetching HTTP status code: [Exception... "Component returned failure code: 0x80040111 (NS_ERROR_NOT_AVAILABLE) [nsIHttpChannel.responseStatus]"  nsresult: "0x80040111 (NS_ERROR_NOT_AVAILABLE)"  location: "JS frame :: resource://services-common/rest.js :: get status :: line 626"  data: no] Stack trace: get status()@resource://services-common/rest.js:626
_constructError()@resource://services-common/hawkclient.js:125
request()@resource://services-common/hawkclient.js:263
1660994325623	Services.Common.RESTResponse	DEBUG	Caught exception fetching HTTP status code: [Exception... "Component returned failure code: 0x80040111 (NS_ERROR_NOT_AVAILABLE) [nsIHttpChannel.responseStatus]"  nsresult: "0x80040111 (NS_ERROR_NOT_AVAILABLE)"  location: "JS frame :: resource://services-common/rest.js :: get status :: line 626"  data: no] Stack trace: get status()@resource://services-common/rest.js:626
_constructError()@resource://services-common/hawkclient.js:126
request()@resource://services-common/hawkclient.js:263
1660994325623	Services.Common.RESTResponse	DEBUG	Caught exception processing response headers: [Exception... "Component returned failure code: 0x80040111 (NS_ERROR_NOT_AVAILABLE) [nsIHttpChannel.visitResponseHeaders]"  nsresult: "0x80040111 (NS_ERROR_NOT_AVAILABLE)"  location: "JS frame :: resource://services-common/rest.js :: get headers :: line 673"  data: no] Stack trace: get headers()@resource://services-common/rest.js:673
_constructError()@resource://services-common/hawkclient.js:132
request()@resource://services-common/hawkclient.js:263
1660994325623	FirefoxAccounts	ERROR	error GETing /account/devices: {"error":{},"errorString":"[Exception... \"NS_ERROR_UNKNOWN_HOST\"  nsresult: \"0x804b001e (NS_ERROR_UNKNOWN_HOST)\"  location: \"JS frame :: resource://services-common/rest.js :: onStopRequest :: line 490\"  data: no]","message":null,"code":null,"errno":null}
1660994325624	Sync.Browser	ERROR	Refreshing device list failed.: {"error":{},"errorString":"[Exception... \"NS_ERROR_UNKNOWN_HOST\"  nsresult: \"0x804b001e (NS_ERROR_UNKNOWN_HOST)\"  location: \"JS frame :: resource://services-common/rest.js :: onStopRequest :: line 490\"  data: no]","message":null,"code":null,"errno":null}
1660994325624	Sync.Browser	ERROR	Refreshing device list failed.: {"error":{},"errorString":"[Exception... \"NS_ERROR_UNKNOWN_HOST\"  nsresult: \"0x804b001e (NS_ERROR_UNKNOWN_HOST)\"  location: \"JS frame :: resource://services-common/rest.js :: onStopRequest :: line 490\"  data: no]","message":null,"code":null,"errno":null}
1660994325624	Sync.Browser	ERROR	Refreshing device list failed.: {"error":{},"errorString":"[Exception... \"NS_ERROR_UNKNOWN_HOST\"  nsresult: \"0x804b001e (NS_ERROR_UNKNOWN_HOST)\"  location: \"JS frame :: resource://services-common/rest.js :: onStopRequest :: line 490\"  data: no]","message":null,"code":null,"errno":null}
1660994325694	Sync.LogManager	DEBUG	Log cleanup threshold time: 1660130325694
1660994325705	Sync.LogManager	DEBUG	Done deleting files.
1660994329549	Sync.RemoteTabs	INFO	Generating tab list with filter
1660994329549	Sync.RemoteTabs	INFO	Final tab list has 0 clients with 0 tabs.
1660994330695	Sync.SyncScheduler	DEBUG	Network link status changed to "up". Offline?: false
1660994330695	Sync.SyncScheduler	DEBUG	Network link looks up. Syncing.
1660994330697	Sync.SyncScheduler	DEBUG	Network link status changed to "changed". Offline?: false
1660994330698	Sync.Service	DEBUG	User-Agent: Firefox/103.0.2 (Linux x86_64) FxSync/1.105.0.20220808225913.desktop
1660994330698	Sync.Service	INFO	Starting sync at 2022-08-20 16:48:50 in browser session pJ4BqKisHpAh
1660994330698	Sync.Service	DEBUG	In sync: should login.
1660994330698	Sync.Service	INFO	User logged in successfully - verifying login.
1660994330698	FirefoxAccounts	TRACE	not checking freshness of profile as it remains recent
1660994330698	Sync.SyncAuthManager	DEBUG	unlockAndVerifyAuthState already has (or can fetch) sync keys
1660994330698	Sync.Status	DEBUG	Status.login: error.login.reason.network => success.status_ok
1660994330698	Sync.Status	DEBUG	Status.service: error.login.failed => error.login.failed
1660994330698	Sync.Service	DEBUG	Fetching unlocked auth state returned success.status_ok
1660994330698	FirefoxAccounts	TRACE	not checking freshness of profile as it remains recent
1660994330698	Sync.SyncAuthManager	INFO	Getting sync key
1660994330698	Sync.SyncAuthManager	INFO	Getting a sync token from: https://token.services.mozilla.com/1.0/sync/1.5
1660994330698	Sync.SyncAuthManager	DEBUG	Getting a token using OAuth
1660994330698	FirefoxAccounts	DEBUG	getOAuthToken enter
1660994330698	FirefoxAccounts	TRACE	getCachedToken returning cached token
1660994330699	FirefoxAccounts	DEBUG	getOAuthToken returning a cached token
1660994330699	Services.Common.TokenServerClient	DEBUG	Beginning OAuth token exchange: https://token.services.mozilla.com/1.0/sync/1.5
1660994330699	Services.Common.RESTRequest	DEBUG	GET request to https://token.services.mozilla.com/1.0/sync/1.5
1660994331963	Services.Common.RESTRequest	DEBUG	GET https://token.services.mozilla.com/1.0/sync/1.5 200
1660994331963	Services.Common.TokenServerClient	DEBUG	Got token response: 200
1660994331963	Services.Common.TokenServerClient	DEBUG	Successful token response
1660994331964	Sync.BulkKeyBundle	INFO	BulkKeyBundle being created for undefined
1660994331964	Sync.Status	DEBUG	Status.login: success.status_ok => success.login
1660994331964	Sync.Status	DEBUG	Status.service: error.login.failed => success.status_ok
1660994331964	Sync.SyncAuthManager	DEBUG	_findCluster returning https://sync-1-us-west1-g.sync.services.mozilla.com/1.5/198389475/
1660994331964	Sync.SyncAuthManager	DEBUG	Cluster value = https://sync-1-us-west1-g.sync.services.mozilla.com/1.5/198389475/
1660994331964	Sync.SyncAuthManager	DEBUG	Setting cluster to https://sync-1-us-west1-g.sync.services.mozilla.com/1.5/198389475/
1660994331964	Sync.Service	DEBUG	Caching URLs under storage user base: https://sync-1-us-west1-g.sync.services.mozilla.com/1.5/198389475/
1660994331965	FirefoxAccounts	TRACE	not checking freshness of profile as it remains recent
1660994331965	FirefoxAccounts	TRACE	not checking freshness of profile as it remains recent
1660994331967	FirefoxAccounts	INFO	fetching updated device list
1660994331976	Services.Common.RESTRequest	DEBUG	GET request to https://api.accounts.firefox.com/v1/account/devices
1660994332359	Sync.Resource	DEBUG	GET success 200 https://sync-1-us-west1-g.sync.services.mozilla.com/1.5/198389475/info/collections
1660994332359	Sync.Service	DEBUG	Fetching server configuration: https://sync-1-us-west1-g.sync.services.mozilla.com/1.5/198389475/info/configuration
1660994332360	FirefoxAccounts	TRACE	not checking freshness of profile as it remains recent
1660994332597	Sync.Resource	DEBUG	GET success 200 https://sync-1-us-west1-g.sync.services.mozilla.com/1.5/198389475/info/configuration
1660994332597	Sync.Service	DEBUG	Fetching global metadata record
1660994332598	FirefoxAccounts	TRACE	not checking freshness of profile as it remains recent
1660994332612	Sync.SyncScheduler	DEBUG	Network link status changed to "changed". Offline?: false
1660994332860	Sync.Resource	DEBUG	GET success 200 https://sync-1-us-west1-g.sync.services.mozilla.com/1.5/198389475/storage/meta/global
1660994332860	Sync.Service	DEBUG	Clearing cached meta record. metaModified is undefined, setting to 1658672201.28
1660994332861	FirefoxAccounts	TRACE	not checking freshness of profile as it remains recent
1660994333101	Services.Common.RESTRequest	DEBUG	GET https://api.accounts.firefox.com/v1/account/devices 200
1660994333101	Hawk	DEBUG	(Response) /account/devices: code: 200 - Status text: OK
1660994333101	Hawk	DEBUG	Clock offset vs https://api.accounts.firefox.com/v1: -1101
1660994333101	FirefoxAccounts	INFO	Got new device list: 19489cc9215e8d1d25c64f9fca4943c2
1660994333102	FirefoxAccounts	INFO	updating the cache
1660994333169	Sync.Resource	DEBUG	GET success 200 https://sync-1-us-west1-g.sync.services.mozilla.com/1.5/198389475/storage/meta/global
1660994333169	Sync.Service	DEBUG	Weave Version: 1.105.0 Local Storage: 5 Remote Storage: 5
1660994333169	Sync.Service	DEBUG	Fetching and verifying -- or generating -- symmetric keys.
1660994333169	Sync.Service	INFO	Testing info/collections: {"addons":1658672199.18,"forms":1658672200.08,"clients":1660977835.5,"crypto":1658672194,"meta":1658672201.28,"prefs":1659003844.78,"tabs":1660981438.52,"passwords":1658672197.05,"bookmarks":1660665627.93,"history":1658672200.7}
1660994333169	Sync.CollectionKeyManager	INFO	Testing for updateNeeded. Last modified: 0
1660994333169	Sync.Service	INFO	collection keys reports that a key update is needed.
1660994333170	FirefoxAccounts	TRACE	not checking freshness of profile as it remains recent
1660994333432	Sync.Resource	DEBUG	GET success 200 https://sync-1-us-west1-g.sync.services.mozilla.com/1.5/198389475/storage/crypto/keys
1660994333432	Sync.CollectionKeyManager	INFO	Updating collection keys...
1660994333433	Sync.CollectionKeyManager	INFO	Setting collection keys contents. Our last modified: 0, input modified: 1658672194.
1660994333433	Sync.BulkKeyBundle	INFO	BulkKeyBundle being created for [default]
1660994333433	Sync.CollectionKeyManager	INFO	Processing downloaded per-collection keys.
1660994333433	Sync.CollectionKeyManager	INFO	Clearing collection keys...
1660994333433	Sync.CollectionKeyManager	INFO	Saving downloaded keys.
1660994333433	Sync.CollectionKeyManager	INFO	Bumping last modified to 1658672194
1660994333433	Sync.CollectionKeyManager	INFO	Collection keys updated.
1660994333433	Sync.Status	DEBUG	Status.login: success.login => success.login
1660994333433	Sync.Status	DEBUG	Status.service: success.status_ok => success.status_ok
1660994333433	Sync.Service	DEBUG	Caching URLs under storage user base: https://sync-1-us-west1-g.sync.services.mozilla.com/1.5/198389475/
1660994333433	Sync.SyncScheduler	DEBUG	Clearing sync triggers and the global score.
1660994333435	Sync.Status	INFO	Resetting Status.
1660994333435	Sync.Status	DEBUG	Status.service: success.status_ok => success.status_ok
1660994333435	FirefoxAccounts	TRACE	not checking freshness of profile as it remains recent
1660994333691	Sync.Resource	DEBUG	GET success 200 https://sync-1-us-west1-g.sync.services.mozilla.com/1.5/198389475/info/collections
1660994333691	Sync.Service	DEBUG	Fetching server configuration: https://sync-1-us-west1-g.sync.services.mozilla.com/1.5/198389475/info/configuration
1660994333691	FirefoxAccounts	TRACE	not checking freshness of profile as it remains recent
1660994333975	Sync.Resource	DEBUG	GET success 200 https://sync-1-us-west1-g.sync.services.mozilla.com/1.5/198389475/info/configuration
1660994333976	Sync.Service	DEBUG	Fetching global metadata record
1660994333976	Sync.Service	DEBUG	Weave Version: 1.105.0 Local Storage: 5 Remote Storage: 5
1660994333976	Sync.Service	DEBUG	Fetching and verifying -- or generating -- symmetric keys.
1660994333976	Sync.Service	INFO	Testing info/collections: {"meta":1658672201.28,"bookmarks":1660665627.93,"prefs":1659003844.78,"tabs":1660981438.52,"history":1658672200.7,"addons":1658672199.18,"crypto":1658672194,"forms":1658672200.08,"passwords":1658672197.05,"clients":1660977835.5}
1660994333976	Sync.CollectionKeyManager	INFO	Testing for updateNeeded. Last modified: 1658672194
1660994333976	Sync.Synchronizer	DEBUG	Refreshing client list.
1660994333976	Sync.Engine.Clients	DEBUG	First sync, uploading all items
1660994333976	Sync.Engine.Clients	DEBUG	Resetting clients last sync time
1660994333977	FirefoxAccounts	TRACE	not checking freshness of profile as it remains recent
1660994334238	Sync.Collection	DEBUG	GET success 200 https://sync-1-us-west1-g.sync.services.mozilla.com/1.5/198389475/storage/clients?full=1&limit=1000
1660994334241	Sync.Engine.Clients	INFO	Records: 0 applied, 0 successfully, 0 failed to apply, 0 newly failed to apply, 1 reconciled.
1660994334241	FirefoxAccounts	INFO	Device list cache is fresh, re-using it
1660994334241	Sync.Engine.Clients	DEBUG	Refreshing the known stale clients list
1660994334243	Sync.Engine.Clients	INFO	Uploading 1 outgoing records
1660994334244	Sync.Engine.Clients	INFO	Posting 1 records of 549 bytes with batch=true
1660994334245	FirefoxAccounts	TRACE	not checking freshness of profile as it remains recent
1660994334245	Sync.Collection	DEBUG	POST Length: 549
1660994334545	Sync.Collection	DEBUG	POST success 200 https://sync-1-us-west1-g.sync.services.mozilla.com/1.5/198389475/storage/clients?batch=true&commit=true
1660994334550	Sync.SyncScheduler	DEBUG	Client count: 0 -> 1
1660994334550	Sync.Synchronizer	INFO	Updating enabled engines: 1 clients.
1660994334552	Sync.Synchronizer	INFO	Syncing all enabled engines.
1660994334553	Sync.Engine.Prefs	INFO	Records: 0 applied, 0 successfully, 0 failed to apply, 0 newly failed to apply, 0 reconciled.
1660994334553	Sync.Engine.Prefs	INFO	Uploading 0 outgoing records
1660994334555	Sync.Engine.Passwords	INFO	Records: 0 applied, 0 successfully, 0 failed to apply, 0 newly failed to apply, 0 reconciled.
1660994334555	Sync.Engine.Passwords	INFO	Uploading 0 outgoing records
1660994334556	Sync.Engine.Tabs	DEBUG	First sync, uploading all items
1660994334556	FirefoxAccounts	TRACE	not checking freshness of profile as it remains recent
1660994334841	Sync.Collection	DEBUG	GET success 200 https://sync-1-us-west1-g.sync.services.mozilla.com/1.5/198389475/storage/tabs?full=1&limit=1000
1660994334846	Sync.Engine.Tabs	INFO	Records: 0 applied, 0 successfully, 0 failed to apply, 0 newly failed to apply, 1 reconciled.
1660994334846	Sync.Engine.Tabs	INFO	Uploading 1 outgoing records
1660994334847	Sync.Engine.Tabs	INFO	Posting 1 records of 294 bytes with batch=true
1660994334847	FirefoxAccounts	TRACE	not checking freshness of profile as it remains recent
1660994334848	Sync.Collection	DEBUG	POST Length: 294
1660994335180	Sync.Collection	DEBUG	POST success 200 https://sync-1-us-west1-g.sync.services.mozilla.com/1.5/198389475/storage/tabs?batch=true&commit=true
1660994335190	Sync.Engine.Bookmarks	DEBUG	Checking if server sync ID DyiUhNVgoHX4 matches existing
1660994335296	Sync.Engine.Bookmarks	INFO	Records: 0 applied, 0 successfully, 0 failed to apply, 0 newly failed to apply, 0 reconciled.
1660994335296	Sync.Engine.Bookmarks.Mirror	DEBUG	Merging bookmarks in Rust
1660994335328	Sync.Engine.Bookmarks.Mirror	DEBUG	Building local tree
1660994335343	Sync.Engine.Bookmarks.Mirror	DEBUG	Building remote tree
1660994335345	Sync.Engine.Bookmarks.Mirror	DEBUG	Building merged tree
1660994335345	Sync.Engine.Bookmarks.Mirror	DEBUG	Applying merged tree
1660994335346	Sync.Engine.Bookmarks.Mirror	DEBUG	Merging bookmarks in Rust took 49.285ms
1660994335346	Sync.Engine.Bookmarks.Mirror	DEBUG	No changes detected in both mirror and Places
1660994335347	Sync.Engine.Bookmarks	INFO	Uploading 0 outgoing records
1660994335347	Sync.Engine.Bookmarks.BookmarkSyncUtils	DEBUG	pushChanges: Processed change records: {"weak":0,"skipped":0,"updated":0}
1660994335347	Sync.Engine.Addons	DEBUG	Refreshing reconciler state
1660994335347	Sync.AddonsReconciler	INFO	Refreshing global state from AddonManager.
1660994335348	Sync.AddonsReconciler	DEBUG	Rectifying state for addon DoH Roll-Out (version=2.0.0, id=doh-rollout@mozilla.org)
1660994335348	Sync.AddonsReconciler	DEBUG	Rectifying state for addon Form Autofill (version=1.0.1, id=formautofill@mozilla.org)
1660994335348	Sync.AddonsReconciler	DEBUG	Rectifying state for addon Picture-In-Picture (version=1.0.0, id=pictureinpicture@mozilla.org)
1660994335348	Sync.AddonsReconciler	DEBUG	Rectifying state for addon Firefox Screenshots (version=39.0.1, id=screenshots@mozilla.org)
1660994335348	Sync.AddonsReconciler	DEBUG	Rectifying state for addon WebCompat Reporter (version=1.5.0, id=webcompat-reporter@mozilla.org)
1660994335348	Sync.AddonsReconciler	DEBUG	Rectifying state for addon Web Compatibility Interventions (version=103.0.0, id=webcompat@mozilla.org)
1660994335348	Sync.AddonsReconciler	DEBUG	Rectifying state for addon System theme — auto (version=1.3, id=default-theme@mozilla.org)
1660994335348	Sync.AddonsReconciler	DEBUG	Rectifying state for addon Add-ons Search Detection (version=2.0.0, id=addons-search-detection@mozilla.com)
1660994335348	Sync.AddonsReconciler	DEBUG	Rectifying state for addon Google (version=1.2, id=google@search.mozilla.org)
1660994335348	Sync.AddonsReconciler	DEBUG	Rectifying state for addon Wikipedia (en) (version=1.1, id=wikipedia@search.mozilla.org)
1660994335348	Sync.AddonsReconciler	DEBUG	Rectifying state for addon Bing (version=1.3, id=bing@search.mozilla.org)
1660994335348	Sync.AddonsReconciler	DEBUG	Rectifying state for addon DuckDuckGo (version=1.1, id=ddg@search.mozilla.org)
1660994335348	Sync.AddonsReconciler	DEBUG	Rectifying state for addon Light (version=1.2, id=firefox-compact-light@mozilla.org)
1660994335348	Sync.AddonsReconciler	DEBUG	Rectifying state for addon Dark (version=1.2, id=firefox-compact-dark@mozilla.org)
1660994335349	Sync.AddonsReconciler	DEBUG	Rectifying state for addon Firefox Alpenglow (version=1.4, id=firefox-alpenglow@mozilla.org)
1660994335349	Sync.AddonsReconciler	DEBUG	Rectifying state for addon uBlock Origin (version=1.44.0, id=uBlock0@raymondhill.net)
1660994335349	Sync.AddonsReconciler	DEBUG	Rectifying state for addon OpenH264 Video Codec provided by Cisco Systems, Inc. (version=1.8.1.2, id=gmp-gmpopenh264)
1660994335349	Sync.AddonsReconciler	DEBUG	Rectifying state for addon Widevine Content Decryption Module provided by Google Inc. (version=4.10.2449.0, id=gmp-widevinecdm)
1660994335349	Sync.AddonsReconciler	INFO	Saving reconciler state to file: addonsreconciler
1660994335357	Sync.Engine.Addons.Store	DEBUG	gmp-widevinecdm not syncable: type not in allowed list: plugin
1660994335357	Sync.Engine.Addons.Store	DEBUG	gmp-widevinecdm not syncable: type not in allowed list: plugin
1660994335358	Sync.Engine.Addons	INFO	Records: 0 applied, 0 successfully, 0 failed to apply, 0 newly failed to apply, 0 reconciled.
1660994335358	Sync.Engine.Addons	INFO	Uploading 0 outgoing records
1660994335364	Sync.Engine.CreditCards	DEBUG	First sync, uploading all items
1660994335365	Sync.Engine.CreditCards	INFO	Records: 0 applied, 0 successfully, 0 failed to apply, 0 newly failed to apply, 0 reconciled.
1660994335365	Sync.Engine.CreditCards	INFO	Uploading 0 outgoing records
1660994335366	Sync.Engine.Forms	INFO	Records: 0 applied, 0 successfully, 0 failed to apply, 0 newly failed to apply, 0 reconciled.
1660994335366	Sync.Engine.Forms	INFO	Uploading 0 outgoing records
1660994335366	Sync.Engine.History	DEBUG	Checking if server sync ID _xX5oQ-tthuW matches existing
1660994335372	Sync.Engine.History	INFO	Records: 0 applied, 0 successfully, 0 failed to apply, 0 newly failed to apply, 0 reconciled.
1660994335373	Sync.Engine.History	INFO	Uploading 0 outgoing records
1660994335465	Sync.Engine.Extension-Storage	INFO	Records: 0 applied, 0 successfully, 0 failed to apply, 0 newly failed to apply, 0 reconciled.
1660994335466	Sync.Engine.Extension-Storage	INFO	Uploading 0 outgoing records
1660994335468	Sync.Doctor	INFO	Skipping check of prefs - disabled via preferences
1660994335468	Sync.Doctor	INFO	Skipping check of passwords - disabled via preferences
1660994335468	Sync.Doctor	INFO	Skipping check of tabs - disabled via preferences
1660994335468	Sync.Doctor	INFO	Skipping check of bookmarks - disabled via preferences
1660994335468	Sync.Doctor	INFO	Skipping check of addons - disabled via preferences
1660994335468	Sync.Doctor	INFO	Skipping check of creditcards - disabled via preferences
1660994335468	Sync.Doctor	INFO	Skipping check of forms - disabled via preferences
1660994335468	Sync.Doctor	INFO	Skipping check of history - disabled via preferences
1660994335468	Sync.Doctor	INFO	Skipping check of extension-storage - disabled via preferences
1660994335469	Sync.Doctor	INFO	Skipping validation: no engines qualify
1660994335469	Sync.Status	DEBUG	Status.sync: success.sync => success.sync
1660994335469	Sync.Status	DEBUG	Status.service: success.status_ok => success.status_ok
1660994335473	Sync.Synchronizer	INFO	Sync completed at 2022-08-20 16:48:55 after 2.04 secs.
1660994335473	Sync.Declined	DEBUG	Handling remote declined: []
1660994335473	Sync.Declined	DEBUG	Handling local declined: []
1660994335473	Sync.Declined	DEBUG	Declined changed? false
1660994335473	Sync.Service	INFO	No change to declined engines. Not reuploading meta/global.
1660994335474	Sync.SyncScheduler	DEBUG	Next sync in 3600000 ms. (why=schedule)
