1660496103008	Sync.Status	INFO	Resetting Status.
1660496103008	Sync.Status	DEBUG	Status.service: undefined => success.status_ok
1660496103015	FirefoxAccounts	TRACE	initializing new storage manager
1660496103015	FirefoxAccounts	TRACE	starting fetch of json user data
1660496103015	Sync.SyncScheduler	TRACE	Setting SyncScheduler policy values to defaults.
1660496103015	Sync.SyncScheduler	DEBUG	Clearing sync triggers and the global score.
1660496103016	Sync.Service	INFO	Loading Weave 1.105.0
1660496103017	Sync.Engine.Clients	DEBUG	Engine constructed
1660496103018	Sync.Engine.Clients	DEBUG	Resetting clients last sync time
1660496103021	Sync.Engine.Addons	DEBUG	Engine constructed
1660496103065	FirefoxAccounts	TRACE	finished fetch of json user data - took: 50
1660496103066	FirefoxAccounts	DEBUG	reading secure storage with existing: []
1660496103066	FirefoxAccounts	TRACE	starting fetch of user data from the login manager
1660496103173	FirefoxAccounts	DEBUG	secure read fetched items: ["scopedKeys","kSync","kXCS","kExtSync","kExtKbHash"]
1660496103173	FirefoxAccounts	TRACE	initializing of new storage manager done
1660496103462	Sync.Engine.Addons	DEBUG	SyncEngine initialized: addons
1660496103576	FirefoxAccounts	DEBUG	FxAccountsWebChannel registered: account_updates with origin https://accounts.firefox.com
1660496103584	Sync.Engine.Bookmarks	DEBUG	Engine constructed
1660496103639	FirefoxAccounts	DEBUG	FxAccountsProfileClient: Initialized
1660496103639	FirefoxAccounts	DEBUG	FxAccountsProfileClient: Requested profile
1660496103639	FirefoxAccounts	DEBUG	getOAuthToken enter
1660496103640	FirefoxAccounts	TRACE	getCachedToken returning cached token
1660496103640	FirefoxAccounts	DEBUG	getOAuthToken returning a cached token
1660496103648	Services.Common.RESTRequest	DEBUG	GET request to https://profile.accounts.firefox.com/v1/profile
1660496103850	FirefoxAccounts	INFO	fetching updated device list
1660496103912	Sync.Engine.Bookmarks	DEBUG	SyncEngine initialized: bookmarks
1660496103914	Sync.Engine.Forms	DEBUG	Engine constructed
1660496103989	Services.Common.RESTRequest	DEBUG	GET request to https://api.accounts.firefox.com/v1/account/devices
1660496104031	Sync.Engine.Forms	DEBUG	SyncEngine initialized: forms
1660496104046	Sync.Engine.History	DEBUG	Engine constructed
1660496104799	Sync.Engine.History	DEBUG	SyncEngine initialized: history
1660496104800	Sync.Engine.Passwords	DEBUG	Engine constructed
1660496105028	Services.Common.RESTRequest	DEBUG	GET https://profile.accounts.firefox.com/v1/profile 304
1660496105110	Services.Common.RESTRequest	DEBUG	GET https://api.accounts.firefox.com/v1/account/devices 200
1660496105110	Hawk	DEBUG	(Response) /account/devices: code: 200 - Status text: OK
1660496105111	Hawk	DEBUG	Clock offset vs https://api.accounts.firefox.com/v1: -111
1660496105111	FirefoxAccounts	INFO	Got new device list: 19489cc9215e8d1d25c64f9fca4943c2
1660496105112	FirefoxAccounts	INFO	updating the cache
1660496105449	Sync.Engine.Passwords	DEBUG	SyncEngine initialized: passwords
1660496105451	Sync.Engine.Prefs	DEBUG	Engine constructed
1660496105878	Sync.Engine.Prefs	DEBUG	SyncEngine initialized: prefs
1660496105879	Sync.Engine.Tabs	DEBUG	Engine constructed
1660496106290	Sync.Engine.Tabs	DEBUG	SyncEngine initialized: tabs
1660496106290	Sync.Engine.Tabs	DEBUG	Resetting tabs last sync time
1660496106292	Sync.Engine.CreditCards	DEBUG	Engine constructed
1660496106510	Sync.Engine.CreditCards	DEBUG	SyncEngine initialized: creditcards
1660496106697	Sync.Engine.Extension-Storage	DEBUG	Engine constructed
1660496106701	Sync.Engine.Extension-Storage	DEBUG	SyncEngine initialized: extension-storage
1660496106701	Sync.Service	INFO	Mozilla/5.0 (X11; Linux x86_64; rv:103.0) Gecko/20100101 Firefox/103.0
1660496106702	Sync.AddonsReconciler	INFO	Registering as Add-on Manager listener.
1660496106702	Sync.AddonsReconciler	DEBUG	Adding change listener.
1660496106702	Sync.Engine.History.Tracker	INFO	Adding Places observer.
1660496106704	FirefoxAccounts	TRACE	not checking freshness of profile as it remains recent
1660496106706	Sync.Service	DEBUG	User-Agent: Firefox/103.0.2 (Linux x86_64) FxSync/1.105.0.20220808225913.desktop
1660496106706	Sync.Service	INFO	Starting sync at 2022-08-14 22:25:06 in browser session r0SifskpRSBR
1660496106706	Sync.Service	DEBUG	In sync: should login.
1660496106706	Sync.Service	INFO	User logged in successfully - verifying login.
1660496106706	FirefoxAccounts	TRACE	not checking freshness of profile as it remains recent
1660496106707	Sync.SyncAuthManager	DEBUG	unlockAndVerifyAuthState already has (or can fetch) sync keys
1660496106707	Sync.Status	DEBUG	Status.login: success.login => success.status_ok
1660496106707	Sync.Status	DEBUG	Status.service: success.status_ok => error.login.failed
1660496106707	Sync.Service	DEBUG	Fetching unlocked auth state returned success.status_ok
1660496106707	FirefoxAccounts	TRACE	not checking freshness of profile as it remains recent
1660496106707	Sync.SyncAuthManager	INFO	Getting sync key
1660496106709	Sync.SyncAuthManager	INFO	Getting a sync token from: https://token.services.mozilla.com/1.0/sync/1.5
1660496106709	Sync.SyncAuthManager	DEBUG	Getting a token using OAuth
1660496106709	FirefoxAccounts	DEBUG	getOAuthToken enter
1660496106709	FirefoxAccounts	TRACE	getCachedToken returning cached token
1660496106709	FirefoxAccounts	DEBUG	getOAuthToken returning a cached token
1660496106709	Services.Common.TokenServerClient	DEBUG	Beginning OAuth token exchange: https://token.services.mozilla.com/1.0/sync/1.5
1660496106710	Services.Common.RESTRequest	DEBUG	GET request to https://token.services.mozilla.com/1.0/sync/1.5
1660496107826	Services.Common.RESTRequest	DEBUG	GET https://token.services.mozilla.com/1.0/sync/1.5 200
1660496107826	Services.Common.TokenServerClient	DEBUG	Got token response: 200
1660496107826	Services.Common.TokenServerClient	DEBUG	Successful token response
1660496107827	Sync.BulkKeyBundle	INFO	BulkKeyBundle being created for undefined
1660496107827	Sync.Status	DEBUG	Status.login: success.status_ok => success.login
1660496107827	Sync.Status	DEBUG	Status.service: error.login.failed => success.status_ok
1660496107827	Sync.SyncAuthManager	DEBUG	_findCluster returning https://sync-1-us-west1-g.sync.services.mozilla.com/1.5/198389475/
1660496107827	Sync.SyncAuthManager	DEBUG	Cluster value = https://sync-1-us-west1-g.sync.services.mozilla.com/1.5/198389475/
1660496107827	Sync.SyncAuthManager	DEBUG	Setting cluster to https://sync-1-us-west1-g.sync.services.mozilla.com/1.5/198389475/
1660496107827	Sync.Service	DEBUG	Caching URLs under storage user base: https://sync-1-us-west1-g.sync.services.mozilla.com/1.5/198389475/
1660496107827	FirefoxAccounts	TRACE	not checking freshness of profile as it remains recent
1660496107828	FirefoxAccounts	TRACE	not checking freshness of profile as it remains recent
1660496108217	Sync.Resource	DEBUG	GET success 200 https://sync-1-us-west1-g.sync.services.mozilla.com/1.5/198389475/info/collections
1660496108218	Sync.Service	DEBUG	Fetching server configuration: https://sync-1-us-west1-g.sync.services.mozilla.com/1.5/198389475/info/configuration
1660496108218	FirefoxAccounts	TRACE	not checking freshness of profile as it remains recent
1660496108472	Sync.Resource	DEBUG	GET success 200 https://sync-1-us-west1-g.sync.services.mozilla.com/1.5/198389475/info/configuration
1660496108472	Sync.Service	DEBUG	Fetching global metadata record
1660496108472	FirefoxAccounts	TRACE	not checking freshness of profile as it remains recent
1660496108757	Sync.Resource	DEBUG	GET success 200 https://sync-1-us-west1-g.sync.services.mozilla.com/1.5/198389475/storage/meta/global
1660496108757	Sync.Service	DEBUG	Clearing cached meta record. metaModified is undefined, setting to 1658672201.28
1660496108758	FirefoxAccounts	TRACE	not checking freshness of profile as it remains recent
1660496109052	Sync.Resource	DEBUG	GET success 200 https://sync-1-us-west1-g.sync.services.mozilla.com/1.5/198389475/storage/meta/global
1660496109053	Sync.Service	DEBUG	Weave Version: 1.105.0 Local Storage: 5 Remote Storage: 5
1660496109053	Sync.Service	DEBUG	Fetching and verifying -- or generating -- symmetric keys.
1660496109053	Sync.Service	INFO	Testing info/collections: {"prefs":1659003844.78,"tabs":1660478960.24,"meta":1658672201.28,"addons":1658672199.18,"bookmarks":1660478960.77,"passwords":1658672197.05,"crypto":1658672194,"forms":1658672200.08,"clients":1660478959.57,"history":1658672200.7}
1660496109053	Sync.CollectionKeyManager	INFO	Testing for updateNeeded. Last modified: 0
1660496109053	Sync.Service	INFO	collection keys reports that a key update is needed.
1660496109053	FirefoxAccounts	TRACE	not checking freshness of profile as it remains recent
1660496109323	Sync.Resource	DEBUG	GET success 200 https://sync-1-us-west1-g.sync.services.mozilla.com/1.5/198389475/storage/crypto/keys
1660496109324	Sync.CollectionKeyManager	INFO	Updating collection keys...
1660496109324	Sync.CollectionKeyManager	INFO	Setting collection keys contents. Our last modified: 0, input modified: 1658672194.
1660496109325	Sync.BulkKeyBundle	INFO	BulkKeyBundle being created for [default]
1660496109325	Sync.CollectionKeyManager	INFO	Processing downloaded per-collection keys.
1660496109325	Sync.CollectionKeyManager	INFO	Clearing collection keys...
1660496109325	Sync.CollectionKeyManager	INFO	Saving downloaded keys.
1660496109325	Sync.CollectionKeyManager	INFO	Bumping last modified to 1658672194
1660496109325	Sync.CollectionKeyManager	INFO	Collection keys updated.
1660496109325	Sync.Status	DEBUG	Status.login: success.login => success.login
1660496109325	Sync.Status	DEBUG	Status.service: success.status_ok => success.status_ok
1660496109325	Sync.Service	DEBUG	Caching URLs under storage user base: https://sync-1-us-west1-g.sync.services.mozilla.com/1.5/198389475/
1660496109325	Sync.SyncScheduler	DEBUG	Clearing sync triggers and the global score.
1660496109327	Sync.Status	INFO	Resetting Status.
1660496109327	Sync.Status	DEBUG	Status.service: success.status_ok => success.status_ok
1660496109328	FirefoxAccounts	TRACE	not checking freshness of profile as it remains recent
1660496109684	Sync.Resource	DEBUG	GET success 200 https://sync-1-us-west1-g.sync.services.mozilla.com/1.5/198389475/info/collections
1660496109684	Sync.Service	DEBUG	Fetching server configuration: https://sync-1-us-west1-g.sync.services.mozilla.com/1.5/198389475/info/configuration
1660496109685	FirefoxAccounts	TRACE	not checking freshness of profile as it remains recent
1660496109994	Sync.Resource	DEBUG	GET success 200 https://sync-1-us-west1-g.sync.services.mozilla.com/1.5/198389475/info/configuration
1660496109994	Sync.Service	DEBUG	Fetching global metadata record
1660496109994	Sync.Service	DEBUG	Weave Version: 1.105.0 Local Storage: 5 Remote Storage: 5
1660496109994	Sync.Service	DEBUG	Fetching and verifying -- or generating -- symmetric keys.
1660496109995	Sync.Service	INFO	Testing info/collections: {"crypto":1658672194,"clients":1660478959.57,"addons":1658672199.18,"passwords":1658672197.05,"forms":1658672200.08,"tabs":1660478960.24,"bookmarks":1660478960.77,"prefs":1659003844.78,"meta":1658672201.28,"history":1658672200.7}
1660496109995	Sync.CollectionKeyManager	INFO	Testing for updateNeeded. Last modified: 1658672194
1660496109995	Sync.Synchronizer	DEBUG	Refreshing client list.
1660496109995	Sync.Engine.Clients	DEBUG	First sync, uploading all items
1660496109996	Sync.Engine.Clients	DEBUG	Resetting clients last sync time
1660496109996	FirefoxAccounts	TRACE	not checking freshness of profile as it remains recent
1660496110302	Sync.Collection	DEBUG	GET success 200 https://sync-1-us-west1-g.sync.services.mozilla.com/1.5/198389475/storage/clients?full=1&limit=1000
1660496110499	Sync.Engine.Clients	INFO	Records: 0 applied, 0 successfully, 0 failed to apply, 0 newly failed to apply, 1 reconciled.
1660496110500	FirefoxAccounts	INFO	Device list cache is fresh, re-using it
1660496110500	Sync.Engine.Clients	DEBUG	Refreshing the known stale clients list
1660496110503	Sync.Engine.Clients	INFO	Uploading 1 outgoing records
1660496110505	Sync.Engine.Clients	INFO	Posting 1 records of 549 bytes with batch=true
1660496110505	FirefoxAccounts	TRACE	not checking freshness of profile as it remains recent
1660496110506	Sync.Collection	DEBUG	POST Length: 549
1660496111080	Sync.Collection	DEBUG	POST success 200 https://sync-1-us-west1-g.sync.services.mozilla.com/1.5/198389475/storage/clients?batch=true&commit=true
1660496111122	Sync.Status	DEBUG	Status for engine clients: error.engine.reason.unknown_fail
1660496111122	Sync.Status	DEBUG	Status.service: success.status_ok => error.sync.failed_partial
1660496111122	Sync.ErrorHandler	DEBUG	clients was interrupted due to the application shutting down
1660496111122	Sync.Synchronizer	INFO	clients was interrupted by shutdown; no other engines will sync
1660496111122	Sync.Synchronizer	WARN	Client engine sync failed. Aborting.
1660496111122	Sync.Declined	DEBUG	Handling remote declined: []
1660496111122	Sync.Declined	DEBUG	Handling local declined: []
1660496111123	Sync.Declined	DEBUG	Declined changed? false
1660496111123	Sync.Service	INFO	No change to declined engines. Not reuploading meta/global.
1660496111123	Sync.ErrorHandler	ERROR	Some engines did not sync correctly.
1660496111123	Sync.SyncScheduler	DEBUG	Next sync in 3600000 ms. (why=schedule)
