1660447446973	Sync.Status	INFO	Resetting Status.
1660447446973	Sync.Status	DEBUG	Status.service: undefined => success.status_ok
1660447446979	FirefoxAccounts	TRACE	initializing new storage manager
1660447446979	FirefoxAccounts	TRACE	starting fetch of json user data
1660447446980	Sync.SyncScheduler	TRACE	Setting SyncScheduler policy values to defaults.
1660447446980	Sync.SyncScheduler	DEBUG	Clearing sync triggers and the global score.
1660447446980	Sync.Service	INFO	Loading Weave 1.105.0
1660447446980	Sync.Engine.Clients	DEBUG	Engine constructed
1660447446981	Sync.Engine.Clients	DEBUG	Resetting clients last sync time
1660447446984	Sync.Engine.Addons	DEBUG	Engine constructed
1660447446991	FirefoxAccounts	DEBUG	FxAccountsWebChannel registered: account_updates with origin https://accounts.firefox.com
1660447447067	FirefoxAccounts	TRACE	finished fetch of json user data - took: 88
1660447447068	FirefoxAccounts	DEBUG	reading secure storage with existing: []
1660447447068	FirefoxAccounts	TRACE	starting fetch of user data from the login manager
1660447447075	FirefoxAccounts	DEBUG	secure read fetched items: ["scopedKeys","kSync","kXCS","kExtSync","kExtKbHash"]
1660447447075	FirefoxAccounts	TRACE	initializing of new storage manager done
1660447447098	FirefoxAccounts	DEBUG	FxAccountsProfileClient: Initialized
1660447447098	FirefoxAccounts	DEBUG	FxAccountsProfileClient: Requested profile
1660447447098	FirefoxAccounts	DEBUG	getOAuthToken enter
1660447447098	FirefoxAccounts	TRACE	getCachedToken returning cached token
1660447447098	FirefoxAccounts	DEBUG	getOAuthToken returning a cached token
1660447447099	Services.Common.RESTRequest	DEBUG	GET request to https://profile.accounts.firefox.com/v1/profile
1660447447925	FirefoxAccounts	INFO	fetching updated device list
1660447447956	Sync.Engine.Addons	DEBUG	SyncEngine initialized: addons
1660447447965	Sync.Engine.Bookmarks	DEBUG	Engine constructed
1660447447967	Services.Common.RESTRequest	DEBUG	GET request to https://api.accounts.firefox.com/v1/account/devices
1660447448229	Sync.Engine.Bookmarks	DEBUG	SyncEngine initialized: bookmarks
1660447448231	Sync.Engine.Forms	DEBUG	Engine constructed
1660447448374	Sync.Engine.Forms	DEBUG	SyncEngine initialized: forms
1660447448375	Sync.Engine.History	DEBUG	Engine constructed
1660447448417	Services.Common.RESTRequest	DEBUG	GET https://profile.accounts.firefox.com/v1/profile 401
1660447448417	FirefoxAccounts	INFO	Fetching the profile returned a 401 - revoking our token and retrying
1660447448417	Services.Common.RESTRequest	DEBUG	POST request to https://api.accounts.firefox.com/v1/oauth/destroy
1660447448417	Services.Common.RESTRequest	DEBUG	POST Length: 900
1660447448418	FirefoxAccounts	DEBUG	_updateAccountData with items: ["oauthTokens"]
1660447448418	FirefoxAccounts	DEBUG	writing plain storage: ["email","sessionToken","uid","verified","device","oauthTokens","encryptedSendTabKeys","profileCache"]
1660447448418	FirefoxAccounts	TRACE	starting write of json user data: ["email","sessionToken","uid","verified","device","oauthTokens","encryptedSendTabKeys","profileCache"]
1660447448418	FirefoxAccounts	DEBUG	getOAuthToken enter
1660447448419	Services.Common.RESTRequest	DEBUG	POST request to https://api.accounts.firefox.com/v1/oauth/token
1660447448419	Services.Common.RESTRequest	DEBUG	POST Length: 81
1660447448510	FirefoxAccounts	TRACE	finished write of json user data - took: 92
1660447448510	FirefoxAccounts	DEBUG	writing secure storage: ["scopedKeys","kSync","kXCS","kExtSync","kExtKbHash"]
1660447448510	FirefoxAccounts	TRACE	starting write of user data to the login manager
1660447448514	FirefoxAccounts	TRACE	finished write of user data to the login manager
1660447448594	Sync.Engine.History	DEBUG	SyncEngine initialized: history
1660447448596	Sync.Engine.Passwords	DEBUG	Engine constructed
1660447448718	Sync.Engine.Passwords	DEBUG	SyncEngine initialized: passwords
1660447448719	Sync.Engine.Prefs	DEBUG	Engine constructed
1660447448746	Sync.Engine.Prefs	DEBUG	SyncEngine initialized: prefs
1660447448749	Sync.Engine.Tabs	DEBUG	Engine constructed
1660447448800	Sync.Engine.Tabs	DEBUG	SyncEngine initialized: tabs
1660447448800	Sync.Engine.Tabs	DEBUG	Resetting tabs last sync time
1660447448822	Sync.Engine.CreditCards	DEBUG	Engine constructed
1660447448823	Sync.Engine.CreditCards	DEBUG	SyncEngine initialized: creditcards
1660447448845	Sync.Engine.Extension-Storage	DEBUG	Engine constructed
1660447448859	Sync.Engine.Extension-Storage	DEBUG	SyncEngine initialized: extension-storage
1660447448860	Sync.Service	INFO	Mozilla/5.0 (X11; Linux x86_64; rv:103.0) Gecko/20100101 Firefox/103.0
1660447448861	Sync.AddonsReconciler	INFO	Registering as Add-on Manager listener.
1660447448861	Sync.AddonsReconciler	DEBUG	Adding change listener.
1660447448861	Sync.Engine.History.Tracker	INFO	Adding Places observer.
1660447448865	FirefoxAccounts	INFO	Already fetching device list, return existing promise
1660447448865	Sync.Service	DEBUG	User-Agent: Firefox/103.0.2 (Linux x86_64) FxSync/1.105.0.20220808225913.desktop
1660447448865	Sync.Service	INFO	Starting sync at 2022-08-14 08:54:08 in browser session SmvEBxBVLlPv
1660447448865	Sync.Service	DEBUG	In sync: should login.
1660447448865	Sync.Service	INFO	User logged in successfully - verifying login.
1660447448865	Sync.SyncAuthManager	DEBUG	unlockAndVerifyAuthState already has (or can fetch) sync keys
1660447448865	Sync.Status	DEBUG	Status.login: success.login => success.status_ok
1660447448865	Sync.Status	DEBUG	Status.service: success.status_ok => error.login.failed
1660447448865	Sync.Service	DEBUG	Fetching unlocked auth state returned success.status_ok
1660447448865	Sync.SyncAuthManager	INFO	Getting sync key
1660447448866	Sync.SyncAuthManager	INFO	Getting a sync token from: https://token.services.mozilla.com/1.0/sync/1.5
1660447448866	Sync.SyncAuthManager	DEBUG	Getting a token using OAuth
1660447448866	FirefoxAccounts	DEBUG	getOAuthToken enter
1660447448866	FirefoxAccounts	TRACE	getCachedToken returning cached token
1660447448866	FirefoxAccounts	DEBUG	getOAuthToken returning a cached token
1660447448866	Services.Common.TokenServerClient	DEBUG	Beginning OAuth token exchange: https://token.services.mozilla.com/1.0/sync/1.5
1660447448866	Services.Common.RESTRequest	DEBUG	GET request to https://token.services.mozilla.com/1.0/sync/1.5
1660447449214	Services.Common.RESTRequest	DEBUG	GET https://api.accounts.firefox.com/v1/account/devices 200
1660447449214	Hawk	DEBUG	(Response) /account/devices: code: 200 - Status text: OK
1660447449215	Hawk	DEBUG	Clock offset vs https://api.accounts.firefox.com/v1: -1215
1660447449215	FirefoxAccounts	INFO	Got new device list: 19489cc9215e8d1d25c64f9fca4943c2
1660447449215	FirefoxAccounts	INFO	updating the cache
1660447449653	Services.Common.RESTRequest	DEBUG	POST https://api.accounts.firefox.com/v1/oauth/token 500
1660447449654	Hawk	DEBUG	(Response) /oauth/token: code: 500 - Status text: Internal Server Error
1660447449654	Hawk	DEBUG	Clock offset vs https://api.accounts.firefox.com/v1: -654
1660447449654	FirefoxAccounts	ERROR	error POSTing /oauth/token: {"code":500,"errno":999,"error":"Internal Server Error","message":"An internal server error occurred","info":"https://github.com/mozilla/fxa/blob/main/packages/fxa-auth-server/docs/api.md#response-format","request":{"acceptLanguage":"en-US, en","locale":"en-US","userAgent":{"browser":"Firefox","browserVersion":"103.0","os":"Linux","osVersion":null,"deviceType":null},"method":"post","path":"/v1/oauth/token","query":{},"payload":{"client_id":"5882386c6d801776","scope":["profile"]},"headers":{"host":"api.accounts.firefox.com","connection":"close","content-length":"81","accept":"application/json;q=0.9,*/*;q=0.2","accept-encoding":"gzip, deflate, br","accept-language":"en-US, en","cache-control":"no-cache","content-type":"application/json; charset=utf-8","pragma":"no-cache","sec-fetch-dest":"empty","sec-fetch-mode":"no-cors","sec-fetch-site":"none","user-agent":"Mozilla/5.0 (X11; Linux x86_64; rv:103.0) Gecko/20100101 Firefox/103.0","x-forwarded-port":"443","x-forwarded-proto":"https"}}}
1660447449655	FirefoxAccounts	ERROR	Background refresh of profile failed: {"code":500,"errno":999,"error":"Internal Server Error","message":"An internal server error occurred","info":"https://github.com/mozilla/fxa/blob/main/packages/fxa-auth-server/docs/api.md#response-format","request":{"acceptLanguage":"en-US, en","locale":"en-US","userAgent":{"browser":"Firefox","browserVersion":"103.0","os":"Linux","osVersion":null,"deviceType":null},"method":"post","path":"/v1/oauth/token","query":{},"payload":{"client_id":"5882386c6d801776","scope":["profile"]},"headers":{"host":"api.accounts.firefox.com","connection":"close","content-length":"81","accept":"application/json;q=0.9,*/*;q=0.2","accept-encoding":"gzip, deflate, br","accept-language":"en-US, en","cache-control":"no-cache","content-type":"application/json; charset=utf-8","pragma":"no-cache","sec-fetch-dest":"empty","sec-fetch-mode":"no-cors","sec-fetch-site":"none","user-agent":"Mozilla/5.0 (X11; Linux x86_64; rv:103.0) Gecko/20100101 Firefox/103.0","x-forwarded-port":"443","x-forwarded-proto":"https"}}}
1660447449655	FirefoxAccounts	ERROR	Background refresh of profile failed: {"code":500,"errno":999,"error":"Internal Server Error","message":"An internal server error occurred","info":"https://github.com/mozilla/fxa/blob/main/packages/fxa-auth-server/docs/api.md#response-format","request":{"acceptLanguage":"en-US, en","locale":"en-US","userAgent":{"browser":"Firefox","browserVersion":"103.0","os":"Linux","osVersion":null,"deviceType":null},"method":"post","path":"/v1/oauth/token","query":{},"payload":{"client_id":"5882386c6d801776","scope":["profile"]},"headers":{"host":"api.accounts.firefox.com","connection":"close","content-length":"81","accept":"application/json;q=0.9,*/*;q=0.2","accept-encoding":"gzip, deflate, br","accept-language":"en-US, en","cache-control":"no-cache","content-type":"application/json; charset=utf-8","pragma":"no-cache","sec-fetch-dest":"empty","sec-fetch-mode":"no-cors","sec-fetch-site":"none","user-agent":"Mozilla/5.0 (X11; Linux x86_64; rv:103.0) Gecko/20100101 Firefox/103.0","x-forwarded-port":"443","x-forwarded-proto":"https"}}}
1660447449655	FirefoxAccounts	ERROR	Background refresh of profile failed: {"code":500,"errno":999,"error":"Internal Server Error","message":"An internal server error occurred","info":"https://github.com/mozilla/fxa/blob/main/packages/fxa-auth-server/docs/api.md#response-format","request":{"acceptLanguage":"en-US, en","locale":"en-US","userAgent":{"browser":"Firefox","browserVersion":"103.0","os":"Linux","osVersion":null,"deviceType":null},"method":"post","path":"/v1/oauth/token","query":{},"payload":{"client_id":"5882386c6d801776","scope":["profile"]},"headers":{"host":"api.accounts.firefox.com","connection":"close","content-length":"81","accept":"application/json;q=0.9,*/*;q=0.2","accept-encoding":"gzip, deflate, br","accept-language":"en-US, en","cache-control":"no-cache","content-type":"application/json; charset=utf-8","pragma":"no-cache","sec-fetch-dest":"empty","sec-fetch-mode":"no-cors","sec-fetch-site":"none","user-agent":"Mozilla/5.0 (X11; Linux x86_64; rv:103.0) Gecko/20100101 Firefox/103.0","x-forwarded-port":"443","x-forwarded-proto":"https"}}}
1660447449655	FirefoxAccounts	ERROR	Background refresh of profile failed: {"code":500,"errno":999,"error":"Internal Server Error","message":"An internal server error occurred","info":"https://github.com/mozilla/fxa/blob/main/packages/fxa-auth-server/docs/api.md#response-format","request":{"acceptLanguage":"en-US, en","locale":"en-US","userAgent":{"browser":"Firefox","browserVersion":"103.0","os":"Linux","osVersion":null,"deviceType":null},"method":"post","path":"/v1/oauth/token","query":{},"payload":{"client_id":"5882386c6d801776","scope":["profile"]},"headers":{"host":"api.accounts.firefox.com","connection":"close","content-length":"81","accept":"application/json;q=0.9,*/*;q=0.2","accept-encoding":"gzip, deflate, br","accept-language":"en-US, en","cache-control":"no-cache","content-type":"application/json; charset=utf-8","pragma":"no-cache","sec-fetch-dest":"empty","sec-fetch-mode":"no-cors","sec-fetch-site":"none","user-agent":"Mozilla/5.0 (X11; Linux x86_64; rv:103.0) Gecko/20100101 Firefox/103.0","x-forwarded-port":"443","x-forwarded-proto":"https"}}}
1660447449944	Services.Common.RESTRequest	DEBUG	POST https://api.accounts.firefox.com/v1/oauth/destroy 500
1660447449944	Hawk	DEBUG	(Response) /oauth/destroy: code: 500 - Status text: Internal Server Error
1660447449944	Hawk	DEBUG	Clock offset vs https://api.accounts.firefox.com/v1: -944
1660447449944	FirefoxAccounts	ERROR	error POSTing /oauth/destroy: {"code":500,"errno":999,"error":"Internal Server Error","message":"An internal server error occurred","info":"https://github.com/mozilla/fxa/blob/main/packages/fxa-auth-server/docs/api.md#response-format","request":{"acceptLanguage":"en-US, en","locale":"en-US","userAgent":{"browser":"Firefox","browserVersion":"103.0","os":"Linux","osVersion":null,"deviceType":null},"method":"post","path":"/v1/oauth/destroy","query":{},"payload":{"client_id":"5882386c6d801776"},"headers":{"host":"api.accounts.firefox.com","connection":"close","content-length":"900","accept":"application/json;q=0.9,*/*;q=0.2","accept-encoding":"gzip, deflate, br","accept-language":"en-US, en","cache-control":"no-cache","content-type":"application/json; charset=utf-8","pragma":"no-cache","sec-fetch-dest":"empty","sec-fetch-mode":"no-cors","sec-fetch-site":"none","user-agent":"Mozilla/5.0 (X11; Linux x86_64; rv:103.0) Gecko/20100101 Firefox/103.0","x-forwarded-port":"443","x-forwarded-proto":"https"}}}
1660447449944	FirefoxAccounts	WARN	FxA failed to revoke a cached token: {"code":500,"errno":999,"error":"Internal Server Error","message":"An internal server error occurred","info":"https://github.com/mozilla/fxa/blob/main/packages/fxa-auth-server/docs/api.md#response-format","request":{"acceptLanguage":"en-US, en","locale":"en-US","userAgent":{"browser":"Firefox","browserVersion":"103.0","os":"Linux","osVersion":null,"deviceType":null},"method":"post","path":"/v1/oauth/destroy","query":{},"payload":{"client_id":"5882386c6d801776"},"headers":{"host":"api.accounts.firefox.com","connection":"close","content-length":"900","accept":"application/json;q=0.9,*/*;q=0.2","accept-encoding":"gzip, deflate, br","accept-language":"en-US, en","cache-control":"no-cache","content-type":"application/json; charset=utf-8","pragma":"no-cache","sec-fetch-dest":"empty","sec-fetch-mode":"no-cors","sec-fetch-site":"none","user-agent":"Mozilla/5.0 (X11; Linux x86_64; rv:103.0) Gecko/20100101 Firefox/103.0","x-forwarded-port":"443","x-forwarded-proto":"https"}}}
1660447450306	Services.Common.RESTRequest	DEBUG	GET https://token.services.mozilla.com/1.0/sync/1.5 401
1660447450306	Services.Common.TokenServerClient	DEBUG	Got token response: 401
1660447450307	Services.Common.TokenServerClient	INFO	Server-reported error: {"location":"body","name":"","description":"Unauthorized"}
1660447450307	Services.Common.RESTRequest	DEBUG	POST request to https://api.accounts.firefox.com/v1/oauth/destroy
1660447450308	Services.Common.RESTRequest	DEBUG	POST Length: 969
1660447450308	FirefoxAccounts	DEBUG	_updateAccountData with items: ["oauthTokens"]
1660447450308	FirefoxAccounts	DEBUG	writing plain storage: ["email","sessionToken","uid","verified","device","oauthTokens","encryptedSendTabKeys","profileCache"]
1660447450308	FirefoxAccounts	TRACE	starting write of json user data: ["email","sessionToken","uid","verified","device","oauthTokens","encryptedSendTabKeys","profileCache"]
1660447450309	Sync.SyncAuthManager	WARN	Token server returned 401, retrying token fetch with fresh credentials
1660447450309	Sync.SyncAuthManager	INFO	Getting a sync token from: https://token.services.mozilla.com/1.0/sync/1.5
1660447450309	Sync.SyncAuthManager	DEBUG	Getting a token using OAuth
1660447450309	FirefoxAccounts	DEBUG	getOAuthToken enter
1660447450315	Services.Common.RESTRequest	DEBUG	POST request to https://api.accounts.firefox.com/v1/oauth/token
1660447450315	Services.Common.RESTRequest	DEBUG	POST Length: 127
1660447450473	FirefoxAccounts	TRACE	finished write of json user data - took: 165
1660447450473	FirefoxAccounts	DEBUG	writing secure storage: ["scopedKeys","kSync","kXCS","kExtSync","kExtKbHash"]
1660447450473	FirefoxAccounts	TRACE	starting write of user data to the login manager
1660447450476	FirefoxAccounts	TRACE	finished write of user data to the login manager
1660447450612	Services.Common.RESTRequest	DEBUG	POST https://api.accounts.firefox.com/v1/oauth/destroy 500
1660447450612	Hawk	DEBUG	(Response) /oauth/destroy: code: 500 - Status text: Internal Server Error
1660447450612	Hawk	DEBUG	Clock offset vs https://api.accounts.firefox.com/v1: -612
1660447450612	FirefoxAccounts	ERROR	error POSTing /oauth/destroy: {"code":500,"errno":999,"error":"Internal Server Error","message":"An internal server error occurred","info":"https://github.com/mozilla/fxa/blob/main/packages/fxa-auth-server/docs/api.md#response-format","request":{"acceptLanguage":"en-US, en","locale":"en-US","userAgent":{"browser":"Firefox","browserVersion":"103.0","os":"Linux","osVersion":null,"deviceType":null},"method":"post","path":"/v1/oauth/destroy","query":{},"payload":{"client_id":"5882386c6d801776"},"headers":{"host":"api.accounts.firefox.com","connection":"close","content-length":"969","accept":"application/json;q=0.9,*/*;q=0.2","accept-encoding":"gzip, deflate, br","accept-language":"en-US, en","cache-control":"no-cache","content-type":"application/json; charset=utf-8","pragma":"no-cache","sec-fetch-dest":"empty","sec-fetch-mode":"no-cors","sec-fetch-site":"none","user-agent":"Mozilla/5.0 (X11; Linux x86_64; rv:103.0) Gecko/20100101 Firefox/103.0","x-forwarded-port":"443","x-forwarded-proto":"https"}}}
1660447450612	FirefoxAccounts	WARN	FxA failed to revoke a cached token: {"code":500,"errno":999,"error":"Internal Server Error","message":"An internal server error occurred","info":"https://github.com/mozilla/fxa/blob/main/packages/fxa-auth-server/docs/api.md#response-format","request":{"acceptLanguage":"en-US, en","locale":"en-US","userAgent":{"browser":"Firefox","browserVersion":"103.0","os":"Linux","osVersion":null,"deviceType":null},"method":"post","path":"/v1/oauth/destroy","query":{},"payload":{"client_id":"5882386c6d801776"},"headers":{"host":"api.accounts.firefox.com","connection":"close","content-length":"969","accept":"application/json;q=0.9,*/*;q=0.2","accept-encoding":"gzip, deflate, br","accept-language":"en-US, en","cache-control":"no-cache","content-type":"application/json; charset=utf-8","pragma":"no-cache","sec-fetch-dest":"empty","sec-fetch-mode":"no-cors","sec-fetch-site":"none","user-agent":"Mozilla/5.0 (X11; Linux x86_64; rv:103.0) Gecko/20100101 Firefox/103.0","x-forwarded-port":"443","x-forwarded-proto":"https"}}}
1660447450624	Services.Common.RESTRequest	DEBUG	POST https://api.accounts.firefox.com/v1/oauth/token 500
1660447450624	Hawk	DEBUG	(Response) /oauth/token: code: 500 - Status text: Internal Server Error
1660447450624	Hawk	DEBUG	Clock offset vs https://api.accounts.firefox.com/v1: -624
1660447450624	FirefoxAccounts	ERROR	error POSTing /oauth/token: {"code":500,"errno":999,"error":"Internal Server Error","message":"An internal server error occurred","info":"https://github.com/mozilla/fxa/blob/main/packages/fxa-auth-server/docs/api.md#response-format","request":{"acceptLanguage":"en-US, en","locale":"en-US","userAgent":{"browser":"Firefox","browserVersion":"103.0","os":"Linux","osVersion":null,"deviceType":null},"method":"post","path":"/v1/oauth/token","query":{},"payload":{"client_id":"5882386c6d801776","scope":["https://identity.mozilla.com/apps/oldsync"],"ttl":21600},"headers":{"host":"api.accounts.firefox.com","connection":"close","content-length":"127","accept":"application/json;q=0.9,*/*;q=0.2","accept-encoding":"gzip, deflate, br","accept-language":"en-US, en","cache-control":"no-cache","content-type":"application/json; charset=utf-8","pragma":"no-cache","sec-fetch-dest":"empty","sec-fetch-mode":"no-cors","sec-fetch-site":"none","user-agent":"Mozilla/5.0 (X11; Linux x86_64; rv:103.0) Gecko/20100101 Firefox/103.0","x-forwarded-port":"443","x-forwarded-proto":"https"}}}
1660447450624	FirefoxAccounts	ERROR	FxA rejecting with error UNKNOWN_ERROR, details: {"code":500,"errno":999,"error":"Internal Server Error","message":"An internal server error occurred","info":"https://github.com/mozilla/fxa/blob/main/packages/fxa-auth-server/docs/api.md#response-format","request":{"acceptLanguage":"en-US, en","locale":"en-US","userAgent":{"browser":"Firefox","browserVersion":"103.0","os":"Linux","osVersion":null,"deviceType":null},"method":"post","path":"/v1/oauth/token","query":{},"payload":{"client_id":"5882386c6d801776","scope":["https://identity.mozilla.com/apps/oldsync"],"ttl":21600},"headers":{"host":"api.accounts.firefox.com","connection":"close","content-length":"127","accept":"application/json;q=0.9,*/*;q=0.2","accept-encoding":"gzip, deflate, br","accept-language":"en-US, en","cache-control":"no-cache","content-type":"application/json; charset=utf-8","pragma":"no-cache","sec-fetch-dest":"empty","sec-fetch-mode":"no-cors","sec-fetch-site":"none","user-agent":"Mozilla/5.0 (X11; Linux x86_64; rv:103.0) Gecko/20100101 Firefox/103.0","x-forwarded-port":"443","x-forwarded-proto":"https"}}}
1660447450624	Sync.SyncAuthManager	ERROR	Non-authentication error in _fetchTokenForUser: Error: UNKNOWN_ERROR(resource://gre/modules/FxAccounts.jsm:1536:18) JS Stack trace: _error@FxAccounts.jsm:1536:18
_errorToErrorClass@FxAccounts.jsm:1515:19
getOAuthToken@FxAccounts.jsm:501:28
1660447450627	Sync.Status	DEBUG	Status.login: success.status_ok => error.login.reason.network
1660447450627	Sync.Status	DEBUG	Status.service: error.login.failed => error.login.failed
1660447450627	Sync.SyncAuthManager	INFO	Failed to fetch the cluster URL: Error: UNKNOWN_ERROR(resource://gre/modules/FxAccounts.jsm:1536:18) JS Stack trace: _error@FxAccounts.jsm:1536:18
_errorToErrorClass@FxAccounts.jsm:1515:19
getOAuthToken@FxAccounts.jsm:501:28
1660447450627	Sync.Service	DEBUG	verifyLogin failed: Error: UNKNOWN_ERROR(resource://gre/modules/FxAccounts.jsm:1536:18) JS Stack trace: _error@FxAccounts.jsm:1536:18
_errorToErrorClass@FxAccounts.jsm:1515:19
getOAuthToken@FxAccounts.jsm:501:28
1660447450627	Sync.Status	DEBUG	Status.login: error.login.reason.network => error.login.reason.network
1660447450627	Sync.Status	DEBUG	Status.service: error.login.failed => error.login.failed
1660447450627	Sync.ErrorHandler	ERROR	Sync encountered a login error
1660447450628	Sync.SyncScheduler	DEBUG	Clearing sync triggers and the global score.
1660447450628	Sync.SyncScheduler	DEBUG	Next sync in 3600000 ms. (why=schedule)
1660447450628	FirefoxAccounts	TRACE	not checking freshness of profile as it remains recent
1660447450628	Sync.Service	DEBUG	Exception calling WrappedLock: Error: Login failed: error.login.reason.network(resource://services-sync/service.js:1040:15) JS Stack trace: onNotify@service.js:1040:15
1660447450628	Sync.Service	DEBUG	Not syncing: login returned false.
1660447450628	FirefoxAccounts	TRACE	not checking freshness of profile as it remains recent
