classify-client.services.mozilla.com:HSTS	0	19228	1692890643276,1,0
firefox.settings.services.mozilla.com:HSTS	0	19228	1692890116044,1,0,2
contile.services.mozilla.com:HSTS	0	19228	1692892212439,1,0
shavar.services.mozilla.com^firstPartyDomain=safebrowsing.86868755-6b82-4842-b301-72671a0db32e.mozilla:HSTS	0	19228	1692891913129,1,1
aus5.mozilla.org:HSTS	0	19228	1692891997174,1,0
normandy.cdn.mozilla.net:HSTS	0	19228	1692890642996,1,0
